logic_analyzer_vcd_dumps/0.00.0-homescore=0.vcd
$comment 
  OLS Java Client
$end
$date 
  May 12, 2014 10:45:43 PM
$end
$version 
  VCD exporter v1.1
$end
$timescale 
  10 ns
$end
$scope 
  module logic
$end
$var wire 1 ! Channel-0 $end
$var wire 1 " Channel-1 $end
$var wire 1 # Channel-2 $end
$var wire 1 $ Channel-3 $end
$var wire 1 % Channel-4 $end
$var wire 1 & Channel-5 $end
$var wire 1 ' Channel-6 $end
$var wire 1 ( Channel-7 $end
$upscope $end
$enddefinitions $end
$dumpvars
x!
x"
x#
x$
x%
x&
x'
x(
$end
#0
0!
0"
0#
0$
0%
0&
0'
0(
#25
1!
#330
0!
#410
1!
#720
0!
#800
1!
#1105
0!
#1185
1!
#1495
0!
#1575
1!
#1880
0!
#1960
1!
#2270
0!
#2350
1!
#2655
0!
#2735
1!
#3045
0!
#3125
1!
#3430
0!
#3510
1!
#3820
0!
#3900
1!
#3995
0!
#4285
1!
#4380
0!
#4675
1!
#4980
0!
#5060
1!
#5155
0!
#5450
1!
#5540
0!
#5835
1!
#6145
0!
#6225
1!
#6530
0!
#6610
1!
#6920
0!
#7000
1!
#7305
0!
#7385
1!
#7695
0!
#7775
1!
#8080
0!
#8160
1!
#8465
0!
#8550
1!
#8855
0!
#8935
1!
#9240
0!
#9325
1!
#9630
0!
#9710
1!
#10015
0!
#10100
1!
#10190
0!
#10485
1!
#10790
0!
#10875
1!
#10965
0!
#11260
1!
#11355
0!
#11650
1!
#11955
0!
#12035
1!
#12340
0!
#12425
1!
#12730
0!
#12810
1!
#13115
0!
#13200
1!
#13505
0!
#13585
1!
#13890
0!
#13975
1!
#14280
0!
#14360
1!
#14665
0!
#14750
1!
#15055
0!
#15135
1!
#15440
0!
#15525
1!
#15830
0!
#15910
1!
#16215
0!
#16300
1!
#17005
0!
#17085
1!
#17390
0!
#17475
1!
#17565
0!
#17860
1!
#17955
0!
#18250
1!
#18340
0!
#18635
1!
#18730
0!
#19025
1!
#19115
0!
#19410
1!
#19715
0!
#19800
1!
#20105
0!
#20185
1!
#20490
0!
#20575
1!
#20880
0!
#20960
1!
#21265
0!
#21350
1!
#21655
0!
#21735
1!
#22040
0!
#22125
1!
#22430
0!
#22510
1!
#22605
0!
#22900
1!
#22990
0!
#23285
1!
#23380
0!
#23675
1!
#23765
0!
#24060
1!
#24365
0!
#24450
1!
#24540
0!
#24835
1!
#24930
0!
#25225
1!
#25315
0!
#25610
1!
#25915
0!
#26000
1!
#26305
0!
#26385
1!
#26690
0!
#26775
1!
#27080
0!
#27160
1!
#27465
0!
#27550
1!
#27855
0!
#27935
1!
#28240
0!
#28325
1!
#28630
0!
#28710
1!
#29015
0!
#29100
1!
#29405
0!
#29485
1!
#29580
0!
#29875
1!
#29965
0!
#30260
1!
#30355
0!
#30650
1!
#30955
0!
#31035
1!
#31130
0!
#31425
1!
#31515
0!
#31810
1!
#31905
0!
#32200
1!
#32290
0!
#32585
1!
#32680
0!
#32975
1!
#33065
0!
#33360
1!
#33665
0!
#33750
1!
#34055
0!
#34135
1!
#34440
0!
#34525
1!
#34830
0!
#34910
1!
#35215
0!
#35300
1!
#35605
0!
#35685
1!
#35990
0!
#36075
1!
#36380
0!
#36460
1!
#36765
0!
#36850
1!
#37155
0!
#37235
1!
#37330
0!
#37620
1!
#37715
0!
#38010
1!
#38105
0!
#38395
1!
#38490
0!
#38785
1!
#38880
0!
#39170
1!
#39265
0!
#39560
1!
#39865
0!
#39945
1!
#40255
0!
#40335
1!
#40640
0!
#40720
1!
#41030
0!
#41110
1!
#41415
0!
#41495
1!
#41805
0!
#41885
1!
#42190
0!
#42270
1!
#42580
0!
#42660
1!
#42755
0!
#43045
1!
#43140
0!
#43435
1!
#43740
0!
#43820
1!
#43915
0!
#44210
1!
#44305
0!
#44595
1!
#44905
0!
#44985
1!
#45080
0!
#45370
1!
#45465
0!
#45760
1!
#46065
0!
#46145
1!
#46455
0!
#46535
1!
#46840
0!
#46920
1!
#47230
0!
#47310
1!
#47615
0!
#47695
1!
#48005
0!
#48085
1!
#48390
0!
#48470
1!
#48780
0!
#48860
1!
#49165
0!
#49245
1!
#49340
0!
#49635
1!
#49940
0!
#50020
1!
#50115
0!
#50410
1!
#50505
0!
#50795
1!
#50890
0!
#51185
1!
#51280
0!
#51570
1!
#51665
0!
#51960
1!
#52265
0!
#52345
1!
#52655
0!
#52735
1!
#53040
0!
#53120
1!
#53430
0!
#53510
1!
#53815
0!
#53895
1!
#54200
0!
#54285
1!
#54590
0!
#54670
1!
#54975
0!
#55060
1!
#55150
0!
#55445
1!
#55750
0!
#55835
1!
#56140
0!
#56220
1!
#56315
0!
#56610
1!
#56700
0!
#56995
1!
#57090
0!
#57385
1!
#57475
0!
#57770
1!
#57865
0!
#58160
1!
#58465
0!
#58545
1!
#58850
0!
#58935
1!
#59240
0!
#59320
1!
#59625
0!
#59710
1!
#59800
0!
#60095
1!
#60400
0!
#60485
1!
#60575
0!
#60870
1!
#60965
0!
#61260
1!
#61565
0!
#61645
1!
#61950
0!
#62035
1!
#62340
0!
#62420
1!
#62515
0!
#62810
1!
#62900
0!
#63195
1!
#63290
0!
#63585
1!
#63675
0!
#63970
1!
#64065
0!
#64360
1!
#64665
0!
#64745
1!
#65050
0!
#65135
1!
#65440
0!
#65520
1!
#65825
0!
#65910
1!
#66215
0!
#66295
1!
#66600
0!
#66685
1!
#66990
0!
#67070
1!
#67375
0!
#67460
1!
#67550
0!
#67845
1!
#67940
0!
#68235
1!
#68325
0!
#68620
1!
#68925
0!
#69010
1!
#69100
0!
#69395
1!
#69490
0!
#69785
1!
#69875
0!
#70170
1!
#70265
0!
#70560
1!
#70865
0!
#70945
1!
#71250
0!
#71335
1!
#71640
0!
#71720
1!
#72025
0!
#72110
1!
#72415
0!
#72495
1!
#72800
0!
#72885
1!
#73190
0!
#73270
1!
#73575
0!
#73660
1!
#73965
0!
#74045
1!
#74140
0!
#74435
1!
#74525
0!
#74820
1!
#75125
0!
#75210
1!
#75515
0!
#75595
1!
#75900
0!
#75985
1!
#76290
0!
#76370
1!
#76675
0!
#76760
1!
#77065
0!
#77145
1!
#77450
0!
#77535
1!
#77840
0!
#77920
1!
#78225
0!
#78310
1!
#78615
0!
#78695
1!
#79000
0!
#79085
1!
#79390
0!
#79470
1!
#79775
0!
#79860
1!
#79950
0!
#80245
1!
#80550
0!
#80635
1!
#80725
0!
#81020
1!
#81325
0!
#81410
1!
#81500
0!
#81795
1!
#81890
0!
#82185
1!
#82275
0!
#82570
1!
#82665
0!
#82960
1!
#83265
0!
#83345
1!
#83650
0!
#83730
1!
#84040
0!
#84120
1!
#84425
0!
#84505
1!
#84815
0!
#84895
1!
#85200
0!
#85280
1!
#85590
0!
#85670
1!
#85765
0!
#86055
1!
#86365
0!
#86445
1!
#86750
0!
#86830
1!
#86925
0!
#87220
1!
#87525
0!
#87605
1!
#87915
0!
#87995
1!
#88300
0!
#88380
1!
#88690
0!
#88770
1!
#89075
0!
#89155
1!
#89465
0!
#89545
1!
#89850
0!
#89930
1!
#90240
0!
#90320
1!
#90625
0!
#90705
1!
#91015
0!
#91095
1!
#91400
0!
#91480
1!
#91790
0!
#91870
1!
#92175
0!
#92255
1!
#92350
0!
#92645
1!
#92740
0!
#93030
1!
#93340
0!
#93420
1!
#93725
0!
#93805
1!
#94115
0!
#94195
1!
#94500
0!
#94580
1!
#94890
0!
#94970
1!
#95275
0!
#95355
1!
#95665
0!
#95745
1!
#96050
0!
#96130
1!
#96440
0!
#96520
1!
#96825
0!
#96905
1!
#97215
0!
#97295
1!
#97600
0!
#97680
1!
#97990
0!
#98070
1!
#98375
0!
#98455
1!
#98765
0!
#98845
1!
#98940
0!
#99230
1!
#99540
0!
#99620
1!
#99925
0!
#100005
1!
#100310
0!
#100395
1!
#100700
0!
#100780
1!
#101085
0!
#101170
1!
#101475
0!
#101555
1!
#101860
0!
#101945
1!
#102250
0!
#102330
1!
#102635
0!
#102720
1!
#103025
0!
#103105
1!
#103200
0!
#103495
1!
#103585
0!
#103880
1!
#104185
0!
#104270
1!
#104360
0!
#104655
1!
#104750
0!
#105045
1!
#105350
0!
#105430
1!
#105735
0!
#105820
1!
#106125
0!
#106205
1!
#106510
0!
#106595
1!
#106900
0!
#106980
1!
#107285
0!
#107370
1!
#107675
0!
#107755
1!
#108060
0!
#108145
1!
#108450
0!
#108530
1!
#108835
0!
#108920
1!
#109225
0!
#109305
1!
#109400
0!
#109695
1!
#110000
0!
#110080
1!
#110175
0!
#110470
1!
#110560
0!
#110855
1!
#111160
0!
#111245
1!
#111550
0!
#111630
1!
#111935
0!
#112020
1!
#112325
0!
#112405
1!
#112710
0!
#112795
1!
#113100
0!
#113180
1!
#113485
0!
#113570
1!
#113875
0!
#113955
1!
#114260
0!
#114345
1!
#114650
0!
#114730
1!
#115035
0!
#115120
1!
#115425
0!
#115505
1!
#116210
0!
#116295
1!
#116600
0!
#116680
1!
#116775
0!
#117070
1!
#117160
0!
#117455
1!
#117550
0!
#117845
1!
#117935
0!
#118230
1!
#118325
0!
#118620
1!
#118925
0!
#119005
1!
#119310
0!
#119395
1!
#119700
0!
#119780
1!
#120085
0!
#120170
1!
#120475
0!
#120555
1!
#120860
0!
#120945
1!
#121250
0!
#121330
1!
#121635
0!
#121720
1!
#121810
0!
#122105
1!
#122200
0!
#122495
1!
#122585
0!
