logic_analyzer_vcd_dumps/0.00.0-homescore=199.vcd
$comment 
  OLS Java Client
$end
$date 
  May 12, 2014 10:51:42 PM
$end
$version 
  VCD exporter v1.1
$end
$timescale 
  10 ns
$end
$scope 
  module logic
$end
$var wire 1 ! Channel-0 $end
$var wire 1 " Channel-1 $end
$var wire 1 # Channel-2 $end
$var wire 1 $ Channel-3 $end
$var wire 1 % Channel-4 $end
$var wire 1 & Channel-5 $end
$var wire 1 ' Channel-6 $end
$var wire 1 ( Channel-7 $end
$upscope $end
$enddefinitions $end
$dumpvars
x!
x"
x#
x$
x%
x&
x'
x(
$end
#0
1!
0"
0#
0$
0%
0&
0'
0(
#225
0!
#305
1!
#610
0!
#695
1!
#1000
0!
#1080
1!
#1385
0!
#1470
1!
#1775
0!
#1855
1!
#2160
0!
#2245
1!
#2550
0!
#2630
1!
#2725
0!
#3020
1!
#3325
0!
#3405
1!
#3710
0!
#3795
1!
#4100
0!
#4180
1!
#4485
0!
#4570
1!
#4875
0!
#4955
1!
#5260
0!
#5345
1!
#5650
0!
#5730
1!
#6035
0!
#6120
1!
#6425
0!
#6505
1!
#6810
0!
#6895
1!
#6985
0!
#7280
1!
#7375
0!
#7670
1!
#7975
0!
#8055
1!
#8150
0!
#8445
1!
#8535
0!
#8830
1!
#9135
0!
#9220
1!
#9525
0!
#9605
1!
#9910
0!
#9995
1!
#10300
0!
#10380
1!
#10685
0!
#10770
1!
#11075
0!
#11155
1!
#11460
0!
#11545
1!
#11850
0!
#11930
1!
#12235
0!
#12320
1!
#12625
0!
#12705
1!
#13010
0!
#13095
1!
#13185
0!
#13480
1!
#13785
0!
#13870
1!
#13960
0!
#14255
1!
#14350
0!
#14645
1!
#14950
0!
#15030
1!
#15335
0!
#15415
1!
#15725
0!
#15805
1!
#16110
0!
#16190
1!
#16500
0!
#16580
1!
#16885
0!
#16965
1!
#17275
0!
#17355
1!
#17660
0!
#17740
1!
#18050
0!
#18130
1!
#18435
0!
#18515
1!
#18825
0!
#18905
1!
#19210
0!
#19290
1!
#20000
0!
#20080
1!
#20385
0!
#20465
1!
#20560
0!
#20855
1!
#20950
0!
#21240
1!
#21335
0!
#21630
1!
#21725
0!
#22015
1!
#22110
0!
#22405
1!
#22710
0!
#22790
1!
#23100
0!
#23180
1!
#23485
0!
#23565
1!
#23875
0!
#23955
1!
#24260
0!
#24340
1!
#24650
0!
#24730
1!
#25035
0!
#25115
1!
#25425
0!
#25505
1!
#25600
0!
#25890
1!
#25985
0!
#26280
1!
#26375
0!
#26665
1!
#26760
0!
#27055
1!
#27360
0!
#27440
1!
#27535
0!
#27830
1!
#27925
0!
#28215
1!
#28310
0!
#28605
1!
#28910
0!
#28990
1!
#29300
0!
#29380
1!
#29685
0!
#29765
1!
#30075
0!
#30155
1!
#30460
0!
#30540
1!
#30850
0!
#30930
1!
#31235
0!
#31315
1!
#31625
0!
#31705
1!
#32010
0!
#32090
1!
#32395
0!
#32480
1!
#32570
0!
#32865
1!
#32960
0!
#33255
1!
#33345
0!
#33640
1!
#33945
0!
#34030
1!
#34120
0!
#34415
1!
#34510
0!
#34805
1!
#34895
0!
#35190
1!
#35285
0!
#35580
1!
#35885
0!
#35965
1!
#36060
0!
#36355
1!
#36660
0!
#36740
1!
#37045
0!
#37130
1!
#37435
0!
#37515
1!
#37820
0!
#37905
1!
#38210
0!
#38290
1!
#38595
0!
#38680
1!
#38985
0!
#39065
1!
#39370
0!
#39455
1!
#39760
0!
#39840
1!
#40145
0!
#40230
1!
#40320
0!
#40615
1!
#40710
0!
#41005
1!
#41095
0!
#41390
1!
#41485
0!
#41780
1!
#41870
0!
#42165
1!
#42260
0!
#42555
1!
#42860
0!
#42940
1!
#43245
0!
#43330
1!
#43635
0!
#43715
1!
#44020
0!
#44105
1!
#44410
0!
#44490
1!
#44795
0!
#44880
1!
#45185
0!
#45265
1!
#45570
0!
#45655
1!
#45745
0!
#46040
1!
#46135
0!
#46430
1!
#46735
0!
#46815
1!
#46910
0!
#47205
1!
#47295
0!
#47590
1!
#47895
0!
#47980
1!
#48070
0!
#48365
1!
#48460
0!
#48755
1!
#49060
0!
#49140
1!
#49445
0!
#49530
1!
#49835
0!
#49915
1!
#50220
0!
#50305
1!
#50610
0!
#50690
1!
#50995
0!
#51080
1!
#51385
0!
#51465
1!
#51770
0!
#51855
1!
#52160
0!
#52240
1!
#52335
0!
#52630
1!
#52935
0!
#53015
1!
#53110
0!
#53405
1!
#53495
0!
#53790
1!
#53885
0!
#54180
1!
#54270
0!
#54565
1!
#54660
0!
#54955
1!
#55260
0!
#55340
1!
#55645
0!
#55730
1!
#56035
0!
#56115
1!
#56420
0!
#56505
1!
#56810
0!
#56890
1!
#57195
0!
#57280
1!
#57585
0!
#57665
1!
#57970
0!
#58055
1!
#58145
0!
#58440
1!
#58745
0!
#58830
1!
#59135
0!
#59215
1!
#59310
0!
#59605
1!
#59695
0!
#59990
1!
#60085
0!
#60380
1!
#60470
0!
#60765
1!
#60860
0!
#61150
1!
#61460
0!
#61540
1!
#61845
0!
#61925
1!
#62235
0!
#62315
1!
#62620
0!
#62700
1!
#62795
0!
#63090
1!
#63395
0!
#63475
1!
#63570
0!
#63865
1!
#63960
0!
#64250
1!
#64560
0!
#64640
1!
#64945
0!
#65025
1!
#65335
0!
#65415
1!
#65510
0!
#65800
1!
#65895
0!
#66190
1!
#66285
0!
#66575
1!
#66670
0!
#66965
1!
#67060
0!
#67350
1!
#67660
0!
#67740
1!
#68045
0!
#68125
1!
#68435
0!
#68515
1!
#68820
0!
#68900
1!
#69210
0!
#69290
1!
#69595
0!
#69675
1!
#69985
0!
#70065
1!
#70370
0!
#70450
1!
#70545
0!
#70840
1!
#70935
0!
#71225
1!
#71320
0!
#71615
1!
#71920
0!
#72000
1!
#72095
0!
#72390
1!
#72485
0!
#72775
1!
#72870
0!
#73165
1!
#73260
0!
#73550
1!
#73860
0!
#73940
1!
#74245
0!
#74325
1!
#74635
0!
#74715
1!
#75020
0!
#75100
1!
#75410
0!
#75490
1!
#75795
0!
#75875
1!
#76185
0!
#76265
1!
#76570
0!
#76650
1!
#76960
0!
#77040
1!
#77130
0!
#77425
1!
#77520
0!
#77815
1!
#78120
0!
#78200
1!
#78505
0!
#78590
1!
#78680
0!
#78975
1!
#79070
0!
#79365
1!
#79670
0!
#79750
1!
#80055
0!
#80140
1!
#80445
0!
#80525
1!
#80830
0!
#80915
1!
#81220
0!
#81300
1!
#81605
0!
#81690
1!
#81995
0!
#82075
1!
#82380
0!
#82465
1!
#82770
0!
#82850
1!
#82945
0!
#83240
1!
#83545
0!
#83625
1!
#83720
0!
#84015
1!
#84320
0!
#84400
1!
#84705
0!
#84790
1!
#84880
0!
#85175
1!
#85270
0!
#85565
1!
#85870
0!
#85950
1!
#86255
0!
#86340
1!
#86645
0!
#86725
1!
#87030
0!
#87115
1!
#87420
0!
#87500
1!
#87805
0!
#87890
1!
#88195
0!
#88275
1!
#88580
0!
#88665
1!
#88755
0!
#89050
1!
#89355
0!
#89440
1!
#89745
0!
#89825
1!
#89920
0!
#90215
1!
#90520
0!
#90600
1!
#90905
0!
#90990
1!
#91295
0!
#91375
1!
#91680
0!
#91765
1!
#92070
0!
#92150
1!
#92455
0!
#92540
1!
#92845
0!
#92925
1!
#93230
0!
#93315
1!
#93620
0!
#93700
1!
#94005
0!
#94090
1!
#94395
0!
#94475
1!
#94780
0!
#94865
1!
#95170
0!
#95250
1!
#95345
0!
#95640
1!
#95730
0!
#96025
1!
#96330
0!
#96415
1!
#96720
0!
#96800
1!
#97105
0!
#97190
1!
#97495
0!
#97575
1!
#97880
0!
#97965
1!
#98270
0!
#98350
1!
#98655
0!
#98740
1!
#99045
0!
#99125
1!
#99430
0!
#99515
1!
#99820
0!
#99900
1!
#100205
0!
#100290
1!
#100595
0!
#100675
1!
#100980
0!
#101065
1!
#101370
0!
#101450
1!
#101755
0!
#101840
1!
#101930
0!
#102225
1!
#102530
0!
#102615
1!
#102920
0!
#103000
1!
#103305
0!
#103390
1!
#103695
0!
#103775
1!
#104080
0!
#104165
1!
#104470
0!
#104550
1!
#104855
0!
#104940
1!
#105245
0!
#105325
1!
#105630
0!
#105715
1!
#106020
0!
#106100
1!
#106195
0!
#106485
1!
#106580
0!
#106875
1!
#107180
0!
#107260
1!
#107355
0!
#107650
1!
#107745
0!
#108035
1!
#108345
0!
#108425
1!
#108730
0!
#108810
1!
#109120
0!
#109200
1!
#109505
0!
#109585
1!
#109895
0!
#109975
1!
#110280
0!
#110360
1!
#110670
0!
#110750
1!
#111055
0!
#111135
1!
#111445
0!
#111525
1!
#111830
0!
#111910
1!
#112220
0!
#112300
1!
#112395
0!
#112685
1!
#112995
0!
#113075
1!
#113170
0!
#113460
1!
#113555
0!
#113850
1!
#114155
0!
#114235
1!
#114545
0!
#114625
1!
#114930
0!
#115010
1!
#115320
0!
#115400
1!
#115705
0!
#115785
1!
#116095
0!
#116175
1!
#116480
0!
#116560
1!
#116870
0!
#116950
1!
#117255
0!
#117335
1!
#117645
0!
#117725
1!
#118030
0!
#118110
1!
#118420
0!
#118500
1!
#119205
0!
#119285
1!
#119595
0!
#119675
1!
#119770
0!
#120060
1!
#120155
0!
#120450
1!
#120545
0!
#120835
1!
#120930
0!
#121225
1!
#121320
0!
#121610
1!
#121920
0!
#122000
1!
#122305
0!
#122385
1!
#122695
0!
#122775
1!
