logic_analyzer_vcd_dumps/0.00.0-homescore=000.vcd
$comment 
  OLS Java Client
$end
$date 
  May 12, 2014 10:50:29 PM
$end
$version 
  VCD exporter v1.1
$end
$timescale 
  10 ns
$end
$scope 
  module logic
$end
$var wire 1 ! Channel-0 $end
$var wire 1 " Channel-1 $end
$var wire 1 # Channel-2 $end
$var wire 1 $ Channel-3 $end
$var wire 1 % Channel-4 $end
$var wire 1 & Channel-5 $end
$var wire 1 ' Channel-6 $end
$var wire 1 ( Channel-7 $end
$upscope $end
$enddefinitions $end
$dumpvars
x!
x"
x#
x$
x%
x&
x'
x(
$end
#0
1!
0"
0#
0$
0%
0&
0'
0(
#80
0!
#160
1!
#470
0!
#550
1!
#1255
0!
#1335
1!
#1645
0!
#1725
1!
#1820
0!
#2110
1!
#2205
0!
#2500
1!
#2595
0!
#2885
1!
#2980
0!
#3275
1!
#3370
0!
#3660
1!
#3970
0!
#4050
1!
#4355
0!
#4435
1!
#4745
0!
#4825
1!
#5130
0!
#5210
1!
#5520
0!
#5600
1!
#5905
0!
#5985
1!
#6295
0!
#6375
1!
#6680
0!
#6760
1!
#6855
0!
#7150
1!
#7245
0!
#7535
1!
#7630
0!
#7925
1!
#8020
0!
#8310
1!
#8620
0!
#8700
1!
#8795
0!
#9085
1!
#9180
0!
#9475
1!
#9570
0!
#9860
1!
#10170
0!
#10250
1!
#10555
0!
#10635
1!
#10945
0!
#11025
1!
#11330
0!
#11410
1!
#11720
0!
#11800
1!
#12105
0!
#12185
1!
#12490
0!
#12575
1!
#12880
0!
#12960
1!
#13265
0!
#13350
1!
#13655
0!
#13735
1!
#13830
0!
#14125
1!
#14215
0!
#14510
1!
#14605
0!
#14900
1!
#15205
0!
#15285
1!
#15380
0!
#15675
1!
#15765
0!
#16060
1!
#16155
0!
#16450
1!
#16540
0!
#16835
1!
#16930
0!
#17225
1!
#17315
0!
#17610
1!
#17915
0!
#18000
1!
#18305
0!
#18385
1!
#18690
0!
#18775
1!
#19080
0!
#19160
1!
#19465
0!
#19550
1!
#19855
0!
#19935
1!
#20240
0!
#20325
1!
#20630
0!
#20710
1!
#21015
0!
#21100
1!
#21405
0!
#21485
1!
#21580
0!
#21875
1!
#21965
0!
#22260
1!
#22355
0!
#22650
1!
#22740
0!
#23035
1!
#23130
0!
#23425
1!
#23515
0!
#23810
1!
#24115
0!
#24200
1!
#24505
0!
#24585
1!
#24890
0!
#24975
1!
#25280
0!
#25360
1!
#25665
0!
#25750
1!
#26055
0!
#26135
1!
#26440
0!
#26525
1!
#26830
0!
#26910
1!
#27005
0!
#27300
1!
#27390
0!
#27685
1!
#27990
0!
#28075
1!
#28165
0!
#28460
1!
#28555
0!
#28850
1!
#29155
0!
#29235
1!
#29330
0!
#29625
1!
#29715
0!
#30010
1!
#30315
0!
#30400
1!
#30705
0!
#30785
1!
#31090
0!
#31175
1!
#31480
0!
#31560
1!
#31865
0!
#31950
1!
#32255
0!
#32335
1!
#32640
0!
#32725
1!
#33030
0!
#33110
1!
#33415
0!
#33500
1!
#33590
0!
#33885
1!
#34190
0!
#34275
1!
#34365
0!
#34660
1!
#34755
0!
#35050
1!
#35140
0!
#35435
1!
#35530
0!
#35825
1!
#35915
0!
#36210
1!
#36515
0!
#36600
1!
#36905
0!
#36985
1!
#37290
0!
#37375
1!
#37680
0!
#37760
1!
#38065
0!
#38150
1!
#38455
0!
#38535
1!
#38840
0!
#38925
1!
#39230
0!
#39310
1!
#39405
0!
#39700
1!
#40005
0!
#40085
1!
#40390
0!
#40475
1!
#40565
0!
#40860
1!
#40955
0!
#41250
1!
#41340
0!
#41635
1!
#41730
0!
#42020
1!
#42115
0!
#42410
1!
#42715
0!
#42795
1!
#43105
0!
#43185
1!
#43490
0!
#43570
1!
#43880
0!
#43960
1!
#44055
0!
#44345
1!
#44655
0!
#44735
1!
#44830
0!
#45120
1!
#45215
0!
#45510
1!
#45815
0!
#45895
1!
#46205
0!
#46285
1!
#46590
0!
#46670
1!
#46765
0!
#47060
1!
#47155
0!
#47445
1!
#47540
0!
#47835
1!
#47930
0!
#48220
1!
#48315
0!
#48610
1!
#48915
0!
#48995
1!
#49305
0!
#49385
1!
#49690
0!
#49770
1!
#50080
0!
#50160
1!
#50465
0!
#50545
1!
#50855
0!
#50935
1!
#51240
0!
#51320
1!
#51630
0!
#51710
1!
#51805
0!
#52095
1!
#52190
0!
#52485
1!
#52580
0!
#52870
1!
#53180
0!
#53260
1!
#53355
0!
#53645
1!
#53740
0!
#54035
1!
#54130
0!
#54420
1!
#54515
0!
#54810
1!
#55115
0!
#55195
1!
#55505
0!
#55585
1!
#55890
0!
#55970
1!
#56280
0!
#56360
1!
#56665
0!
#56745
1!
#57055
0!
#57135
1!
#57440
0!
#57520
1!
#57830
0!
#57910
1!
#58215
0!
#58295
1!
#58390
0!
#58685
1!
#58775
0!
#59070
1!
#59375
0!
#59460
1!
#59550
0!
#59845
1!
#59940
0!
#60235
1!
#60325
0!
#60620
1!
#60715
0!
#61010
1!
#61315
0!
#61395
1!
#61700
0!
#61785
1!
#62090
0!
#62170
1!
#62475
0!
#62560
1!
#62865
0!
#62945
1!
#63250
0!
#63335
1!
#63640
0!
#63720
1!
#64025
0!
#64110
1!
#64200
0!
#64495
1!
#64800
0!
#64885
1!
#64975
0!
#65270
1!
#65575
0!
#65660
1!
#65750
0!
#66045
1!
#66140
0!
#66435
1!
#66525
0!
#66820
1!
#66915
0!
#67210
1!
#67515
0!
#67595
1!
#67900
0!
#67985
1!
#68290
0!
#68370
1!
#68675
0!
#68760
1!
#69065
0!
#69145
1!
#69450
0!
#69535
1!
#69840
0!
#69920
1!
#70015
0!
#70310
1!
#70615
0!
#70695
1!
#71000
0!
#71085
1!
#71175
0!
#71470
1!
#71775
0!
#71860
1!
#72165
0!
#72245
1!
#72550
0!
#72635
1!
#72940
0!
#73020
1!
#73325
0!
#73410
1!
#73715
0!
#73795
1!
#74100
0!
#74185
1!
#74490
0!
#74570
1!
#74875
0!
#74960
1!
#75265
0!
#75345
1!
#75650
0!
#75735
1!
#76040
0!
#76120
1!
#76425
0!
#76510
1!
#76600
0!
#76895
1!
#76990
0!
#77285
1!
#77590
0!
#77670
1!
#77975
0!
#78060
1!
#78365
0!
#78445
1!
#78750
0!
#78835
1!
#79140
0!
#79220
1!
#79525
0!
#79610
1!
#79915
0!
#79995
1!
#80300
0!
#80385
1!
#80690
0!
#80770
1!
#81075
0!
#81160
1!
#81465
0!
#81545
1!
#81850
0!
#81935
1!
#82240
0!
#82320
1!
#82625
0!
#82710
1!
#83015
0!
#83095
1!
#83190
0!
#83485
1!
#83790
0!
#83870
1!
#84175
0!
#84260
1!
#84565
0!
#84645
1!
#84950
0!
#85035
1!
#85340
0!
#85420
1!
#85725
0!
#85810
1!
#86115
0!
#86195
1!
#86500
0!
#86585
1!
#86890
0!
#86970
1!
#87275
0!
#87360
1!
#87450
0!
#87745
1!
#87840
0!
#88130
1!
#88440
0!
#88520
1!
#88615
0!
#88905
1!
#89000
0!
#89295
1!
#89600
0!
#89680
1!
#89990
0!
#90070
1!
#90375
0!
#90455
1!
#90765
0!
#90845
1!
#91150
0!
#91230
1!
#91540
0!
#91620
1!
#91925
0!
#92005
1!
#92315
0!
#92395
1!
#92700
0!
#92780
1!
#93090
0!
#93170
1!
#93475
0!
#93555
1!
#93650
0!
#93945
1!
#94250
0!
#94330
1!
#94425
0!
#94720
1!
#94815
0!
#95105
1!
#95415
0!
#95495
1!
#95800
0!
#95880
1!
#96190
0!
#96270
1!
#96575
0!
#96655
1!
#96965
0!
#97045
1!
#97350
0!
#97430
1!
#97740
0!
#97820
1!
#98125
0!
#98205
1!
#98515
0!
#98595
1!
#98900
0!
#98980
1!
#99290
0!
#99370
1!
#99675
0!
#99755
1!
#100465
0!
#100545
1!
#100850
0!
#100930
1!
#101025
0!
#101320
1!
#101415
0!
#101705
1!
#101800
0!
#102095
1!
#102190
0!
#102480
1!
#102575
0!
#102870
1!
#103175
0!
#103255
1!
#103565
0!
#103645
1!
#103950
0!
#104030
1!
#104340
0!
#104420
1!
#104725
0!
#104805
1!
#105110
0!
#105195
1!
#105500
0!
#105580
1!
#105885
0!
#105970
1!
#106060
0!
#106355
1!
#106450
0!
#106745
1!
#106835
0!
#107130
1!
#107225
0!
#107520
1!
#107825
0!
#107905
1!
#108000
0!
#108295
1!
#108385
0!
#108680
1!
#108775
0!
#109070
1!
#109375
0!
#109455
1!
#109760
0!
#109845
1!
#110150
0!
#110230
1!
#110535
0!
#110620
1!
#110925
0!
#111005
1!
#111310
0!
#111395
1!
#111700
0!
#111780
1!
#112085
0!
#112170
1!
#112475
0!
#112555
1!
#112860
0!
#112945
1!
#113035
0!
#113330
1!
#113425
0!
#113720
1!
#113810
0!
#114105
1!
#114410
0!
#114495
1!
#114585
0!
#114880
1!
#114975
0!
#115270
1!
#115360
0!
#115655
1!
#115750
0!
#116045
1!
#116135
0!
#116430
1!
#116525
0!
#116820
1!
#117125
0!
#117205
1!
#117510
0!
#117595
1!
#117900
0!
#117980
1!
#118285
0!
#118370
1!
#118675
0!
#118755
1!
#119060
0!
#119145
1!
#119450
0!
#119530
1!
#119835
0!
#119920
1!
#120225
0!
#120305
1!
#120610
0!
#120695
1!
#120785
0!
#121080
1!
#121175
0!
#121470
1!
#121560
0!
#121855
1!
#121950
0!
#122245
1!
#122335
0!
#122630
1!
#122725
0!
