logic_analyzer_vcd_dumps/0.00.0-homescore=9.vcd
$comment 
  OLS Java Client
$end
$date 
  May 12, 2014 10:44:19 PM
$end
$version 
  VCD exporter v1.1
$end
$timescale 
  10 ns
$end
$scope 
  module logic
$end
$var wire 1 ! Channel-0 $end
$var wire 1 " Channel-1 $end
$var wire 1 # Channel-2 $end
$var wire 1 $ Channel-3 $end
$var wire 1 % Channel-4 $end
$var wire 1 & Channel-5 $end
$var wire 1 ' Channel-6 $end
$var wire 1 ( Channel-7 $end
$upscope $end
$enddefinitions $end
$dumpvars
x!
x"
x#
x$
x%
x&
x'
x(
$end
#0
1!
0"
0#
0$
0%
0&
0'
0(
#295
0!
#375
1!
#680
0!
#765
1!
#1070
0!
#1150
1!
#1855
0!
#1940
1!
#2245
0!
#2325
1!
#2420
0!
#2715
1!
#2805
0!
#3100
1!
#3195
0!
#3490
1!
#3580
0!
#3875
1!
#3970
0!
#4265
1!
#4570
0!
#4650
1!
#4955
0!
#5040
1!
#5345
0!
#5425
1!
#5730
0!
#5815
1!
#6120
0!
#6200
1!
#6505
0!
#6590
1!
#6895
0!
#6975
1!
#7280
0!
#7365
1!
#7455
0!
#7750
1!
#7845
0!
#8140
1!
#8230
0!
#8525
1!
#8620
0!
#8915
1!
#9220
0!
#9300
1!
#9395
0!
#9690
1!
#9780
0!
#10075
1!
#10170
0!
#10465
1!
#10770
0!
#10850
1!
#11155
0!
#11240
1!
#11545
0!
#11625
1!
#11930
0!
#12015
1!
#12320
0!
#12400
1!
#12705
0!
#12790
1!
#13095
0!
#13175
1!
#13480
0!
#13565
1!
#13870
0!
#13950
1!
#14255
0!
#14340
1!
#14430
0!
#14725
1!
#14820
0!
#15115
1!
#15205
0!
#15500
1!
#15805
0!
#15890
1!
#15980
0!
#16275
1!
#16370
0!
#16665
1!
#16755
0!
#17050
1!
#17145
0!
#17440
1!
#17530
0!
#17825
1!
#17920
0!
#18215
1!
#18520
0!
#18600
1!
#18905
0!
#18985
1!
#19295
0!
#19375
1!
#19680
0!
#19760
1!
#20070
0!
#20150
1!
#20455
0!
#20535
1!
#20845
0!
#20925
1!
#21230
0!
#21310
1!
#21620
0!
#21700
1!
#22005
0!
#22085
1!
#22180
0!
#22475
1!
#22570
0!
#22860
1!
#22955
0!
#23250
1!
#23345
0!
#23635
1!
#23730
0!
#24025
1!
#24120
0!
#24410
1!
#24720
0!
#24800
1!
#25105
0!
#25185
1!
#25495
0!
#25575
1!
#25880
0!
#25960
1!
#26270
0!
#26350
1!
#26655
0!
#26735
1!
#27045
0!
#27125
1!
#27430
0!
#27510
1!
#27605
0!
#27900
1!
#27995
0!
#28285
1!
#28595
0!
#28675
1!
#28770
0!
#29060
1!
#29155
0!
#29450
1!
#29755
0!
#29835
1!
#29930
0!
#30225
1!
#30320
0!
#30610
1!
#30920
0!
#31000
1!
#31305
0!
#31385
1!
#31695
0!
#31775
1!
#32080
0!
#32160
1!
#32470
0!
#32550
1!
#32855
0!
#32935
1!
#33245
0!
#33325
1!
#33630
0!
#33710
1!
#34020
0!
#34100
1!
#34195
0!
#34485
1!
#34795
0!
#34875
1!
#34970
0!
#35260
1!
#35355
0!
#35650
1!
#35740
0!
#36035
1!
#36130
0!
#36425
1!
#36515
0!
#36810
1!
#37115
0!
#37200
1!
#37505
0!
#37585
1!
#37890
0!
#37975
1!
#38280
0!
#38360
1!
#38665
0!
#38750
1!
#39055
0!
#39135
1!
#39440
0!
#39525
1!
#39830
0!
#39910
1!
#40005
0!
#40300
1!
#40605
0!
#40685
1!
#40990
0!
#41075
1!
#41165
0!
#41460
1!
#41555
0!
#41850
1!
#41940
0!
#42235
1!
#42330
0!
#42625
1!
#42715
0!
#43010
1!
#43315
0!
#43400
1!
#43705
0!
#43785
1!
#44090
0!
#44175
1!
#44480
0!
#44560
1!
#44655
0!
#44950
1!
#45255
0!
#45335
1!
#45430
0!
#45725
1!
#45815
0!
#46110
1!
#46415
0!
#46500
1!
#46805
0!
#46885
1!
#47190
0!
#47275
1!
#47365
0!
#47660
1!
#47755
0!
#48050
1!
#48140
0!
#48435
1!
#48530
0!
#48825
1!
#48915
0!
#49210
1!
#49515
0!
#49600
1!
#49905
0!
#49985
1!
#50290
0!
#50375
1!
#50680
0!
#50760
1!
#51065
0!
#51150
1!
#51455
0!
#51535
1!
#51840
0!
#51925
1!
#52230
0!
#52310
1!
#52405
0!
#52700
1!
#52790
0!
#53085
1!
#53180
0!
#53475
1!
#53780
0!
#53860
1!
#53955
0!
#54250
1!
#54340
0!
#54635
1!
#54730
0!
#55025
1!
#55115
0!
#55410
1!
#55715
0!
#55800
1!
#56105
0!
#56185
1!
#56490
0!
#56575
1!
#56880
0!
#56960
1!
#57265
0!
#57350
1!
#57655
0!
#57735
1!
#58040
0!
#58125
1!
#58430
0!
#58510
1!
#58815
0!
#58900
1!
#58990
0!
#59285
1!
#59380
0!
#59675
1!
#59980
0!
#60060
1!
#60365
0!
#60450
1!
#60755
0!
#60835
1!
#61140
0!
#61225
1!
#61530
0!
#61610
1!
#61915
0!
#62000
1!
#62305
0!
#62385
1!
#62690
0!
#62775
1!
#63080
0!
#63160
1!
#63465
0!
#63550
1!
#63855
0!
#63935
1!
#64240
0!
#64325
1!
#64630
0!
#64710
1!
#64805
0!
#65095
1!
#65405
0!
#65485
1!
#65580
0!
#65870
1!
#66180
0!
#66260
1!
#66565
0!
#66645
1!
#66740
0!
#67035
1!
#67130
0!
#67420
1!
#67730
0!
#67810
1!
#68115
0!
#68195
1!
#68505
0!
#68585
1!
#68890
0!
#68970
1!
#69280
0!
#69360
1!
#69665
0!
#69745
1!
#70055
0!
#70135
1!
#70440
0!
#70520
1!
#70615
0!
#70910
1!
#71215
0!
#71295
1!
#71605
0!
#71685
1!
#71780
0!
#72070
1!
#72380
0!
#72460
1!
#72765
0!
#72845
1!
#73155
0!
#73235
1!
#73540
0!
#73620
1!
#73930
0!
#74010
1!
#74315
0!
#74395
1!
#74705
0!
#74785
1!
#75090
0!
#75170
1!
#75480
0!
#75560
1!
#75865
0!
#75945
1!
#76255
0!
#76335
1!
#76640
0!
#76720
1!
#77030
0!
#77110
1!
#77205
0!
#77495
1!
#77590
0!
#77885
1!
#78190
0!
#78270
1!
#78580
0!
#78660
1!
#78965
0!
#79045
1!
#79355
0!
#79435
1!
#79740
0!
#79820
1!
#80130
0!
#80210
1!
#80515
0!
#80595
1!
#80905
0!
#80985
1!
#81290
0!
#81370
1!
#81680
0!
#81760
1!
#82065
0!
#82145
1!
#82450
0!
#82535
1!
#82840
0!
#82920
1!
#83225
0!
#83310
1!
#83615
0!
#83695
1!
#83790
0!
#84085
1!
#84390
0!
#84470
1!
#84775
0!
#84860
1!
#85165
0!
#85245
1!
#85550
0!
#85635
1!
#85940
0!
#86020
1!
#86325
0!
#86410
1!
#86715
0!
#86795
1!
#87100
0!
#87185
1!
#87490
0!
#87570
1!
#87875
0!
#87960
1!
#88050
0!
#88345
1!
#88440
0!
#88735
1!
#89040
0!
#89120
1!
#89215
0!
#89510
1!
#89600
0!
#89895
1!
#90200
0!
#90285
1!
#90590
0!
#90670
1!
#90975
0!
#91060
1!
#91365
0!
#91445
1!
#91750
0!
#91835
1!
#92140
0!
#92220
1!
#92525
0!
#92610
1!
#92915
0!
#92995
1!
#93300
0!
#93385
1!
#93690
0!
#93770
1!
#94075
0!
#94160
1!
#94250
0!
#94545
1!
#94850
0!
#94935
1!
#95025
0!
#95320
1!
#95415
0!
#95710
1!
#96015
0!
#96095
1!
#96400
0!
#96485
1!
#96790
0!
#96870
1!
#97175
0!
#97260
1!
#97565
0!
#97645
1!
#97950
0!
#98035
1!
#98340
0!
#98420
1!
#98725
0!
#98810
1!
#99115
0!
#99195
1!
#99500
0!
#99585
1!
#99890
0!
#99970
1!
#100275
0!
#100360
1!
#101065
0!
#101145
1!
#101450
0!
#101535
1!
#101625
0!
#101920
1!
#102015
0!
#102310
1!
#102400
0!
#102695
1!
#102790
0!
#103085
1!
#103175
0!
#103470
1!
#103775
0!
#103860
1!
#104165
0!
#104245
1!
#104550
0!
#104635
1!
#104940
0!
#105020
1!
#105325
0!
#105410
1!
#105715
0!
#105795
1!
#106100
0!
#106185
1!
#106490
0!
#106570
1!
#106665
0!
#106960
1!
#107050
0!
#107345
1!
#107440
0!
#107735
1!
#107825
0!
#108120
1!
#108425
0!
#108510
1!
#108600
0!
#108895
1!
#108990
0!
#109285
1!
#109375
0!
#109670
1!
#109975
0!
#110060
1!
#110365
0!
#110445
1!
#110750
0!
#110830
1!
#111140
0!
#111220
1!
#111525
0!
#111605
1!
#111915
0!
#111995
1!
#112300
0!
#112380
1!
#112690
0!
#112770
1!
#113075
0!
#113155
1!
#113465
0!
#113545
1!
#113640
0!
#113930
1!
#114025
0!
#114320
1!
#114415
0!
#114705
1!
#115015
0!
#115095
1!
#115190
0!
#115480
1!
#115575
0!
#115870
1!
#115965
0!
#116255
1!
#116350
0!
#116645
1!
#116740
0!
#117030
1!
#117125
0!
#117420
1!
#117725
0!
#117805
1!
#118115
0!
#118195
1!
#118500
0!
#118580
1!
#118890
0!
#118970
1!
#119275
0!
#119355
1!
#119665
0!
#119745
1!
#120050
0!
#120130
1!
#120440
0!
#120520
1!
#120825
0!
#120905
1!
#121215
0!
#121295
1!
#121390
0!
#121680
1!
#121775
0!
#122070
1!
#122165
0!
#122455
1!
#122550
0!
#122845
1!
