logic_analyzer_vcd_dumps/0.00.1.vcd
$comment 
  OLS Java Client
$end
$date 
  May 12, 2014 10:34:06 PM
$end
$version 
  VCD exporter v1.1
$end
$timescale 
  10 ns
$end
$scope 
  module logic
$end
$var wire 1 ! Channel-0 $end
$var wire 1 " Channel-1 $end
$var wire 1 # Channel-2 $end
$var wire 1 $ Channel-3 $end
$var wire 1 % Channel-4 $end
$var wire 1 & Channel-5 $end
$var wire 1 ' Channel-6 $end
$var wire 1 ( Channel-7 $end
$upscope $end
$enddefinitions $end
$dumpvars
x!
x"
x#
x$
x%
x&
x'
x(
$end
#0
1!
0"
0#
0$
0%
0&
0'
0(
#130
0!
#210
1!
#305
0!
#600
1!
#905
0!
#985
1!
#1295
0!
#1375
1!
#1680
0!
#1760
1!
#2070
0!
#2150
1!
#2455
0!
#2535
1!
#2845
0!
#2925
1!
#3230
0!
#3310
1!
#3620
0!
#3700
1!
#4005
0!
#4085
1!
#4395
0!
#4475
1!
#4570
0!
#4860
1!
#4955
0!
#5250
1!
#5555
0!
#5635
1!
#5730
0!
#6025
1!
#6120
0!
#6410
1!
#6720
0!
#6800
1!
#7105
0!
#7185
1!
#7495
0!
#7575
1!
#7880
0!
#7960
1!
#8270
0!
#8350
1!
#8655
0!
#8735
1!
#9045
0!
#9125
1!
#9430
0!
#9510
1!
#9820
0!
#9900
1!
#10205
0!
#10285
1!
#10595
0!
#10675
1!
#10770
0!
#11060
1!
#11370
0!
#11450
1!
#11545
0!
#11835
1!
#11930
0!
#12225
1!
#12530
0!
#12610
1!
#12915
0!
#13000
1!
#13305
0!
#13385
1!
#13690
0!
#13775
1!
#14080
0!
#14160
1!
#14465
0!
#14550
1!
#14855
0!
#14935
1!
#15240
0!
#15325
1!
#15630
0!
#15710
1!
#16015
0!
#16100
1!
#16405
0!
#16485
1!
#16790
0!
#16875
1!
#17580
0!
#17660
1!
#17965
0!
#18050
1!
#18140
0!
#18435
1!
#18530
0!
#18825
1!
#18915
0!
#19210
1!
#19305
0!
#19600
1!
#19690
0!
#19985
1!
#20290
0!
#20375
1!
#20680
0!
#20760
1!
#21065
0!
#21150
1!
#21455
0!
#21535
1!
#21840
0!
#21925
1!
#22230
0!
#22310
1!
#22615
0!
#22700
1!
#23005
0!
#23085
1!
#23390
0!
#23475
1!
#23565
0!
#23860
1!
#23955
0!
#24250
1!
#24340
0!
#24635
1!
#24940
0!
#25025
1!
#25115
0!
#25410
1!
#25505
0!
#25800
1!
#25890
0!
#26185
1!
#26490
0!
#26575
1!
#26880
0!
#26960
1!
#27265
0!
#27350
1!
#27655
0!
#27735
1!
#28040
0!
#28125
1!
#28430
0!
#28510
1!
#28815
0!
#28900
1!
#29205
0!
#29285
1!
#29590
0!
#29675
1!
#29980
0!
#30060
1!
#30155
0!
#30450
1!
#30540
0!
#30835
1!
#30930
0!
#31225
1!
#31530
0!
#31610
1!
#31705
0!
#32000
1!
#32090
0!
#32385
1!
#32480
0!
#32775
1!
#32865
0!
#33160
1!
#33255
0!
#33550
1!
#33640
0!
#33935
1!
#34240
0!
#34325
1!
#34630
0!
#34710
1!
#35015
0!
#35100
1!
#35405
0!
#35485
1!
#35790
0!
#35875
1!
#36180
0!
#36260
1!
#36565
0!
#36650
1!
#36955
0!
#37035
1!
#37340
0!
#37425
1!
#37730
0!
#37810
1!
#37905
0!
#38200
1!
#38290
0!
#38585
1!
#38680
0!
#38975
1!
#39065
0!
#39360
1!
#39455
0!
#39750
1!
#39840
0!
#40135
1!
#40440
0!
#40525
1!
#40830
0!
#40910
1!
#41215
0!
#41300
1!
#41605
0!
#41685
1!
#41990
0!
#42070
1!
#42380
0!
#42460
1!
#42765
0!
#42845
1!
#43155
0!
#43235
1!
#43330
0!
#43620
1!
#43715
0!
#44010
1!
#44315
0!
#44395
1!
#44490
0!
#44785
1!
#44880
0!
#45170
1!
#45480
0!
#45560
1!
#45655
0!
#45945
1!
#46040
0!
#46335
1!
#46640
0!
#46720
1!
#47030
0!
#47110
1!
#47415
0!
#47495
1!
#47805
0!
#47885
1!
#48190
0!
#48270
1!
#48580
0!
#48660
1!
#48965
0!
#49045
1!
#49355
0!
#49435
1!
#49740
0!
#49820
1!
#49915
0!
#50210
1!
#50515
0!
#50595
1!
#50690
0!
#50985
1!
#51080
0!
#51370
1!
#51465
0!
#51760
1!
#51855
0!
#52145
1!
#52240
0!
#52535
1!
#52840
0!
#52920
1!
#53230
0!
#53310
1!
#53615
0!
#53695
1!
#54005
0!
#54085
1!
#54390
0!
#54470
1!
#54780
0!
#54860
1!
#55165
0!
#55245
1!
#55555
0!
#55635
1!
#55730
0!
#56020
1!
#56330
0!
#56410
1!
#56715
0!
#56795
1!
#56890
0!
#57185
1!
#57275
0!
#57570
1!
#57665
0!
#57960
1!
#58050
0!
#58345
1!
#58440
0!
#58735
1!
#59040
0!
#59120
1!
#59425
0!
#59510
1!
#59815
0!
#59895
1!
#60200
0!
#60285
1!
#60375
0!
#60670
1!
#60975
0!
#61060
1!
#61150
0!
#61445
1!
#61540
0!
#61835
1!
#62140
0!
#62220
1!
#62525
0!
#62610
1!
#62915
0!
#62995
1!
#63090
0!
#63385
1!
#63475
0!
#63770
1!
#63865
0!
#64160
1!
#64250
0!
#64545
1!
#64640
0!
#64935
1!
#65240
0!
#65320
1!
#65625
0!
#65710
1!
#66015
0!
#66095
1!
#66400
0!
#66485
1!
#66790
0!
#66870
1!
#67175
0!
#67260
1!
#67565
0!
#67645
1!
#67950
0!
#68035
1!
#68125
0!
#68420
1!
#68515
0!
#68810
1!
#68900
0!
#69195
1!
#69500
0!
#69585
1!
#69675
0!
#69970
1!
#70065
0!
#70360
1!
#70450
0!
#70745
1!
#70840
0!
#71135
1!
#71440
0!
#71520
1!
#71825
0!
#71910
1!
#72215
0!
#72295
1!
#72600
0!
#72685
1!
#72990
0!
#73070
1!
#73375
0!
#73460
1!
#73765
0!
#73845
1!
#74150
0!
#74235
1!
#74540
0!
#74620
1!
#74715
0!
#75010
1!
#75100
0!
#75395
1!
#75700
0!
#75785
1!
#76090
0!
#76170
1!
#76475
0!
#76560
1!
#76865
0!
#76945
1!
#77250
0!
#77335
1!
#77640
0!
#77720
1!
#78025
0!
#78110
1!
#78415
0!
#78495
1!
#78800
0!
#78885
1!
#79190
0!
#79270
1!
#79575
0!
#79660
1!
#79965
0!
#80045
1!
#80350
0!
#80435
1!
#80525
0!
#80820
1!
#81125
0!
#81210
1!
#81300
0!
#81595
1!
#81900
0!
#81985
1!
#82290
0!
#82370
1!
#82675
0!
#82760
1!
#83065
0!
#83145
1!
#83450
0!
#83535
1!
#83840
0!
#83920
1!
#84225
0!
#84310
1!
#84615
0!
#84695
1!
#85000
0!
#85085
1!
#85390
0!
#85470
1!
#85775
0!
#85860
1!
#86165
0!
#86245
1!
#86340
0!
#86635
1!
#86940
0!
#87020
1!
#87325
0!
#87405
1!
#87500
0!
#87795
1!
#88100
0!
#88180
1!
#88490
0!
#88570
1!
#88875
0!
#88955
1!
#89265
0!
#89345
1!
#89650
0!
#89730
1!
#90040
0!
#90120
1!
#90425
0!
#90505
1!
#90815
0!
#90895
1!
#91200
0!
#91280
1!
#91590
0!
#91670
1!
#91975
0!
#92055
1!
#92365
0!
#92445
1!
#92750
0!
#92830
1!
#92925
0!
#93220
1!
#93315
0!
#93605
1!
#93915
0!
#93995
1!
#94300
0!
#94380
1!
#94690
0!
#94770
1!
#95075
0!
#95155
1!
#95465
0!
#95545
1!
#95850
0!
#95930
1!
#96240
0!
#96320
1!
#96625
0!
#96705
1!
#97015
0!
#97095
1!
#97400
0!
#97480
1!
#97790
0!
#97870
1!
#98175
0!
#98255
1!
#98565
0!
#98645
1!
#98950
0!
#99030
1!
#99340
0!
#99420
1!
#99515
0!
#99805
1!
#100115
0!
#100195
1!
#100500
0!
#100580
1!
#100890
0!
#100970
1!
#101275
0!
#101355
1!
#101665
0!
#101745
1!
#102050
0!
#102130
1!
#102440
0!
#102520
1!
#102825
0!
#102905
1!
#103215
0!
#103295
1!
#103600
0!
#103680
1!
#103775
0!
#104070
1!
#104160
0!
#104455
1!
#104760
0!
#104845
1!
#104935
0!
#105230
1!
#105325
0!
#105620
1!
#105925
0!
#106005
1!
#106310
0!
#106395
1!
#106700
0!
#106780
1!
#107085
0!
#107170
1!
#107475
0!
#107555
1!
#107860
0!
#107945
1!
#108250
0!
#108330
1!
#108635
0!
#108720
1!
#109025
0!
#109105
1!
#109410
0!
#109495
1!
#109800
0!
#109880
1!
#109975
0!
#110270
1!
#110575
0!
#110655
1!
#110750
0!
#111045
1!
#111135
0!
#111430
1!
#111735
0!
#111820
1!
#112125
0!
#112205
1!
#112510
0!
#112595
1!
#112900
0!
#112980
1!
#113285
0!
#113370
1!
#113675
0!
#113755
1!
#114060
0!
#114145
1!
#114450
0!
#114530
1!
#114835
0!
#114920
1!
#115225
0!
#115305
1!
#115610
0!
#115695
1!
#116000
0!
#116080
1!
#116785
0!
#116870
1!
#117175
0!
#117255
1!
#117350
0!
#117645
1!
#117735
0!
#118030
1!
#118125
0!
#118420
1!
#118510
0!
#118805
1!
#118900
0!
#119195
1!
#119500
0!
#119580
1!
#119885
0!
#119970
1!
#120275
0!
#120355
1!
#120660
0!
#120745
1!
#121050
0!
#121130
1!
#121435
0!
#121520
1!
#121825
0!
#121905
1!
#122210
0!
#122295
1!
#122600
0!
#122680
1!
#122775
0!
