logic_analyzer_vcd_dumps/0.00.0.vcd
0:00.0-110000011111111000010001111111111000100000011111111110000001111111100100100111111111010000011111111011000001111010011100000111111110001000011111111100111111111111101011111111111101101111111111111001111111111111110111111111100100111111111110100111111111111
$comment 
  OLS Java Client
$end
$date 
  May 12, 2014 9:43:45 PM
$end
$version 
  VCD exporter v1.1
$end
$timescale 
  10 ns
$end
$scope 
  module logic
$end
$var wire 1 ! Channel-0 $end
$var wire 1 " Channel-1 $end
$var wire 1 # Channel-2 $end
$var wire 1 $ Channel-3 $end
$var wire 1 % Channel-4 $end
$var wire 1 & Channel-5 $end
$var wire 1 ' Channel-6 $end
$var wire 1 ( Channel-7 $end
$upscope $end
$enddefinitions $end
$dumpvars
x!
x"
x#
x$
x%
x&
x'
x(
$end
#0
1!
0"
0#
0$
0%
0&
0'
0(
#15
0!
#100
1!
#405
0!
#485
1!
#790
0!
#875
1!
#1180
0!
#1260
1!
#1565
0!
#1650
1!
#1955
0!
#2035
1!
#2340
0!
#2425
1!
#2730
0!
#2810
1!
#2905
0!
#3200
1!
#3290
0!
#3585
1!
#3890
0!
#3975
1!
#4065
0!
#4360
1!
#4455
0!
#4750
1!
#5055
0!
#5135
1!
#5440
0!
#5525
1!
#5830
0!
#5910
1!
#6215
0!
#6300
1!
#6605
0!
#6685
1!
#6990
0!
#7075
1!
#7380
0!
#7460
1!
#7765
0!
#7850
1!
#8155
0!
#8235
1!
#8540
0!
#8625
1!
#8930
0!
#9010
1!
#9105
0!
#9400
1!
#9705
0!
#9785
1!
#9880
0!
#10175
1!
#10265
0!
#10560
1!
#10865
0!
#10950
1!
#11255
0!
#11335
1!
#11640
0!
#11725
1!
#12030
0!
#12110
1!
#12415
0!
#12500
1!
#12805
0!
#12885
1!
#13190
0!
#13275
1!
#13580
0!
#13660
1!
#13965
0!
#14050
1!
#14355
0!
#14435
1!
#14740
0!
#14825
1!
#15130
0!
#15210
1!
#15915
0!
#15995
1!
#16305
0!
#16385
1!
#16480
0!
#16770
1!
#16865
0!
#17160
1!
#17255
0!
#17545
1!
#17640
0!
#17935
1!
#18030
0!
#18320
1!
#18630
0!
#18710
1!
#19015
0!
#19095
1!
#19405
0!
#19485
1!
#19790
0!
#19870
1!
#20180
0!
#20260
1!
#20565
0!
#20645
1!
#20955
0!
#21035
1!
#21340
0!
#21420
1!
#21515
0!
#21810
1!
#21905
0!
#22195
1!
#22290
0!
#22585
1!
#22680
0!
#22970
1!
#23280
0!
#23360
1!
#23455
0!
#23745
1!
#23840
0!
#24135
1!
#24230
0!
#24520
1!
#24830
0!
#24910
1!
#25215
0!
#25295
1!
#25605
0!
#25685
1!
#25990
0!
#26070
1!
#26380
0!
#26460
1!
#26765
0!
#26845
1!
#27155
0!
#27235
1!
#27540
0!
#27620
1!
#27930
0!
#28010
1!
#28315
0!
#28395
1!
#28490
0!
#28785
1!
#28880
0!
#29170
1!
#29265
0!
#29560
1!
#29865
0!
#29945
1!
#30040
0!
#30335
1!
#30430
0!
#30720
1!
#30815
0!
#31110
1!
#31200
0!
#31495
1!
#31590
0!
#31885
1!
#31975
0!
#32270
1!
#32580
0!
#32660
1!
#32965
0!
#33045
1!
#33350
0!
#33435
1!
#33740
0!
#33820
1!
#34125
0!
#34210
1!
#34515
0!
#34595
1!
#34900
0!
#34985
1!
#35290
0!
#35370
1!
#35675
0!
#35760
1!
#36065
0!
#36145
1!
#36240
0!
#36535
1!
#36625
0!
#36920
1!
#37015
0!
#37310
1!
#37400
0!
#37695
1!
#37790
0!
#38085
1!
#38175
0!
#38470
1!
#38775
0!
#38860
1!
#39165
0!
#39245
1!
#39550
0!
#39635
1!
#39940
0!
#40020
1!
#40325
0!
#40410
1!
#40715
0!
#40795
1!
#41100
0!
#41185
1!
#41490
0!
#41570
1!
#41665
0!
#41960
1!
#42050
0!
#42345
1!
#42650
0!
#42735
1!
#42825
0!
#43120
1!
#43215
0!
#43510
1!
#43815
0!
#43895
1!
#43990
0!
#44285
1!
#44375
0!
#44670
1!
#44975
0!
#45060
1!
#45365
0!
#45445
1!
#45750
0!
#45835
1!
#46140
0!
#46220
1!
#46525
0!
#46610
1!
#46915
0!
#46995
1!
#47300
0!
#47385
1!
#47690
0!
#47770
1!
#48075
0!
#48160
1!
#48250
0!
#48545
1!
#48850
0!
#48935
1!
#49025
0!
#49320
1!
#49415
0!
#49710
1!
#49800
0!
#50095
1!
#50190
0!
#50485
1!
#50575
0!
#50870
1!
#51175
0!
#51260
1!
#51565
0!
#51645
1!
#51950
0!
#52035
1!
#52340
0!
#52420
1!
#52725
0!
#52810
1!
#53115
0!
#53195
1!
#53500
0!
#53585
1!
#53890
0!
#53970
1!
#54065
0!
#54360
1!
#54665
0!
#54745
1!
#55050
0!
#55135
1!
#55225
0!
#55520
1!
#55615
0!
#55910
1!
#56000
0!
#56295
1!
#56390
0!
#56685
1!
#56775
0!
#57070
1!
#57375
0!
#57460
1!
#57765
0!
#57845
1!
#58150
0!
#58235
1!
#58540
0!
#58620
1!
#58715
0!
#59010
1!
#59315
0!
#59395
1!
#59490
0!
#59785
1!
#59875
0!
#60170
1!
#60475
0!
#60560
1!
#60865
0!
#60945
1!
#61250
0!
#61335
1!
#61425
0!
#61720
1!
#61815
0!
#62105
1!
#62200
0!
#62495
1!
#62590
0!
#62880
1!
#62975
0!
#63270
1!
#63575
0!
#63655
1!
#63965
0!
#64045
1!
#64350
0!
#64430
1!
#64740
0!
#64820
1!
#65125
0!
#65205
1!
#65515
0!
#65595
1!
#65900
0!
#65980
1!
#66290
0!
#66370
1!
#66465
0!
#66755
1!
#66850
0!
#67145
1!
#67240
0!
#67530
1!
#67840
0!
#67920
1!
#68015
0!
#68305
1!
#68400
0!
#68695
1!
#68790
0!
#69080
1!
#69175
0!
#69470
1!
#69775
0!
#69855
1!
#70165
0!
#70245
1!
#70550
0!
#70630
1!
#70940
0!
#71020
1!
#71325
0!
#71405
1!
#71715
0!
#71795
1!
#72100
0!
#72180
1!
#72490
0!
#72570
1!
#72875
0!
#72955
1!
#73050
0!
#73345
1!
#73440
0!
#73730
1!
#74040
0!
#74120
1!
#74425
0!
#74505
1!
#74815
0!
#74895
1!
#75200
0!
#75280
1!
#75590
0!
#75670
1!
#75975
0!
#76055
1!
#76365
0!
#76445
1!
#76750
0!
#76830
1!
#77140
0!
#77220
1!
#77525
0!
#77605
1!
#77915
0!
#77995
1!
#78300
0!
#78380
1!
#78685
0!
#78770
1!
#78860
0!
#79155
1!
#79460
0!
#79545
1!
#79635
0!
#79930
1!
#80235
0!
#80320
1!
#80625
0!
#80705
1!
#81010
0!
#81095
1!
#81400
0!
#81480
1!
#81785
0!
#81870
1!
#82175
0!
#82255
1!
#82560
0!
#82645
1!
#82950
0!
#83030
1!
#83335
0!
#83420
1!
#83725
0!
#83805
1!
#84110
0!
#84195
1!
#84500
0!
#84580
1!
#84675
0!
#84970
1!
#85275
0!
#85355
1!
#85660
0!
#85745
1!
#85835
0!
#86130
1!
#86435
0!
#86520
1!
#86825
0!
#86905
1!
#87210
0!
#87295
1!
#87600
0!
#87680
1!
#87985
0!
#88070
1!
#88375
0!
#88455
1!
#88760
0!
#88845
1!
#89150
0!
#89230
1!
#89535
0!
#89620
1!
#89925
0!
#90005
1!
#90310
0!
#90395
1!
#90700
0!
#90780
1!
#91085
0!
#91170
1!
#91260
0!
#91555
1!
#91650
0!
#91945
1!
#92250
0!
#92330
1!
#92635
0!
#92720
1!
#93025
0!
#93105
1!
#93410
0!
#93495
1!
#93800
0!
#93880
1!
#94185
0!
#94270
1!
#94575
0!
#94655
1!
#94960
0!
#95045
1!
#95350
0!
#95430
1!
#95735
0!
#95820
1!
#96125
0!
#96205
1!
#96510
0!
#96595
1!
#96900
0!
#96980
1!
#97285
0!
#97370
1!
#97675
0!
#97755
1!
#97850
0!
#98145
1!
#98450
0!
#98530
1!
#98835
0!
#98920
1!
#99225
0!
#99305
1!
#99610
0!
#99695
1!
#100000
0!
#100080
1!
#100385
0!
#100470
1!
#100775
0!
#100855
1!
#101160
0!
#101245
1!
#101550
0!
#101630
1!
#101935
0!
#102020
1!
#102110
0!
#102405
1!
#102500
0!
#102795
1!
#103100
0!
#103180
1!
#103275
0!
#103570
1!
#103660
0!
#103955
1!
#104260
0!
#104345
1!
#104650
0!
#104730
1!
#105035
0!
#105120
1!
#105425
0!
#105505
1!
#105810
0!
#105895
1!
#106200
0!
#106280
1!
#106585
0!
#106670
1!
#106975
0!
#107055
1!
#107360
0!
#107445
1!
#107750
0!
#107830
1!
#108135
0!
#108215
1!
#108310
0!
#108605
1!
#108910
0!
#108990
1!
#109085
0!
#109380
1!
#109475
0!
#109765
1!
#110075
0!
#110155
1!
#110460
0!
#110540
1!
#110850
0!
#110930
1!
#111235
0!
#111315
1!
#111625
0!
#111705
1!
#112010
0!
#112090
1!
#112400
0!
#112480
1!
#112785
0!
#112865
1!
#113175
0!
#113255
1!
#113560
0!
#113640
1!
#113950
0!
#114030
1!
#114335
0!
#114415
1!
#115125
0!
#115205
1!
#115510
0!
#115590
1!
#115685
0!
#115980
1!
#116075
0!
#116365
1!
#116460
0!
#116755
1!
#116850
0!
#117140
1!
#117235
0!
#117530
1!
#117835
0!
#117915
1!
#118225
0!
#118305
1!
#118610
0!
#118690
1!
#119000
0!
#119080
1!
#119385
0!
#119465
1!
#119775
0!
#119855
1!
#120160
0!
#120240
1!
#120550
0!
#120630
1!
#120725
0!
#121015
1!
#121110
0!
#121405
1!
#121500
0!
#121790
1!
#121885
0!
#122180
1!
#122485
0!
#122565
1!
#122660
0!
