logic_analyzer_vcd_dumps/0.00.9.vcd
$comment 
  OLS Java Client
$end
$date 
  May 12, 2014 10:31:40 PM
$end
$version 
  VCD exporter v1.1
$end
$timescale 
  10 ns
$end
$scope 
  module logic
$end
$var wire 1 ! Channel-0 $end
$var wire 1 " Channel-1 $end
$var wire 1 # Channel-2 $end
$var wire 1 $ Channel-3 $end
$var wire 1 % Channel-4 $end
$var wire 1 & Channel-5 $end
$var wire 1 ' Channel-6 $end
$var wire 1 ( Channel-7 $end
$upscope $end
$enddefinitions $end
$dumpvars
x!
x"
x#
x$
x%
x&
x'
x(
$end
#0
0!
0"
0#
0$
0%
0&
0'
0(
#280
1!
#375
0!
#665
1!
#975
0!
#1055
1!
#1360
0!
#1440
1!
#1750
0!
#1830
1!
#2135
0!
#2215
1!
#2525
0!
#2605
1!
#2910
0!
#2990
1!
#3300
0!
#3380
1!
#3685
0!
#3765
1!
#4075
0!
#4155
1!
#4460
0!
#4540
1!
#4850
0!
#4930
1!
#5235
0!
#5315
1!
#6025
0!
#6105
1!
#6410
0!
#6490
1!
#6585
0!
#6880
1!
#6970
0!
#7265
1!
#7360
0!
#7655
1!
#7745
0!
#8040
1!
#8135
0!
#8430
1!
#8735
0!
#8815
1!
#9120
0!
#9205
1!
#9510
0!
#9590
1!
#9895
0!
#9980
1!
#10285
0!
#10365
1!
#10670
0!
#10755
1!
#11060
0!
#11140
1!
#11445
0!
#11530
1!
#11835
0!
#11915
1!
#12010
0!
#12305
1!
#12395
0!
#12690
1!
#12995
0!
#13080
1!
#13385
0!
#13465
1!
#13560
0!
#13855
1!
#13945
0!
#14240
1!
#14335
0!
#14630
1!
#14935
0!
#15015
1!
#15320
0!
#15405
1!
#15710
0!
#15790
1!
#16095
0!
#16180
1!
#16485
0!
#16565
1!
#16870
0!
#16955
1!
#17260
0!
#17340
1!
#17645
0!
#17730
1!
#18035
0!
#18115
1!
#18420
0!
#18505
1!
#18595
0!
#18890
1!
#18985
0!
#19280
1!
#19370
0!
#19665
1!
#19970
0!
#20055
1!
#20145
0!
#20440
1!
#20535
0!
#20830
1!
#20920
0!
#21215
1!
#21310
0!
#21605
1!
#21695
0!
#21990
1!
#22085
0!
#22380
1!
#22685
0!
#22765
1!
#23070
0!
#23155
1!
#23460
0!
#23540
1!
#23845
0!
#23930
1!
#24235
0!
#24315
1!
#24620
0!
#24705
1!
#25010
0!
#25090
1!
#25395
0!
#25480
1!
#25785
0!
#25865
1!
#26170
0!
#26255
1!
#26345
0!
#26640
1!
#26735
0!
#27030
1!
#27120
0!
#27415
1!
#27510
0!
#27805
1!
#27895
0!
#28190
1!
#28285
0!
#28580
1!
#28885
0!
#28965
1!
#29270
0!
#29355
1!
#29660
0!
#29740
1!
#30045
0!
#30130
1!
#30435
0!
#30515
1!
#30820
0!
#30905
1!
#31210
0!
#31290
1!
#31595
0!
#31680
1!
#31770
0!
#32065
1!
#32160
0!
#32455
1!
#32760
0!
#32840
1!
#32935
0!
#33230
1!
#33320
0!
#33615
1!
#33920
0!
#34005
1!
#34095
0!
#34390
1!
#34485
0!
#34780
1!
#35085
0!
#35165
1!
#35470
0!
#35555
1!
#35860
0!
#35940
1!
#36245
0!
#36325
1!
#36635
0!
#36715
1!
#37020
0!
#37100
1!
#37410
0!
#37490
1!
#37795
0!
#37875
1!
#38185
0!
#38265
1!
#38360
0!
#38650
1!
#38960
0!
#39040
1!
#39135
0!
#39425
1!
#39520
0!
#39815
1!
#39910
0!
#40200
1!
#40295
0!
#40590
1!
#40685
0!
#40975
1!
#41285
0!
#41365
1!
#41670
0!
#41750
1!
#42060
0!
#42140
1!
#42445
0!
#42525
1!
#42835
0!
#42915
1!
#43220
0!
#43300
1!
#43610
0!
#43690
1!
#43995
0!
#44075
1!
#44170
0!
#44465
1!
#44770
0!
#44850
1!
#45160
0!
#45240
1!
#45335
0!
#45625
1!
#45720
0!
#46015
1!
#46110
0!
#46400
1!
#46495
0!
#46790
1!
#46885
0!
#47175
1!
#47485
0!
#47565
1!
#47870
0!
#47950
1!
#48260
0!
#48340
1!
#48645
0!
#48725
1!
#48820
0!
#49115
1!
#49420
0!
#49500
1!
#49595
0!
#49890
1!
#49985
0!
#50275
1!
#50585
0!
#50665
1!
#50970
0!
#51050
1!
#51360
0!
#51440
1!
#51535
0!
#51825
1!
#51920
0!
#52215
1!
#52305
0!
#52600
1!
#52695
0!
#52990
1!
#53080
0!
#53375
1!
#53680
0!
#53765
1!
#54070
0!
#54150
1!
#54455
0!
#54540
1!
#54845
0!
#54925
1!
#55230
0!
#55315
1!
#55620
0!
#55700
1!
#56005
0!
#56090
1!
#56395
0!
#56475
1!
#56570
0!
#56865
1!
#56955
0!
#57250
1!
#57345
0!
#57640
1!
#57945
0!
#58025
1!
#58120
0!
#58415
1!
#58505
0!
#58800
1!
#58895
0!
#59190
1!
#59280
0!
#59575
1!
#59880
0!
#59965
1!
#60270
0!
#60350
1!
#60655
0!
#60740
1!
#61045
0!
#61125
1!
#61430
0!
#61515
1!
#61820
0!
#61900
1!
#62205
0!
#62290
1!
#62595
0!
#62675
1!
#62980
0!
#63065
1!
#63155
0!
#63450
1!
#63545
0!
#63840
1!
#64145
0!
#64225
1!
#64530
0!
#64615
1!
#64920
0!
#65000
1!
#65305
0!
#65390
1!
#65695
0!
#65775
1!
#66080
0!
#66165
1!
#66470
0!
#66550
1!
#66855
0!
#66940
1!
#67245
0!
#67325
1!
#67630
0!
#67715
1!
#68020
0!
#68100
1!
#68405
0!
#68490
1!
#68795
0!
#68875
1!
#68970
0!
#69265
1!
#69570
0!
#69650
1!
#69745
0!
#70040
1!
#70345
0!
#70425
1!
#70730
0!
#70815
1!
#71120
0!
#71200
1!
#71505
0!
#71590
1!
#71895
0!
#71975
1!
#72280
0!
#72365
1!
#72670
0!
#72750
1!
#73055
0!
#73140
1!
#73445
0!
#73525
1!
#73830
0!
#73915
1!
#74220
0!
#74300
1!
#74605
0!
#74690
1!
#74780
0!
#75075
1!
#75380
0!
#75465
1!
#75770
0!
#75850
1!
#75945
0!
#76240
1!
#76545
0!
#76625
1!
#76930
0!
#77015
1!
#77320
0!
#77400
1!
#77705
0!
#77790
1!
#78095
0!
#78175
1!
#78480
0!
#78565
1!
#78870
0!
#78950
1!
#79255
0!
#79340
1!
#79645
0!
#79725
1!
#80030
0!
#80115
1!
#80420
0!
#80500
1!
#80805
0!
#80890
1!
#81195
0!
#81275
1!
#81370
0!
#81660
1!
#81755
0!
#82050
1!
#82355
0!
#82435
1!
#82745
0!
#82825
1!
#83130
0!
#83210
1!
#83520
0!
#83600
1!
#83905
0!
#83985
1!
#84295
0!
#84375
1!
#84680
0!
#84760
1!
#85070
0!
#85150
1!
#85455
0!
#85535
1!
#85845
0!
#85925
1!
#86230
0!
#86310
1!
#86620
0!
#86700
1!
#87005
0!
#87085
1!
#87395
0!
#87475
1!
#87780
0!
#87860
1!
#87955
0!
#88250
1!
#88555
0!
#88635
1!
#88945
0!
#89025
1!
#89330
0!
#89410
1!
#89720
0!
#89800
1!
#90105
0!
#90185
1!
#90495
0!
#90575
1!
#90880
0!
#90960
1!
#91270
0!
#91350
1!
#91655
0!
#91735
1!
#92045
0!
#92125
1!
#92220
0!
#92510
1!
#92605
0!
#92900
1!
#93205
0!
#93285
1!
#93380
0!
#93675
1!
#93770
0!
#94060
1!
#94370
0!
#94450
1!
#94755
0!
#94835
1!
#95145
0!
#95225
1!
#95530
0!
#95610
1!
#95920
0!
#96000
1!
#96305
0!
#96385
1!
#96695
0!
#96775
1!
#97080
0!
#97160
1!
#97470
0!
#97550
1!
#97855
0!
#97935
1!
#98245
0!
#98325
1!
#98415
0!
#98710
1!
#99015
0!
#99100
1!
#99190
0!
#99485
1!
#99580
0!
#99875
1!
#100180
0!
#100260
1!
#100565
0!
#100650
1!
#100955
0!
#101035
1!
#101340
0!
#101425
1!
#101730
0!
#101810
1!
#102115
0!
#102200
1!
#102505
0!
#102585
1!
#102890
0!
#102975
1!
#103280
0!
#103360
1!
#103665
0!
#103750
1!
#104055
0!
#104135
1!
#104440
0!
#104525
1!
#105230
0!
#105310
1!
#105615
0!
#105700
1!
#105790
0!
#106085
1!
#106180
0!
#106475
1!
#106565
0!
#106860
1!
#106955
0!
#107250
1!
#107340
0!
#107635
1!
#107940
0!
#108025
1!
#108330
0!
#108410
1!
#108715
0!
#108800
1!
#109105
0!
#109185
1!
#109490
0!
#109575
1!
#109880
0!
#109960
1!
#110265
0!
#110350
1!
#110655
0!
#110735
1!
#111040
0!
#111125
1!
#111215
0!
#111510
1!
#111605
0!
#111900
1!
#112205
0!
#112285
1!
#112590
0!
#112675
1!
#112765
0!
#113060
1!
#113155
0!
#113450
1!
#113540
0!
#113835
1!
#114140
0!
#114225
1!
#114530
0!
#114610
1!
#114915
0!
#115000
1!
#115305
0!
#115385
1!
#115690
0!
#115775
1!
#116080
0!
#116160
1!
#116465
0!
#116550
1!
#116855
0!
#116935
1!
#117240
0!
#117325
1!
#117630
0!
#117710
1!
#117805
0!
#118100
1!
#118190
0!
#118485
1!
#118580
0!
#118875
1!
#119180
0!
#119260
1!
#119355
0!
#119650
1!
#119740
0!
#120035
1!
#120130
0!
#120425
1!
#120515
0!
#120810
1!
#120905
0!
#121200
1!
#121290
0!
#121585
1!
#121890
0!
#121975
1!
#122280
0!
#122360
1!
#122665
0!
#122750
1!
