logic_analyzer_vcd_dumps/0.00.0-homescore=00.vcd
$comment 
  OLS Java Client
$end
$date 
  May 12, 2014 10:48:40 PM
$end
$version 
  VCD exporter v1.1
$end
$timescale 
  10 ns
$end
$scope 
  module logic
$end
$var wire 1 ! Channel-0 $end
$var wire 1 " Channel-1 $end
$var wire 1 # Channel-2 $end
$var wire 1 $ Channel-3 $end
$var wire 1 % Channel-4 $end
$var wire 1 & Channel-5 $end
$var wire 1 ' Channel-6 $end
$var wire 1 ( Channel-7 $end
$upscope $end
$enddefinitions $end
$dumpvars
x!
x"
x#
x$
x%
x&
x'
x(
$end
#0
1!
0"
0#
0$
0%
0&
0'
0(
#300
0!
#380
1!
#690
0!
#770
1!
#1075
0!
#1155
1!
#1465
0!
#1545
1!
#1850
0!
#1930
1!
#2240
0!
#2320
1!
#2625
0!
#2705
1!
#3015
0!
#3095
1!
#3400
0!
#3480
1!
#3790
0!
#3870
1!
#4175
0!
#4255
1!
#4560
0!
#4645
1!
#4950
0!
#5030
1!
#5335
0!
#5420
1!
#5510
0!
#5805
1!
#6110
0!
#6195
1!
#6500
0!
#6580
1!
#6885
0!
#6970
1!
#7275
0!
#7355
1!
#7660
0!
#7745
1!
#8050
0!
#8130
1!
#8435
0!
#8520
1!
#8825
0!
#8905
1!
#9210
0!
#9295
1!
#9600
0!
#9680
1!
#9775
0!
#10070
1!
#10160
0!
#10455
1!
#10760
0!
#10845
1!
#10935
0!
#11230
1!
#11325
0!
#11620
1!
#11925
0!
#12005
1!
#12310
0!
#12395
1!
#12700
0!
#12780
1!
#13085
0!
#13170
1!
#13475
0!
#13555
1!
#13860
0!
#13945
1!
#14250
0!
#14330
1!
#14635
0!
#14720
1!
#15025
0!
#15105
1!
#15410
0!
#15495
1!
#15800
0!
#15880
1!
#15975
0!
#16270
1!
#16575
0!
#16655
1!
#16750
0!
#17045
1!
#17135
0!
#17430
1!
#17735
0!
#17820
1!
#18125
0!
#18205
1!
#18510
0!
#18595
1!
#18900
0!
#18980
1!
#19285
0!
#19370
1!
#19675
0!
#19755
1!
#20060
0!
#20145
1!
#20450
0!
#20530
1!
#20835
0!
#20920
1!
#21225
0!
#21305
1!
#21610
0!
#21695
1!
#22000
0!
#22080
1!
#22785
0!
#22870
1!
#23175
0!
#23255
1!
#23350
0!
#23645
1!
#23735
0!
#24030
1!
#24125
0!
#24420
1!
#24510
0!
#24805
1!
#24900
0!
#25195
1!
#25500
0!
#25580
1!
#25885
0!
#25970
1!
#26275
0!
#26355
1!
#26660
0!
#26745
1!
#27050
0!
#27130
1!
#27435
0!
#27520
1!
#27825
0!
#27905
1!
#28210
0!
#28295
1!
#28385
0!
#28680
1!
#28775
0!
#29070
1!
#29160
0!
#29455
1!
#29550
0!
#29845
1!
#30150
0!
#30230
1!
#30325
0!
#30620
1!
#30710
0!
#31005
1!
#31100
0!
#31395
1!
#31700
0!
#31780
1!
#32085
0!
#32170
1!
#32475
0!
#32555
1!
#32860
0!
#32945
1!
#33250
0!
#33330
1!
#33635
0!
#33720
1!
#34025
0!
#34105
1!
#34410
0!
#34490
1!
#34800
0!
#34880
1!
#35185
0!
#35265
1!
#35360
0!
#35655
1!
#35750
0!
#36040
1!
#36135
0!
#36430
1!
#36735
0!
#36815
1!
#36910
0!
#37205
1!
#37300
0!
#37590
1!
#37685
0!
#37980
1!
#38075
0!
#38365
1!
#38460
0!
#38755
1!
#38850
0!
#39140
1!
#39450
0!
#39530
1!
#39835
0!
#39915
1!
#40225
0!
#40305
1!
#40610
0!
#40690
1!
#41000
0!
#41080
1!
#41385
0!
#41465
1!
#41775
0!
#41855
1!
#42160
0!
#42240
1!
#42550
0!
#42630
1!
#42935
0!
#43015
1!
#43110
0!
#43405
1!
#43500
0!
#43790
1!
#43885
0!
#44180
1!
#44275
0!
#44565
1!
#44660
0!
#44955
1!
#45050
0!
#45340
1!
#45650
0!
#45730
1!
#46035
0!
#46115
1!
#46425
0!
#46505
1!
#46810
0!
#46890
1!
#47200
0!
#47280
1!
#47585
0!
#47665
1!
#47975
0!
#48055
1!
#48360
0!
#48440
1!
#48535
0!
#48830
1!
#48920
0!
#49215
1!
#49525
0!
#49605
1!
#49700
0!
#49990
1!
#50085
0!
#50380
1!
#50685
0!
#50765
1!
#50860
0!
#51155
1!
#51245
0!
#51540
1!
#51845
0!
#51930
1!
#52235
0!
#52315
1!
#52620
0!
#52705
1!
#53010
0!
#53090
1!
#53395
0!
#53480
1!
#53785
0!
#53865
1!
#54170
0!
#54255
1!
#54560
0!
#54640
1!
#54945
0!
#55030
1!
#55120
0!
#55415
1!
#55720
0!
#55805
1!
#55895
0!
#56190
1!
#56285
0!
#56580
1!
#56670
0!
#56965
1!
#57060
0!
#57355
1!
#57445
0!
#57740
1!
#58045
0!
#58130
1!
#58435
0!
#58515
1!
#58820
0!
#58905
1!
#59210
0!
#59290
1!
#59595
0!
#59680
1!
#59985
0!
#60065
1!
#60370
0!
#60455
1!
#60760
0!
#60840
1!
#60935
0!
#61230
1!
#61535
0!
#61615
1!
#61920
0!
#62005
1!
#62095
0!
#62390
1!
#62485
0!
#62780
1!
#62870
0!
#63165
1!
#63260
0!
#63555
1!
#63645
0!
#63940
1!
#64245
0!
#64330
1!
#64635
0!
#64715
1!
#65020
0!
#65105
1!
#65410
0!
#65490
1!
#65585
0!
#65880
1!
#66185
0!
#66265
1!
#66360
0!
#66655
1!
#66745
0!
#67040
1!
#67345
0!
#67430
1!
#67735
0!
#67815
1!
#68120
0!
#68205
1!
#68295
0!
#68590
1!
#68685
0!
#68980
1!
#69070
0!
#69365
1!
#69460
0!
#69755
1!
#69845
0!
#70140
1!
#70445
0!
#70530
1!
#70835
0!
#70915
1!
#71220
0!
#71305
1!
#71610
0!
#71690
1!
#71995
0!
#72080
1!
#72385
0!
#72465
1!
#72770
0!
#72855
1!
#73160
0!
#73240
1!
#73335
0!
#73630
1!
#73720
0!
#74015
1!
#74110
0!
#74405
1!
#74710
0!
#74790
1!
#74885
0!
#75180
1!
#75270
0!
#75565
1!
#75660
0!
#75955
1!
#76045
0!
#76340
1!
#76645
0!
#76730
1!
#77035
0!
#77115
1!
#77420
0!
#77505
1!
#77810
0!
#77890
1!
#78195
0!
#78280
1!
#78585
0!
#78665
1!
#78970
0!
#79055
1!
#79360
0!
#79440
1!
#79745
0!
#79825
1!
#79920
0!
#80215
1!
#80310
0!
#80600
1!
#80910
0!
#80990
1!
#81085
0!
#81375
1!
#81470
0!
#81765
1!
#81860
0!
#82150
1!
#82245
0!
#82540
1!
#82845
0!
#82925
1!
#83235
0!
#83315
1!
#83620
0!
#83700
1!
#84010
0!
#84090
1!
#84395
0!
#84475
1!
#84785
0!
#84865
1!
#85170
0!
#85250
1!
#85560
0!
#85640
1!
#85735
0!
#86025
1!
#86335
0!
#86415
1!
#86510
0!
#86800
1!
#87110
0!
#87190
1!
#87285
0!
#87575
1!
#87670
0!
#87965
1!
#88060
0!
#88350
1!
#88445
0!
#88740
1!
#89045
0!
#89125
1!
#89435
0!
#89515
1!
#89820
0!
#89900
1!
#90210
0!
#90290
1!
#90595
0!
#90675
1!
#90985
0!
#91065
1!
#91370
0!
#91450
1!
#91545
0!
#91840
1!
#92145
0!
#92225
1!
#92535
0!
#92615
1!
#92710
0!
#93000
1!
#93310
0!
#93390
1!
#93695
0!
#93775
1!
#94085
0!
#94165
1!
#94470
0!
#94550
1!
#94860
0!
#94940
1!
#95245
0!
#95325
1!
#95635
0!
#95715
1!
#96020
0!
#96100
1!
#96410
0!
#96490
1!
#96795
0!
#96875
1!
#97180
0!
#97265
1!
#97570
0!
#97650
1!
#97955
0!
#98040
1!
#98130
0!
#98425
1!
#98520
0!
#98815
1!
#99120
0!
#99200
1!
#99505
0!
#99590
1!
#99895
0!
#99975
1!
#100280
0!
#100365
1!
#100670
0!
#100750
1!
#101055
0!
#101140
1!
#101445
0!
#101525
1!
#101830
0!
#101915
1!
#102220
0!
#102300
1!
#102605
0!
#102690
1!
#102995
0!
#103075
1!
#103380
0!
#103465
1!
#103770
0!
#103850
1!
#104155
0!
#104240
1!
#104545
0!
#104625
1!
#104720
0!
#105015
1!
#105320
0!
#105400
1!
#105705
0!
#105790
1!
#106095
0!
#106175
1!
#106480
0!
#106565
1!
#106870
0!
#106950
1!
#107255
0!
#107340
1!
#107645
0!
#107725
1!
#108030
0!
#108115
1!
#108420
0!
#108500
1!
#108805
0!
#108890
1!
#108980
0!
#109275
1!
#109370
0!
#109665
1!
#109970
0!
#110050
1!
#110145
0!
#110440
1!
#110530
0!
#110825
1!
#111130
0!
#111215
1!
#111520
0!
#111600
1!
#111905
0!
#111990
1!
#112295
0!
#112375
1!
#112680
0!
#112765
1!
#113070
0!
#113150
1!
#113455
0!
#113540
1!
#113845
0!
#113925
1!
#114230
0!
#114315
1!
#114620
0!
#114700
1!
#115005
0!
#115090
1!
#115180
0!
#115475
1!
#115780
0!
#115865
1!
#115955
0!
#116250
1!
#116345
0!
#116640
1!
#116945
0!
#117025
1!
#117330
0!
#117415
1!
#117720
0!
#117800
1!
#118105
0!
#118190
1!
#118495
0!
#118575
1!
#118880
0!
#118965
1!
#119270
0!
#119350
1!
#119655
0!
#119740
1!
#120045
0!
#120125
1!
#120430
0!
#120515
1!
#120820
0!
#120900
1!
#121205
0!
#121290
1!
#121995
0!
#122075
1!
#122380
0!
#122465
1!
#122555
0!
#122850
1!
