logic_analyzer_vcd_dumps/0.00.0-homescore=99.vcd
$comment 
  OLS Java Client
$end
$date 
  May 12, 2014 10:47:10 PM
$end
$version 
  VCD exporter v1.1
$end
$timescale 
  10 ns
$end
$scope 
  module logic
$end
$var wire 1 ! Channel-0 $end
$var wire 1 " Channel-1 $end
$var wire 1 # Channel-2 $end
$var wire 1 $ Channel-3 $end
$var wire 1 % Channel-4 $end
$var wire 1 & Channel-5 $end
$var wire 1 ' Channel-6 $end
$var wire 1 ( Channel-7 $end
$upscope $end
$enddefinitions $end
$dumpvars
x!
x"
x#
x$
x%
x&
x'
x(
$end
#0
0!
0"
0#
0$
0%
0&
0'
0(
#20
1!
#325
0!
#410
1!
#715
0!
#795
1!
#1100
0!
#1185
1!
#1490
0!
#1570
1!
#1875
0!
#1960
1!
#2265
0!
#2345
1!
#2650
0!
#2735
1!
#2825
0!
#3120
1!
#3425
0!
#3510
1!
#3815
0!
#3895
1!
#4200
0!
#4285
1!
#4590
0!
#4670
1!
#4975
0!
#5060
1!
#5365
0!
#5445
1!
#5750
0!
#5835
1!
#6140
0!
#6220
1!
#6525
0!
#6610
1!
#6915
0!
#6995
1!
#7090
0!
#7385
1!
#7475
0!
#7770
1!
#8075
0!
#8160
1!
#8250
0!
#8545
1!
#8640
0!
#8935
1!
#9240
0!
#9320
1!
#9625
0!
#9710
1!
#10015
0!
#10095
1!
#10400
0!
#10485
1!
#10790
0!
#10870
1!
#11175
0!
#11260
1!
#11565
0!
#11645
1!
#11950
0!
#12035
1!
#12340
0!
#12420
1!
#12725
0!
#12805
1!
#13115
0!
#13195
1!
#13290
0!
#13580
1!
#13890
0!
#13970
1!
#14065
0!
#14355
1!
#14450
0!
#14745
1!
#15050
0!
#15130
1!
#15440
0!
#15520
1!
#15825
0!
#15905
1!
#16215
0!
#16295
1!
#16600
0!
#16680
1!
#16990
0!
#17070
1!
#17375
0!
#17455
1!
#17765
0!
#17845
1!
#18150
0!
#18230
1!
#18540
0!
#18620
1!
#18925
0!
#19005
1!
#19315
0!
#19395
1!
#20100
0!
#20180
1!
#20490
0!
#20570
1!
#20665
0!
#20955
1!
#21050
0!
#21345
1!
#21440
0!
#21730
1!
#21825
0!
#22120
1!
#22215
0!
#22505
1!
#22815
0!
#22895
1!
#23200
0!
#23280
1!
#23590
0!
#23670
1!
#23975
0!
#24055
1!
#24365
0!
#24445
1!
#24750
0!
#24830
1!
#25140
0!
#25220
1!
#25525
0!
#25605
1!
#25700
0!
#25995
1!
#26090
0!
#26380
1!
#26475
0!
#26770
1!
#26865
0!
#27155
1!
#27465
0!
#27545
1!
#27640
0!
#27930
1!
#28025
0!
#28320
1!
#28410
0!
#28705
1!
#29015
0!
#29095
1!
#29400
0!
#29480
1!
#29785
0!
#29870
1!
#30175
0!
#30255
1!
#30560
0!
#30645
1!
#30950
0!
#31030
1!
#31335
0!
#31420
1!
#31725
0!
#31805
1!
#32110
0!
#32195
1!
#32500
0!
#32580
1!
#32675
0!
#32970
1!
#33060
0!
#33355
1!
#33450
0!
#33745
1!
#34050
0!
#34130
1!
#34225
0!
#34520
1!
#34610
0!
#34905
1!
#35000
0!
#35295
1!
#35385
0!
#35680
1!
#35775
0!
#36070
1!
#36160
0!
#36455
1!
#36760
0!
#36845
1!
#37150
0!
#37230
1!
#37535
0!
#37620
1!
#37925
0!
#38005
1!
#38310
0!
#38395
1!
#38700
0!
#38780
1!
#39085
0!
#39170
1!
#39475
0!
#39555
1!
#39860
0!
#39945
1!
#40250
0!
#40330
1!
#40425
0!
#40720
1!
#40810
0!
#41105
1!
#41200
0!
#41495
1!
#41585
0!
#41880
1!
#41975
0!
#42270
1!
#42360
0!
#42655
1!
#42960
0!
#43045
1!
#43350
0!
#43430
1!
#43735
0!
#43820
1!
#44125
0!
#44205
1!
#44510
0!
#44595
1!
#44900
0!
#44980
1!
#45285
0!
#45370
1!
#45675
0!
#45755
1!
#45850
0!
#46145
1!
#46235
0!
#46530
1!
#46835
0!
#46920
1!
#47010
0!
#47305
1!
#47400
0!
#47695
1!
#48000
0!
#48080
1!
#48175
0!
#48470
1!
#48560
0!
#48855
1!
#49160
0!
#49245
1!
#49550
0!
#49630
1!
#49935
0!
#50020
1!
#50325
0!
#50405
1!
#50710
0!
#50795
1!
#51100
0!
#51180
1!
#51485
0!
#51570
1!
#51875
0!
#51955
1!
#52260
0!
#52345
1!
#52435
0!
#52730
1!
#53035
0!
#53120
1!
#53210
0!
#53505
1!
#53600
0!
#53895
1!
#53985
0!
#54280
1!
#54375
0!
#54670
1!
#54760
0!
#55055
1!
#55360
0!
#55445
1!
#55750
0!
#55830
1!
#56135
0!
#56220
1!
#56525
0!
#56605
1!
#56910
0!
#56995
1!
#57300
0!
#57380
1!
#57685
0!
#57770
1!
#58075
0!
#58155
1!
#58250
0!
#58540
1!
#58850
0!
#58930
1!
#59235
0!
#59315
1!
#59410
0!
#59705
1!
#59800
0!
#60090
1!
#60185
0!
#60480
1!
#60575
0!
#60865
1!
#60960
0!
#61255
1!
#61560
0!
#61640
1!
#61950
0!
#62030
1!
#62335
0!
#62415
1!
#62725
0!
#62805
1!
#62900
0!
#63190
1!
#63500
0!
#63580
1!
#63675
0!
#63965
1!
#64060
0!
#64355
1!
#64660
0!
#64740
1!
#65050
0!
#65130
1!
#65435
0!
#65515
1!
#65610
0!
#65905
1!
#66000
0!
#66290
1!
#66385
0!
#66680
1!
#66775
0!
#67065
1!
#67160
0!
#67455
1!
#67760
0!
#67840
1!
#68150
0!
#68230
1!
#68535
0!
#68615
1!
#68925
0!
#69005
1!
#69310
0!
#69390
1!
#69700
0!
#69780
1!
#70085
0!
#70165
1!
#70475
0!
#70555
1!
#70650
0!
#70940
1!
#71035
0!
#71330
1!
#71425
0!
#71715
1!
#72025
0!
#72105
1!
#72200
0!
#72490
1!
#72585
0!
#72880
1!
#72975
0!
#73265
1!
#73360
0!
#73655
1!
#73960
0!
#74040
1!
#74350
0!
#74430
1!
#74735
0!
#74815
1!
#75125
0!
#75205
1!
#75510
0!
#75590
1!
#75895
0!
#75980
1!
#76285
0!
#76365
1!
#76670
0!
#76755
1!
#77060
0!
#77140
1!
#77235
0!
#77530
1!
#77620
0!
#77915
1!
#78220
0!
#78305
1!
#78610
0!
#78690
1!
#78785
0!
#79080
1!
#79170
0!
#79465
1!
#79770
0!
#79855
1!
#80160
0!
#80240
1!
#80545
0!
#80630
1!
#80935
0!
#81015
1!
#81320
0!
#81405
1!
#81710
0!
#81790
1!
#82095
0!
#82180
1!
#82485
0!
#82565
1!
#82870
0!
#82955
1!
#83045
0!
#83340
1!
#83645
0!
#83730
1!
#83820
0!
#84115
1!
#84420
0!
#84505
1!
#84810
0!
#84890
1!
#84985
0!
#85280
1!
#85370
0!
#85665
1!
#85970
0!
#86055
1!
#86360
0!
#86440
1!
#86745
0!
#86830
1!
#87135
0!
#87215
1!
#87520
0!
#87605
1!
#87910
0!
#87990
1!
#88295
0!
#88380
1!
#88685
0!
#88765
1!
#88860
0!
#89155
1!
#89460
0!
#89540
1!
#89845
0!
#89930
1!
#90020
0!
#90315
1!
#90620
0!
#90705
1!
#91010
0!
#91090
1!
#91395
0!
#91480
1!
#91785
0!
#91865
1!
#92170
0!
#92255
1!
#92560
0!
#92640
1!
#92945
0!
#93030
1!
#93335
0!
#93415
1!
#93720
0!
#93805
1!
#94110
0!
#94190
1!
#94495
0!
#94580
1!
#94885
0!
#94965
1!
#95270
0!
#95355
1!
#95445
0!
#95740
1!
#95835
0!
#96130
1!
#96435
0!
#96515
1!
#96820
0!
#96905
1!
#97210
0!
#97290
1!
#97595
0!
#97680
1!
#97985
0!
#98065
1!
#98370
0!
#98455
1!
#98760
0!
#98840
1!
#99145
0!
#99230
1!
#99535
0!
#99615
1!
#99920
0!
#100005
1!
#100310
0!
#100390
1!
#100695
0!
#100780
1!
#101085
0!
#101165
1!
#101470
0!
#101555
1!
#101860
0!
#101940
1!
#102035
0!
#102330
1!
#102635
0!
#102715
1!
#103020
0!
#103105
1!
#103410
0!
#103490
1!
#103795
0!
#103880
1!
#104185
0!
#104265
1!
#104570
0!
#104655
1!
#104960
0!
#105040
1!
#105345
0!
#105425
1!
#105735
0!
#105815
1!
#106120
0!
#106200
1!
#106295
0!
#106590
1!
#106685
0!
#106975
1!
#107285
0!
#107365
1!
#107460
0!
#107750
1!
#107845
0!
#108140
1!
#108445
0!
#108525
1!
#108835
0!
#108915
1!
#109220
0!
#109300
1!
#109610
0!
#109690
1!
#109995
0!
#110075
1!
#110385
0!
#110465
1!
#110770
0!
#110850
1!
#111160
0!
#111240
1!
#111545
0!
#111625
1!
#111935
0!
#112015
1!
#112320
0!
#112400
1!
#112495
0!
#112790
1!
#113095
0!
#113175
1!
#113270
0!
#113565
1!
#113660
0!
#113950
1!
#114260
0!
#114340
1!
#114645
0!
#114725
1!
#115035
0!
#115115
1!
#115420
0!
#115500
1!
#115810
0!
#115890
1!
#116195
0!
#116275
1!
#116585
0!
#116665
1!
#116970
0!
#117050
1!
#117360
0!
#117440
1!
#117745
0!
#117825
1!
#118135
0!
#118215
1!
#118520
0!
#118600
1!
#119310
0!
#119390
1!
#119695
0!
#119775
1!
#119870
0!
#120165
1!
#120255
0!
#120550
1!
#120645
0!
#120940
1!
#121030
0!
#121325
1!
#121420
0!
#121715
1!
#122020
0!
#122100
1!
#122405
0!
#122490
1!
#122795
0!
#122875
1!
