logic_analyzer_vcd_dumps/0.00.2.vcd
$comment 
  OLS Java Client
$end
$date 
  May 12, 2014 10:37:47 PM
$end
$version 
  VCD exporter v1.1
$end
$timescale 
  10 ns
$end
$scope 
  module logic
$end
$var wire 1 ! Channel-0 $end
$var wire 1 " Channel-1 $end
$var wire 1 # Channel-2 $end
$var wire 1 $ Channel-3 $end
$var wire 1 % Channel-4 $end
$var wire 1 & Channel-5 $end
$var wire 1 ' Channel-6 $end
$var wire 1 ( Channel-7 $end
$upscope $end
$enddefinitions $end
$dumpvars
x!
x"
x#
x$
x%
x&
x'
x(
$end
#0
0!
0"
0#
0$
0%
0&
0'
0(
#15
1!
#320
0!
#400
1!
#710
0!
#790
1!
#1095
0!
#1175
1!
#1485
0!
#1565
1!
#1870
0!
#1950
1!
#2260
0!
#2340
1!
#2645
0!
#2725
1!
#3035
0!
#3115
1!
#3420
0!
#3500
1!
#3810
0!
#3890
1!
#4195
0!
#4275
1!
#4985
0!
#5065
1!
#5370
0!
#5450
1!
#5545
0!
#5840
1!
#5930
0!
#6225
1!
#6320
0!
#6615
1!
#6705
0!
#7000
1!
#7095
0!
#7390
1!
#7695
0!
#7775
1!
#8080
0!
#8165
1!
#8470
0!
#8550
1!
#8855
0!
#8940
1!
#9245
0!
#9325
1!
#9630
0!
#9715
1!
#10020
0!
#10100
1!
#10405
0!
#10490
1!
#10580
0!
#10875
1!
#11180
0!
#11265
1!
#11355
0!
#11650
1!
#11745
0!
#12040
1!
#12345
0!
#12425
1!
#12520
0!
#12815
1!
#12905
0!
#13200
1!
#13295
0!
#13590
1!
#13895
0!
#13975
1!
#14280
0!
#14365
1!
#14670
0!
#14750
1!
#15055
0!
#15140
1!
#15445
0!
#15525
1!
#15830
0!
#15915
1!
#16220
0!
#16300
1!
#16605
0!
#16690
1!
#16995
0!
#17075
1!
#17380
0!
#17465
1!
#17555
0!
#17850
1!
#17945
0!
#18240
1!
#18330
0!
#18625
1!
#18930
0!
#19015
1!
#19105
0!
#19400
1!
#19495
0!
#19790
1!
#19880
0!
#20175
1!
#20270
0!
#20565
1!
#20655
0!
#20950
1!
#21045
0!
#21340
1!
#21645
0!
#21725
1!
#22030
0!
#22115
1!
#22420
0!
#22500
1!
#22805
0!
#22890
1!
#23195
0!
#23275
1!
#23580
0!
#23665
1!
#23970
0!
#24050
1!
#24355
0!
#24440
1!
#24745
0!
#24825
1!
#25130
0!
#25215
1!
#25305
0!
#25600
1!
#25695
0!
#25990
1!
#26080
0!
#26375
1!
#26470
0!
#26765
1!
#26855
0!
#27150
1!
#27245
0!
#27540
1!
#27845
0!
#27925
1!
#28230
0!
#28315
1!
#28620
0!
#28700
1!
#29005
0!
#29090
1!
#29395
0!
#29475
1!
#29780
0!
#29865
1!
#30170
0!
#30250
1!
#30555
0!
#30640
1!
#30730
0!
#31025
1!
#31120
0!
#31415
1!
#31720
0!
#31800
1!
#31895
0!
#32190
1!
#32280
0!
#32575
1!
#32880
0!
#32965
1!
#33055
0!
#33350
1!
#33445
0!
#33740
1!
#34045
0!
#34125
1!
#34430
0!
#34510
1!
#34820
0!
#34900
1!
#35205
0!
#35285
1!
#35595
0!
#35675
1!
#35980
0!
#36060
1!
#36370
0!
#36450
1!
#36755
0!
#36835
1!
#37145
0!
#37225
1!
#37320
0!
#37610
1!
#37920
0!
#38000
1!
#38095
0!
#38385
1!
#38480
0!
#38775
1!
#38870
0!
#39160
1!
#39255
0!
#39550
1!
#39645
0!
#39935
1!
#40245
0!
#40325
1!
#40630
0!
#40710
1!
#41020
0!
#41100
1!
#41405
0!
#41485
1!
#41795
0!
#41875
1!
#42180
0!
#42260
1!
#42570
0!
#42650
1!
#42955
0!
#43035
1!
#43130
0!
#43425
1!
#43730
0!
#43810
1!
#44120
0!
#44200
1!
#44295
0!
#44585
1!
#44680
0!
#44975
1!
#45070
0!
#45360
1!
#45455
0!
#45750
1!
#45845
0!
#46135
1!
#46445
0!
#46525
1!
#46830
0!
#46910
1!
#47220
0!
#47300
1!
#47605
0!
#47685
1!
#47780
0!
#48075
1!
#48380
0!
#48460
1!
#48555
0!
#48850
1!
#48940
0!
#49235
1!
#49545
0!
#49625
1!
#49930
0!
#50010
1!
#50320
0!
#50400
1!
#50495
0!
#50785
1!
#50880
0!
#51175
1!
#51265
0!
#51560
1!
#51655
0!
#51950
1!
#52040
0!
#52335
1!
#52640
0!
#52725
1!
#53030
0!
#53110
1!
#53415
0!
#53500
1!
#53805
0!
#53885
1!
#54190
0!
#54275
1!
#54580
0!
#54660
1!
#54965
0!
#55050
1!
#55355
0!
#55435
1!
#55530
0!
#55825
1!
#55915
0!
#56210
1!
#56305
0!
#56600
1!
#56905
0!
#56985
1!
#57080
0!
#57375
1!
#57465
0!
#57760
1!
#57855
0!
#58150
1!
#58240
0!
#58535
1!
#58840
0!
#58925
1!
#59230
0!
#59310
1!
#59615
0!
#59700
1!
#60005
0!
#60085
1!
#60390
0!
#60475
1!
#60780
0!
#60860
1!
#61165
0!
#61250
1!
#61555
0!
#61635
1!
#61940
0!
#62025
1!
#62115
0!
#62410
1!
#62505
0!
#62800
1!
#63105
0!
#63185
1!
#63490
0!
#63575
1!
#63880
0!
#63960
1!
#64265
0!
#64350
1!
#64655
0!
#64735
1!
#65040
0!
#65125
1!
#65430
0!
#65510
1!
#65815
0!
#65900
1!
#66205
0!
#66285
1!
#66590
0!
#66675
1!
#66980
0!
#67060
1!
#67365
0!
#67450
1!
#67755
0!
#67835
1!
#67930
0!
#68225
1!
#68530
0!
#68610
1!
#68705
0!
#69000
1!
#69305
0!
#69385
1!
#69690
0!
#69775
1!
#70080
0!
#70160
1!
#70465
0!
#70550
1!
#70855
0!
#70935
1!
#71240
0!
#71325
1!
#71630
0!
#71710
1!
#72015
0!
#72100
1!
#72405
0!
#72485
1!
#72790
0!
#72875
1!
#73180
0!
#73260
1!
#73565
0!
#73650
1!
#73740
0!
#74035
1!
#74340
0!
#74425
1!
#74730
0!
#74810
1!
#74905
0!
#75200
1!
#75505
0!
#75585
1!
#75890
0!
#75975
1!
#76280
0!
#76360
1!
#76665
0!
#76750
1!
#77055
0!
#77135
1!
#77440
0!
#77525
1!
#77830
0!
#77910
1!
#78215
0!
#78300
1!
#78605
0!
#78685
1!
#78990
0!
#79075
1!
#79380
0!
#79460
1!
#79765
0!
#79850
1!
#80155
0!
#80235
1!
#80330
0!
#80620
1!
#80715
0!
#81010
1!
#81315
0!
#81395
1!
#81705
0!
#81785
1!
#82090
0!
#82170
1!
#82480
0!
#82560
1!
#82865
0!
#82945
1!
#83255
0!
#83335
1!
#83640
0!
#83720
1!
#84030
0!
#84110
1!
#84415
0!
#84495
1!
#84805
0!
#84885
1!
#85190
0!
#85270
1!
#85580
0!
#85660
1!
#85965
0!
#86045
1!
#86355
0!
#86435
1!
#86740
0!
#86820
1!
#86915
0!
#87210
1!
#87515
0!
#87595
1!
#87905
0!
#87985
1!
#88290
0!
#88370
1!
#88680
0!
#88760
1!
#89065
0!
#89145
1!
#89455
0!
#89535
1!
#89840
0!
#89920
1!
#90230
0!
#90310
1!
#90615
0!
#90695
1!
#91005
0!
#91085
1!
#91180
0!
#91470
1!
#91565
0!
#91860
1!
#92165
0!
#92245
1!
#92340
0!
#92635
1!
#92730
0!
#93020
1!
#93330
0!
#93410
1!
#93715
0!
#93795
1!
#94105
0!
#94185
1!
#94490
0!
#94570
1!
#94880
0!
#94960
1!
#95265
0!
#95345
1!
#95655
0!
#95735
1!
#96040
0!
#96120
1!
#96430
0!
#96510
1!
#96815
0!
#96895
1!
#97205
0!
#97285
1!
#97375
0!
#97670
1!
#97975
0!
#98060
1!
#98150
0!
#98445
1!
#98540
0!
#98835
1!
#99140
0!
#99220
1!
#99525
0!
#99610
1!
#99915
0!
#99995
1!
#100300
0!
#100385
1!
#100690
0!
#100770
1!
#101075
0!
#101160
1!
#101465
0!
#101545
1!
#101850
0!
#101935
1!
#102240
0!
#102320
1!
#102625
0!
#102710
1!
#103015
0!
#103095
1!
#103400
0!
#103485
1!
#104190
0!
#104270
1!
#104575
0!
#104660
1!
#104750
0!
#105045
1!
#105140
0!
#105435
1!
#105525
0!
#105820
1!
#105915
0!
#106210
1!
#106300
0!
#106595
1!
#106900
0!
#106985
1!
#107290
0!
#107370
1!
#107675
0!
#107760
1!
#108065
0!
#108145
1!
#108450
0!
#108535
1!
#108840
0!
#108920
1!
#109225
0!
#109310
1!
#109615
0!
#109695
1!
#109790
0!
#110085
1!
#110390
0!
#110470
1!
#110565
0!
#110860
1!
#110950
0!
#111245
1!
#111550
0!
#111635
1!
#111725
0!
#112020
1!
#112115
0!
#112410
1!
#112500
0!
#112795
1!
#113100
0!
#113185
1!
#113490
0!
#113570
1!
#113875
0!
#113960
1!
#114265
0!
#114345
1!
#114650
0!
#114735
1!
#115040
0!
#115120
1!
#115425
0!
#115510
1!
#115815
0!
#115895
1!
#116200
0!
#116285
1!
#116590
0!
#116670
1!
#116765
0!
#117060
1!
#117150
0!
#117445
1!
#117540
0!
#117835
1!
#118140
0!
#118220
1!
#118315
0!
#118610
1!
#118700
0!
#118995
1!
#119090
0!
#119385
1!
#119475
0!
#119770
1!
#119865
0!
#120160
1!
#120250
0!
#120545
1!
#120850
0!
#120935
1!
#121240
0!
#121320
1!
#121625
0!
#121710
1!
#122015
0!
#122095
1!
#122400
0!
#122485
1!
#122790
0!
#122870
1!
