logic_analyzer_vcd_dumps/0.02.0.vcd
0:02.0-110000011111111000010001111111111000100000011111111110000001111111100100100111111111010010011111111011000001111010011100000111111110001000011111111100111111111111101011111111111101101111111111111001111111111111110111111111100100111111111110100111111111111
$comment 
  OLS Java Client
$end
$date 
  May 12, 2014 9:42:58 PM
$end
$version 
  VCD exporter v1.1
$end
$timescale 
  10 ns
$end
$scope 
  module logic
$end
$var wire 1 ! Channel-0 $end
$var wire 1 " Channel-1 $end
$var wire 1 # Channel-2 $end
$var wire 1 $ Channel-3 $end
$var wire 1 % Channel-4 $end
$var wire 1 & Channel-5 $end
$var wire 1 ' Channel-6 $end
$var wire 1 ( Channel-7 $end
$upscope $end
$enddefinitions $end
$dumpvars
x!
x"
x#
x$
x%
x&
x'
x(
$end
#0
1!
0"
0#
0$
0%
0&
0'
0(
#65
0!
#145
1!
#450
0!
#530
1!
#840
0!
#920
1!
#1225
0!
#1305
1!
#1615
0!
#1695
1!
#2000
0!
#2080
1!
#2175
0!
#2470
1!
#2775
0!
#2855
1!
#2950
0!
#3245
1!
#3340
0!
#3630
1!
#3940
0!
#4020
1!
#4325
0!
#4405
1!
#4715
0!
#4795
1!
#5100
0!
#5180
1!
#5490
0!
#5570
1!
#5875
0!
#5955
1!
#6265
0!
#6345
1!
#6650
0!
#6730
1!
#7040
0!
#7120
1!
#7425
0!
#7505
1!
#7815
0!
#7895
1!
#8200
0!
#8280
1!
#8990
0!
#9070
1!
#9375
0!
#9455
1!
#9550
0!
#9845
1!
#9935
0!
#10230
1!
#10325
0!
#10620
1!
#10710
0!
#11005
1!
#11100
0!
#11395
1!
#11700
0!
#11780
1!
#12085
0!
#12170
1!
#12475
0!
#12555
1!
#12860
0!
#12945
1!
#13250
0!
#13330
1!
#13635
0!
#13720
1!
#14025
0!
#14105
1!
#14410
0!
#14495
1!
#14585
0!
#14880
1!
#14975
0!
#15270
1!
#15360
0!
#15655
1!
#15750
0!
#16045
1!
#16350
0!
#16430
1!
#16525
0!
#16820
1!
#16910
0!
#17205
1!
#17300
0!
#17595
1!
#17900
0!
#17980
1!
#18285
0!
#18370
1!
#18675
0!
#18755
1!
#19060
0!
#19145
1!
#19450
0!
#19530
1!
#19835
0!
#19920
1!
#20225
0!
#20305
1!
#20610
0!
#20695
1!
#21000
0!
#21080
1!
#21385
0!
#21470
1!
#21560
0!
#21855
1!
#21950
0!
#22245
1!
#22335
0!
#22630
1!
#22935
0!
#23020
1!
#23110
0!
#23405
1!
#23500
0!
#23795
1!
#23885
0!
#24180
1!
#24275
0!
#24570
1!
#24660
0!
#24955
1!
#25050
0!
#25345
1!
#25650
0!
#25730
1!
#26035
0!
#26120
1!
#26425
0!
#26505
1!
#26810
0!
#26895
1!
#27200
0!
#27280
1!
#27585
0!
#27670
1!
#27975
0!
#28055
1!
#28360
0!
#28445
1!
#28750
0!
#28830
1!
#29135
0!
#29220
1!
#29310
0!
#29605
1!
#29700
0!
#29995
1!
#30085
0!
#30380
1!
#30475
0!
#30770
1!
#30860
0!
#31155
1!
#31250
0!
#31545
1!
#31850
0!
#31930
1!
#32235
0!
#32320
1!
#32625
0!
#32705
1!
#33010
0!
#33095
1!
#33400
0!
#33480
1!
#33785
0!
#33870
1!
#34175
0!
#34255
1!
#34560
0!
#34645
1!
#34735
0!
#35030
1!
#35125
0!
#35420
1!
#35725
0!
#35805
1!
#35900
0!
#36195
1!
#36285
0!
#36580
1!
#36885
0!
#36970
1!
#37060
0!
#37355
1!
#37450
0!
#37745
1!
#38050
0!
#38130
1!
#38435
0!
#38520
1!
#38825
0!
#38905
1!
#39210
0!
#39295
1!
#39600
0!
#39680
1!
#39985
0!
#40070
1!
#40375
0!
#40455
1!
#40760
0!
#40840
1!
#41150
0!
#41230
1!
#41325
0!
#41615
1!
#41925
0!
#42005
1!
#42100
0!
#42390
1!
#42485
0!
#42780
1!
#43085
0!
#43165
1!
#43260
0!
#43555
1!
#43650
0!
#43940
1!
#44250
0!
#44330
1!
#44635
0!
#44715
1!
#45025
0!
#45105
1!
#45410
0!
#45490
1!
#45800
0!
#45880
1!
#46185
0!
#46265
1!
#46575
0!
#46655
1!
#46960
0!
#47040
1!
#47135
0!
#47430
1!
#47735
0!
#47815
1!
#48125
0!
#48205
1!
#48300
0!
#48590
1!
#48685
0!
#48980
1!
#49075
0!
#49365
1!
#49460
0!
#49755
1!
#49850
0!
#50140
1!
#50450
0!
#50530
1!
#50835
0!
#50915
1!
#51225
0!
#51305
1!
#51610
0!
#51690
1!
#51785
0!
#52080
1!
#52385
0!
#52465
1!
#52560
0!
#52855
1!
#52950
0!
#53240
1!
#53550
0!
#53630
1!
#53935
0!
#54015
1!
#54325
0!
#54405
1!
#54500
0!
#54790
1!
#54885
0!
#55180
1!
#55270
0!
#55565
1!
#55660
0!
#55955
1!
#56045
0!
#56340
1!
#56650
0!
#56730
1!
#57035
0!
#57115
1!
#57420
0!
#57505
1!
#57810
0!
#57890
1!
#58195
0!
#58280
1!
#58585
0!
#58665
1!
#58970
0!
#59055
1!
#59360
0!
#59440
1!
#59535
0!
#59830
1!
#59920
0!
#60215
1!
#60310
0!
#60605
1!
#60910
0!
#60990
1!
#61085
0!
#61380
1!
#61470
0!
#61765
1!
#61860
0!
#62155
1!
#62245
0!
#62540
1!
#62845
0!
#62930
1!
#63235
0!
#63315
1!
#63620
0!
#63705
1!
#64010
0!
#64090
1!
#64395
0!
#64480
1!
#64785
0!
#64865
1!
#65170
0!
#65255
1!
#65560
0!
#65640
1!
#65945
0!
#66030
1!
#66120
0!
#66415
1!
#66510
0!
#66805
1!
#67110
0!
#67190
1!
#67495
0!
#67580
1!
#67885
0!
#67965
1!
#68270
0!
#68355
1!
#68660
0!
#68740
1!
#69045
0!
#69130
1!
#69435
0!
#69515
1!
#69820
0!
#69905
1!
#70210
0!
#70290
1!
#70595
0!
#70680
1!
#70985
0!
#71065
1!
#71370
0!
#71455
1!
#71760
0!
#71840
1!
#71935
0!
#72230
1!
#72535
0!
#72615
1!
#72710
0!
#73005
1!
#73310
0!
#73390
1!
#73695
0!
#73780
1!
#74085
0!
#74165
1!
#74470
0!
#74555
1!
#74860
0!
#74940
1!
#75245
0!
#75330
1!
#75635
0!
#75715
1!
#76020
0!
#76105
1!
#76410
0!
#76490
1!
#76795
0!
#76880
1!
#77185
0!
#77265
1!
#77570
0!
#77655
1!
#77745
0!
#78040
1!
#78345
0!
#78430
1!
#78735
0!
#78815
1!
#78910
0!
#79205
1!
#79510
0!
#79590
1!
#79895
0!
#79980
1!
#80285
0!
#80365
1!
#80670
0!
#80755
1!
#81060
0!
#81140
1!
#81445
0!
#81530
1!
#81835
0!
#81915
1!
#82220
0!
#82305
1!
#82610
0!
#82690
1!
#82995
0!
#83080
1!
#83385
0!
#83465
1!
#83770
0!
#83855
1!
#84160
0!
#84240
1!
#84335
0!
#84630
1!
#84720
0!
#85015
1!
#85320
0!
#85405
1!
#85710
0!
#85790
1!
#86095
0!
#86175
1!
#86485
0!
#86565
1!
#86870
0!
#86950
1!
#87260
0!
#87340
1!
#87645
0!
#87725
1!
#88035
0!
#88115
1!
#88420
0!
#88500
1!
#88810
0!
#88890
1!
#89195
0!
#89275
1!
#89585
0!
#89665
1!
#89970
0!
#90050
1!
#90360
0!
#90440
1!
#90745
0!
#90825
1!
#90920
0!
#91215
1!
#91520
0!
#91600
1!
#91910
0!
#91990
1!
#92295
0!
#92375
1!
#92685
0!
#92765
1!
#93070
0!
#93150
1!
#93460
0!
#93540
1!
#93845
0!
#93925
1!
#94235
0!
#94315
1!
#94620
0!
#94700
1!
#95010
0!
#95090
1!
#95185
0!
#95475
1!
#95570
0!
#95865
1!
#96170
0!
#96250
1!
#96345
0!
#96640
1!
#96735
0!
#97025
1!
#97335
0!
#97415
1!
#97720
0!
#97800
1!
#98110
0!
#98190
1!
#98495
0!
#98575
1!
#98885
0!
#98965
1!
#99270
0!
#99350
1!
#99660
0!
#99740
1!
#100045
0!
#100125
1!
#100435
0!
#100515
1!
#100820
0!
#100900
1!
#101210
0!
#101290
1!
#101385
0!
#101675
1!
#101985
0!
#102065
1!
#102160
0!
#102450
1!
#102545
0!
#102840
1!
#103145
0!
#103225
1!
#103530
0!
#103615
1!
#103920
0!
#104000
1!
#104305
0!
#104390
1!
#104695
0!
#104775
1!
#105080
0!
#105165
1!
#105470
0!
#105550
1!
#105855
0!
#105940
1!
#106245
0!
#106325
1!
#106630
0!
#106715
1!
#107020
0!
#107100
1!
#107405
0!
#107490
1!
#108195
0!
#108275
1!
#108580
0!
#108665
1!
#108755
0!
#109050
1!
#109145
0!
#109440
1!
#109530
0!
#109825
1!
#109920
0!
#110215
1!
#110305
0!
#110600
1!
#110905
0!
#110990
1!
#111295
0!
#111375
1!
#111680
0!
#111765
1!
#112070
0!
#112150
1!
#112455
0!
#112540
1!
#112845
0!
#112925
1!
#113230
0!
#113315
1!
#113620
0!
#113700
1!
#113795
0!
#114090
1!
#114180
0!
#114475
1!
#114570
0!
#114865
1!
#114955
0!
#115250
1!
#115555
0!
#115640
1!
#115730
0!
#116025
1!
#116120
0!
#116415
1!
#116505
0!
#116800
1!
#117105
0!
#117190
1!
#117495
0!
#117575
1!
#117880
0!
#117965
1!
#118270
0!
#118350
1!
#118655
0!
#118740
1!
#119045
0!
#119125
1!
#119430
0!
#119515
1!
#119820
0!
#119900
1!
#120205
0!
#120290
1!
#120595
0!
#120675
1!
#120770
0!
#121065
1!
#121155
0!
#121450
1!
#121545
0!
#121840
1!
#122145
0!
#122225
1!
#122320
0!
#122615
1!
#122705
0!
