logic_analyzer_vcd_dumps/0.03.0.vcd
$comment 
  OLS Java Client
$end
$date 
  May 12, 2014 9:46:07 PM
$end
$version 
  VCD exporter v1.1
$end
$timescale 
  10 ns
$end
$scope 
  module logic
$end
$var wire 1 ! Channel-0 $end
$var wire 1 " Channel-1 $end
$var wire 1 # Channel-2 $end
$var wire 1 $ Channel-3 $end
$var wire 1 % Channel-4 $end
$var wire 1 & Channel-5 $end
$var wire 1 ' Channel-6 $end
$var wire 1 ( Channel-7 $end
$upscope $end
$enddefinitions $end
$dumpvars
x!
x"
x#
x$
x%
x&
x'
x(
$end
#0
1!
0"
0#
0$
0%
0&
0'
0(
#120
0!
#200
1!
#295
0!
#590
1!
#685
0!
#975
1!
#1285
0!
#1365
1!
#1670
0!
#1750
1!
#2060
0!
#2140
1!
#2445
0!
#2525
1!
#2835
0!
#2915
1!
#3220
0!
#3300
1!
#3610
0!
#3690
1!
#3995
0!
#4075
1!
#4385
0!
#4465
1!
#4770
0!
#4850
1!
#5160
0!
#5240
1!
#5330
0!
#5625
1!
#5930
0!
#6015
1!
#6105
0!
#6400
1!
#6495
0!
#6790
1!
#7095
0!
#7175
1!
#7480
0!
#7565
1!
#7870
0!
#7950
1!
#8255
0!
#8340
1!
#8645
0!
#8725
1!
#9030
0!
#9115
1!
#9420
0!
#9500
1!
#9805
0!
#9890
1!
#10195
0!
#10275
1!
#10580
0!
#10665
1!
#10970
0!
#11050
1!
#11355
0!
#11440
1!
#12145
0!
#12225
1!
#12530
0!
#12615
1!
#12705
0!
#13000
1!
#13095
0!
#13390
1!
#13480
0!
#13775
1!
#13870
0!
#14165
1!
#14255
0!
#14550
1!
#14855
0!
#14940
1!
#15245
0!
#15325
1!
#15630
0!
#15715
1!
#16020
0!
#16100
1!
#16405
0!
#16490
1!
#16795
0!
#16875
1!
#17180
0!
#17265
1!
#17570
0!
#17650
1!
#17745
0!
#18040
1!
#18130
0!
#18425
1!
#18520
0!
#18815
1!
#18905
0!
#19200
1!
#19505
0!
#19590
1!
#19680
0!
#19975
1!
#20070
0!
#20365
1!
#20455
0!
#20750
1!
#21055
0!
#21140
1!
#21445
0!
#21525
1!
#21830
0!
#21915
1!
#22220
0!
#22300
1!
#22605
0!
#22690
1!
#22995
0!
#23075
1!
#23380
0!
#23465
1!
#23770
0!
#23850
1!
#24155
0!
#24240
1!
#24545
0!
#24625
1!
#24720
0!
#25015
1!
#25105
0!
#25400
1!
#25495
0!
#25790
1!
#26095
0!
#26175
1!
#26270
0!
#26565
1!
#26655
0!
#26950
1!
#27045
0!
#27340
1!
#27430
0!
#27725
1!
#27820
0!
#28115
1!
#28205
0!
#28500
1!
#28805
0!
#28890
1!
#29195
0!
#29275
1!
#29580
0!
#29665
1!
#29970
0!
#30050
1!
#30355
0!
#30440
1!
#30745
0!
#30825
1!
#31130
0!
#31215
1!
#31520
0!
#31600
1!
#31905
0!
#31990
1!
#32295
0!
#32375
1!
#32470
0!
#32765
1!
#32855
0!
#33150
1!
#33245
0!
#33540
1!
#33630
0!
#33925
1!
#34020
0!
#34315
1!
#34405
0!
#34700
1!
#35005
0!
#35085
1!
#35395
0!
#35475
1!
#35780
0!
#35860
1!
#36170
0!
#36250
1!
#36555
0!
#36635
1!
#36945
0!
#37025
1!
#37330
0!
#37410
1!
#37720
0!
#37800
1!
#37895
0!
#38185
1!
#38280
0!
#38575
1!
#38880
0!
#38960
1!
#39055
0!
#39350
1!
#39445
0!
#39735
1!
#40045
0!
#40125
1!
#40220
0!
#40510
1!
#40605
0!
#40900
1!
#41205
0!
#41285
1!
#41595
0!
#41675
1!
#41980
0!
#42060
1!
#42370
0!
#42450
1!
#42755
0!
#42835
1!
#43145
0!
#43225
1!
#43530
0!
#43610
1!
#43920
0!
#44000
1!
#44305
0!
#44385
1!
#44480
0!
#44775
1!
#45080
0!
#45160
1!
#45255
0!
#45550
1!
#45855
0!
#45935
1!
#46245
0!
#46325
1!
#46420
0!
#46710
1!
#46805
0!
#47100
1!
#47405
0!
#47485
1!
#47795
0!
#47875
1!
#48180
0!
#48260
1!
#48570
0!
#48650
1!
#48955
0!
#49035
1!
#49345
0!
#49425
1!
#49730
0!
#49810
1!
#50120
0!
#50200
1!
#50295
0!
#50585
1!
#50895
0!
#50975
1!
#51280
0!
#51360
1!
#51455
0!
#51750
1!
#51840
0!
#52135
1!
#52230
0!
#52525
1!
#52615
0!
#52910
1!
#53005
0!
#53300
1!
#53605
0!
#53685
1!
#53990
0!
#54075
1!
#54380
0!
#54460
1!
#54765
0!
#54850
1!
#54940
0!
#55235
1!
#55540
0!
#55625
1!
#55715
0!
#56010
1!
#56105
0!
#56400
1!
#56705
0!
#56785
1!
#57090
0!
#57175
1!
#57480
0!
#57560
1!
#57655
0!
#57950
1!
#58040
0!
#58335
1!
#58430
0!
#58725
1!
#58815
0!
#59110
1!
#59205
0!
#59500
1!
#59805
0!
#59885
1!
#60190
0!
#60275
1!
#60580
0!
#60660
1!
#60965
0!
#61050
1!
#61355
0!
#61435
1!
#61740
0!
#61825
1!
#62130
0!
#62210
1!
#62515
0!
#62600
1!
#62690
0!
#62985
1!
#63080
0!
#63375
1!
#63465
0!
#63760
1!
#64065
0!
#64150
1!
#64240
0!
#64535
1!
#64630
0!
#64925
1!
#65015
0!
#65310
1!
#65405
0!
#65700
1!
#66005
0!
#66085
1!
#66390
0!
#66475
1!
#66780
0!
#66860
1!
#67165
0!
#67250
1!
#67555
0!
#67635
1!
#67940
0!
#68025
1!
#68330
0!
#68410
1!
#68715
0!
#68800
1!
#69105
0!
#69185
1!
#69280
0!
#69575
1!
#69665
0!
#69960
1!
#70265
0!
#70350
1!
#70655
0!
#70735
1!
#71040
0!
#71125
1!
#71430
0!
#71510
1!
#71815
0!
#71900
1!
#72205
0!
#72285
1!
#72590
0!
#72675
1!
#72980
0!
#73060
1!
#73365
0!
#73450
1!
#73755
0!
#73835
1!
#74140
0!
#74225
1!
#74530
0!
#74610
1!
#74915
0!
#75000
1!
#75090
0!
#75385
1!
#75690
0!
#75775
1!
#75865
0!
#76160
1!
#76465
0!
#76550
1!
#76855
0!
#76935
1!
#77240
0!
#77325
1!
#77630
0!
#77710
1!
#78015
0!
#78100
1!
#78405
0!
#78485
1!
#78790
0!
#78875
1!
#79180
0!
#79260
1!
#79565
0!
#79650
1!
#79955
0!
#80035
1!
#80340
0!
#80420
1!
#80730
0!
#80810
1!
#80905
0!
#81195
1!
#81505
0!
#81585
1!
#81890
0!
#81970
1!
#82065
0!
#82360
1!
#82665
0!
#82745
1!
#83055
0!
#83135
1!
#83440
0!
#83520
1!
#83830
0!
#83910
1!
#84215
0!
#84295
1!
#84605
0!
#84685
1!
#84990
0!
#85070
1!
#85380
0!
#85460
1!
#85765
0!
#85845
1!
#86155
0!
#86235
1!
#86540
0!
#86620
1!
#86930
0!
#87010
1!
#87315
0!
#87395
1!
#87490
0!
#87785
1!
#87880
0!
#88170
1!
#88480
0!
#88560
1!
#88865
0!
#88945
1!
#89255
0!
#89335
1!
#89640
0!
#89720
1!
#90030
0!
#90110
1!
#90415
0!
#90495
1!
#90805
0!
#90885
1!
#91190
0!
#91270
1!
#91580
0!
#91660
1!
#91965
0!
#92045
1!
#92355
0!
#92435
1!
#92740
0!
#92820
1!
#93130
0!
#93210
1!
#93515
0!
#93595
1!
#93905
0!
#93985
1!
#94080
0!
#94370
1!
#94680
0!
#94760
1!
#95065
0!
#95145
1!
#95455
0!
#95535
1!
#95840
0!
#95920
1!
#96230
0!
#96310
1!
#96615
0!
#96695
1!
#97005
0!
#97085
1!
#97390
0!
#97470
1!
#97775
0!
#97860
1!
#98165
0!
#98245
1!
#98340
0!
#98635
1!
#98725
0!
#99020
1!
#99325
0!
#99410
1!
#99500
0!
#99795
1!
#99890
0!
#100185
1!
#100490
0!
#100570
1!
#100875
0!
#100960
1!
#101265
0!
#101345
1!
#101650
0!
#101735
1!
#102040
0!
#102120
1!
#102425
0!
#102510
1!
#102815
0!
#102895
1!
#103200
0!
#103285
1!
#103590
0!
#103670
1!
#103975
0!
#104060
1!
#104365
0!
#104445
1!
#104540
0!
#104835
1!
#105140
0!
#105220
1!
#105315
0!
#105610
1!
#105700
0!
#105995
1!
#106300
0!
#106385
1!
#106690
0!
#106770
1!
#107075
0!
#107160
1!
#107465
0!
#107545
1!
#107850
0!
#107935
1!
#108240
0!
#108320
1!
#108625
0!
#108710
1!
#109015
0!
#109095
1!
#109400
0!
#109485
1!
#109790
0!
#109870
1!
#110175
0!
#110260
1!
#110565
0!
#110645
1!
#111350
0!
#111435
1!
#111740
0!
#111820
1!
#111915
0!
#112210
1!
#112300
0!
#112595
1!
#112690
0!
#112985
1!
#113075
0!
#113370
1!
#113465
0!
#113760
1!
#114065
0!
#114145
1!
#114450
0!
#114535
1!
#114840
0!
#114920
1!
#115225
0!
#115310
1!
#115615
0!
#115695
1!
#116000
0!
#116085
1!
#116390
0!
#116470
1!
#116775
0!
#116860
1!
#116950
0!
#117245
1!
#117340
0!
#117635
1!
#117725
0!
#118020
1!
#118115
0!
#118410
1!
#118715
0!
#118795
1!
#118890
0!
#119185
1!
#119275
0!
#119570
1!
#119665
0!
#119960
1!
#120265
0!
#120345
1!
#120650
0!
#120735
1!
#121040
0!
#121120
1!
#121425
0!
#121510
1!
#121815
0!
#121895
1!
#122200
0!
#122285
1!
#122590
0!
#122670
1!
