logic_analyzer_vcd_dumps/0.09.0.vcd
$comment 
  OLS Java Client
$end
$date 
  May 12, 2014 9:48:25 PM
$end
$version 
  VCD exporter v1.1
$end
$timescale 
  10 ns
$end
$scope 
  module logic
$end
$var wire 1 ! Channel-0 $end
$var wire 1 " Channel-1 $end
$var wire 1 # Channel-2 $end
$var wire 1 $ Channel-3 $end
$var wire 1 % Channel-4 $end
$var wire 1 & Channel-5 $end
$var wire 1 ' Channel-6 $end
$var wire 1 ( Channel-7 $end
$upscope $end
$enddefinitions $end
$dumpvars
x!
x"
x#
x$
x%
x&
x'
x(
$end
#0
1!
0"
0#
0$
0%
0&
0'
0(
#55
0!
#135
1!
#445
0!
#525
1!
#830
0!
#910
1!
#1220
0!
#1300
1!
#1605
0!
#1685
1!
#1995
0!
#2075
1!
#2380
0!
#2460
1!
#2770
0!
#2850
1!
#3155
0!
#3235
1!
#3545
0!
#3625
1!
#3930
0!
#4010
1!
#4320
0!
#4400
1!
#4705
0!
#4785
1!
#5095
0!
#5175
1!
#5480
0!
#5560
1!
#5655
0!
#5950
1!
#6255
0!
#6335
1!
#6645
0!
#6725
1!
#7030
0!
#7110
1!
#7420
0!
#7500
1!
#7805
0!
#7885
1!
#8195
0!
#8275
1!
#8580
0!
#8660
1!
#8970
0!
#9050
1!
#9355
0!
#9435
1!
#9745
0!
#9825
1!
#9920
0!
#10210
1!
#10305
0!
#10600
1!
#10905
0!
#10985
1!
#11080
0!
#11375
1!
#11465
0!
#11760
1!
#12070
0!
#12150
1!
#12455
0!
#12535
1!
#12845
0!
#12925
1!
#13230
0!
#13310
1!
#13615
0!
#13700
1!
#14005
0!
#14085
1!
#14390
0!
#14475
1!
#14780
0!
#14860
1!
#15165
0!
#15250
1!
#15555
0!
#15635
1!
#15940
0!
#16025
1!
#16115
0!
#16410
1!
#16715
0!
#16800
1!
#16890
0!
#17185
1!
#17280
0!
#17575
1!
#17880
0!
#17960
1!
#18265
0!
#18350
1!
#18655
0!
#18735
1!
#19040
0!
#19125
1!
#19430
0!
#19510
1!
#19815
0!
#19900
1!
#20205
0!
#20285
1!
#20590
0!
#20675
1!
#20980
0!
#21060
1!
#21365
0!
#21450
1!
#21755
0!
#21835
1!
#22140
0!
#22225
1!
#22930
0!
#23010
1!
#23315
0!
#23400
1!
#23490
0!
#23785
1!
#23880
0!
#24175
1!
#24265
0!
#24560
1!
#24655
0!
#24950
1!
#25040
0!
#25335
1!
#25640
0!
#25725
1!
#26030
0!
#26110
1!
#26415
0!
#26500
1!
#26805
0!
#26885
1!
#27190
0!
#27275
1!
#27580
0!
#27660
1!
#27965
0!
#28050
1!
#28355
0!
#28435
1!
#28530
0!
#28825
1!
#28915
0!
#29210
1!
#29305
0!
#29600
1!
#29690
0!
#29985
1!
#30290
0!
#30375
1!
#30465
0!
#30760
1!
#30855
0!
#31150
1!
#31240
0!
#31535
1!
#31840
0!
#31925
1!
#32230
0!
#32310
1!
#32615
0!
#32700
1!
#33005
0!
#33085
1!
#33390
0!
#33475
1!
#33780
0!
#33860
1!
#34165
0!
#34250
1!
#34555
0!
#34635
1!
#34940
0!
#35025
1!
#35330
0!
#35410
1!
#35505
0!
#35800
1!
#35890
0!
#36185
1!
#36280
0!
#36575
1!
#36880
0!
#36960
1!
#37055
0!
#37350
1!
#37440
0!
#37735
1!
#37830
0!
#38125
1!
#38215
0!
#38510
1!
#38605
0!
#38900
1!
#38990
0!
#39285
1!
#39590
0!
#39675
1!
#39980
0!
#40060
1!
#40365
0!
#40450
1!
#40755
0!
#40835
1!
#41140
0!
#41225
1!
#41530
0!
#41610
1!
#41915
0!
#42000
1!
#42305
0!
#42385
1!
#42690
0!
#42770
1!
#43080
0!
#43160
1!
#43255
0!
#43545
1!
#43640
0!
#43935
1!
#44030
0!
#44320
1!
#44415
0!
#44710
1!
#44805
0!
#45095
1!
#45190
0!
#45485
1!
#45790
0!
#45870
1!
#46180
0!
#46260
1!
#46565
0!
#46645
1!
#46955
0!
#47035
1!
#47340
0!
#47420
1!
#47730
0!
#47810
1!
#48115
0!
#48195
1!
#48505
0!
#48585
1!
#48680
0!
#48970
1!
#49065
0!
#49360
1!
#49665
0!
#49745
1!
#49840
0!
#50135
1!
#50230
0!
#50520
1!
#50830
0!
#50910
1!
#51005
0!
#51295
1!
#51390
0!
#51685
1!
#51990
0!
#52070
1!
#52380
0!
#52460
1!
#52765
0!
#52845
1!
#53155
0!
#53235
1!
#53540
0!
#53620
1!
#53930
0!
#54010
1!
#54315
0!
#54395
1!
#54705
0!
#54785
1!
#55090
0!
#55170
1!
#55265
0!
#55560
1!
#55865
0!
#55945
1!
#56040
0!
#56335
1!
#56640
0!
#56720
1!
#56815
0!
#57110
1!
#57200
0!
#57495
1!
#57805
0!
#57885
1!
#58190
0!
#58270
1!
#58580
0!
#58660
1!
#58965
0!
#59045
1!
#59355
0!
#59435
1!
#59740
0!
#59820
1!
#60125
0!
#60210
1!
#60515
0!
#60595
1!
#60900
0!
#60985
1!
#61075
0!
#61370
1!
#61675
0!
#61760
1!
#62065
0!
#62145
1!
#62240
0!
#62535
1!
#62625
0!
#62920
1!
#63015
0!
#63310
1!
#63400
0!
#63695
1!
#63790
0!
#64085
1!
#64390
0!
#64470
1!
#64775
0!
#64860
1!
#65165
0!
#65245
1!
#65550
0!
#65635
1!
#65725
0!
#66020
1!
#66325
0!
#66410
1!
#66500
0!
#66795
1!
#66890
0!
#67185
1!
#67490
0!
#67570
1!
#67875
0!
#67960
1!
#68265
0!
#68345
1!
#68440
0!
#68735
1!
#68825
0!
#69120
1!
#69215
0!
#69510
1!
#69600
0!
#69895
1!
#69990
0!
#70285
1!
#70590
0!
#70670
1!
#70975
0!
#71060
1!
#71365
0!
#71445
1!
#71750
0!
#71835
1!
#72140
0!
#72220
1!
#72525
0!
#72610
1!
#72915
0!
#72995
1!
#73300
0!
#73385
1!
#73475
0!
#73770
1!
#73865
0!
#74160
1!
#74250
0!
#74545
1!
#74850
0!
#74935
1!
#75025
0!
#75320
1!
#75415
0!
#75710
1!
#75800
0!
#76095
1!
#76190
0!
#76485
1!
#76790
0!
#76870
1!
#77175
0!
#77260
1!
#77565
0!
#77645
1!
#77950
0!
#78035
1!
#78340
0!
#78420
1!
#78725
0!
#78810
1!
#79115
0!
#79195
1!
#79500
0!
#79585
1!
#79890
0!
#79970
1!
#80065
0!
#80360
1!
#80450
0!
#80745
1!
#81050
0!
#81135
1!
#81440
0!
#81520
1!
#81825
0!
#81910
1!
#82215
0!
#82295
1!
#82600
0!
#82685
1!
#82990
0!
#83070
1!
#83375
0!
#83460
1!
#83765
0!
#83845
1!
#84150
0!
#84235
1!
#84540
0!
#84620
1!
#84925
0!
#85010
1!
#85315
0!
#85395
1!
#85700
0!
#85785
1!
#85875
0!
#86170
1!
#86475
0!
#86560
1!
#86650
0!
#86945
1!
#87250
0!
#87335
1!
#87640
0!
#87720
1!
#88025
0!
#88110
1!
#88415
0!
#88495
1!
#88800
0!
#88880
1!
#89190
0!
#89270
1!
#89575
0!
#89655
1!
#89965
0!
#90045
1!
#90350
0!
#90430
1!
#90740
0!
#90820
1!
#91125
0!
#91205
1!
#91515
0!
#91595
1!
#91690
0!
#91980
1!
#92290
0!
#92370
1!
#92675
0!
#92755
1!
#92850
0!
#93145
1!
#93450
0!
#93530
1!
#93840
0!
#93920
1!
#94225
0!
#94305
1!
#94615
0!
#94695
1!
#95000
0!
#95080
1!
#95390
0!
#95470
1!
#95775
0!
#95855
1!
#96165
0!
#96245
1!
#96550
0!
#96630
1!
#96940
0!
#97020
1!
#97325
0!
#97405
1!
#97715
0!
#97795
1!
#98100
0!
#98180
1!
#98275
0!
#98570
1!
#98665
0!
#98955
1!
#99265
0!
#99345
1!
#99650
0!
#99730
1!
#100040
0!
#100120
1!
#100425
0!
#100505
1!
#100815
0!
#100895
1!
#101200
0!
#101280
1!
#101590
0!
#101670
1!
#101975
0!
#102055
1!
#102365
0!
#102445
1!
#102750
0!
#102830
1!
#103140
0!
#103220
1!
#103525
0!
#103605
1!
#103915
0!
#103995
1!
#104300
0!
#104380
1!
#104690
0!
#104770
1!
#104865
0!
#105155
1!
#105460
0!
#105545
1!
#105850
0!
#105930
1!
#106235
0!
#106320
1!
#106625
0!
#106705
1!
#107010
0!
#107095
1!
#107400
0!
#107480
1!
#107785
0!
#107870
1!
#108175
0!
#108255
1!
#108560
0!
#108645
1!
#108950
0!
#109030
1!
#109125
0!
#109420
1!
#109510
0!
#109805
1!
#110110
0!
#110195
1!
#110285
0!
#110580
1!
#110675
0!
#110970
1!
#111275
0!
#111355
1!
#111660
0!
#111745
1!
#112050
0!
#112130
1!
#112435
0!
#112520
1!
#112825
0!
#112905
1!
#113210
0!
#113295
1!
#113600
0!
#113680
1!
#113985
0!
#114070
1!
#114375
0!
#114455
1!
#114760
0!
#114845
1!
#115150
0!
#115230
1!
#115325
0!
#115620
1!
#115925
0!
#116005
1!
#116100
0!
#116395
1!
#116485
0!
#116780
1!
#117085
0!
#117170
1!
#117475
0!
#117555
1!
#117860
0!
#117945
1!
#118250
0!
#118330
1!
#118635
0!
#118720
1!
#119025
0!
#119105
1!
#119410
0!
#119495
1!
#119800
0!
#119880
1!
#120185
0!
#120270
1!
#120575
0!
#120655
1!
#120960
0!
#121045
1!
#121350
0!
#121430
1!
#122135
0!
#122220
1!
#122525
0!
#122605
1!
#122700
0!
