logic_analyzer_vcd_dumps/0.59.0.vcd
$comment 
  OLS Java Client
$end
$date 
  May 12, 2014 9:47:18 PM
$end
$version 
  VCD exporter v1.1
$end
$timescale 
  10 ns
$end
$scope 
  module logic
$end
$var wire 1 ! Channel-0 $end
$var wire 1 " Channel-1 $end
$var wire 1 # Channel-2 $end
$var wire 1 $ Channel-3 $end
$var wire 1 % Channel-4 $end
$var wire 1 & Channel-5 $end
$var wire 1 ' Channel-6 $end
$var wire 1 ( Channel-7 $end
$upscope $end
$enddefinitions $end
$dumpvars
x!
x"
x#
x$
x%
x&
x'
x(
$end
#0
1!
0"
0#
0$
0%
0&
0'
0(
#190
0!
#270
1!
#575
0!
#660
1!
#965
0!
#1045
1!
#1350
0!
#1435
1!
#1525
0!
#1820
1!
#2125
0!
#2210
1!
#2515
0!
#2595
1!
#2900
0!
#2985
1!
#3290
0!
#3370
1!
#3675
0!
#3760
1!
#4065
0!
#4145
1!
#4450
0!
#4535
1!
#4840
0!
#4920
1!
#5225
0!
#5310
1!
#5615
0!
#5695
1!
#5790
0!
#6085
1!
#6175
0!
#6470
1!
#6775
0!
#6860
1!
#6950
0!
#7245
1!
#7340
0!
#7635
1!
#7940
0!
#8020
1!
#8325
0!
#8410
1!
#8715
0!
#8795
1!
#9100
0!
#9185
1!
#9490
0!
#9570
1!
#9875
0!
#9960
1!
#10265
0!
#10345
1!
#10650
0!
#10735
1!
#11040
0!
#11120
1!
#11425
0!
#11510
1!
#11815
0!
#11895
1!
#11990
0!
#12285
1!
#12590
0!
#12670
1!
#12765
0!
#13060
1!
#13150
0!
#13445
1!
#13750
0!
#13835
1!
#14140
0!
#14220
1!
#14525
0!
#14610
1!
#14915
0!
#14995
1!
#15300
0!
#15385
1!
#15690
0!
#15770
1!
#16075
0!
#16160
1!
#16465
0!
#16545
1!
#16850
0!
#16935
1!
#17240
0!
#17320
1!
#17625
0!
#17710
1!
#18015
0!
#18095
1!
#18800
0!
#18885
1!
#19190
0!
#19270
1!
#19365
0!
#19660
1!
#19750
0!
#20045
1!
#20140
0!
#20435
1!
#20525
0!
#20820
1!
#20915
0!
#21210
1!
#21515
0!
#21595
1!
#21900
0!
#21985
1!
#22290
0!
#22370
1!
#22675
0!
#22760
1!
#23065
0!
#23145
1!
#23450
0!
#23535
1!
#23840
0!
#23920
1!
#24225
0!
#24310
1!
#24400
0!
#24695
1!
#24790
0!
#25085
1!
#25175
0!
#25470
1!
#25565
0!
#25860
1!
#26165
0!
#26245
1!
#26340
0!
#26630
1!
#26725
0!
#27020
1!
#27115
0!
#27405
1!
#27715
0!
#27795
1!
#28100
0!
#28180
1!
#28490
0!
#28570
1!
#28875
0!
#28955
1!
#29265
0!
#29345
1!
#29650
0!
#29730
1!
#30040
0!
#30120
1!
#30425
0!
#30505
1!
#30815
0!
#30895
1!
#31200
0!
#31280
1!
#31375
0!
#31670
1!
#31765
0!
#32055
1!
#32150
0!
#32445
1!
#32750
0!
#32830
1!
#32925
0!
#33220
1!
#33315
0!
#33605
1!
#33700
0!
#33995
1!
#34090
0!
#34380
1!
#34475
0!
#34770
1!
#34865
0!
#35155
1!
#35465
0!
#35545
1!
#35850
0!
#35930
1!
#36240
0!
#36320
1!
#36625
0!
#36705
1!
#37015
0!
#37095
1!
#37400
0!
#37480
1!
#37790
0!
#37870
1!
#38175
0!
#38255
1!
#38565
0!
#38645
1!
#38950
0!
#39030
1!
#39125
0!
#39420
1!
#39515
0!
#39805
1!
#39900
0!
#40195
1!
#40290
0!
#40580
1!
#40675
0!
#40970
1!
#41065
0!
#41355
1!
#41665
0!
#41745
1!
#42050
0!
#42130
1!
#42440
0!
#42520
1!
#42825
0!
#42905
1!
#43215
0!
#43295
1!
#43600
0!
#43680
1!
#43985
0!
#44070
1!
#44375
0!
#44455
1!
#44550
0!
#44845
1!
#44935
0!
#45230
1!
#45535
0!
#45620
1!
#45710
0!
#46005
1!
#46100
0!
#46395
1!
#46700
0!
#46780
1!
#46875
0!
#47170
1!
#47260
0!
#47555
1!
#47860
0!
#47945
1!
#48250
0!
#48330
1!
#48635
0!
#48720
1!
#49025
0!
#49105
1!
#49410
0!
#49495
1!
#49800
0!
#49880
1!
#50185
0!
#50270
1!
#50575
0!
#50655
1!
#50960
0!
#51045
1!
#51135
0!
#51430
1!
#51735
0!
#51820
1!
#51910
0!
#52205
1!
#52510
0!
#52595
1!
#52685
0!
#52980
1!
#53075
0!
#53370
1!
#53675
0!
#53755
1!
#54060
0!
#54145
1!
#54450
0!
#54530
1!
#54835
0!
#54920
1!
#55225
0!
#55305
1!
#55610
0!
#55695
1!
#56000
0!
#56080
1!
#56385
0!
#56470
1!
#56775
0!
#56855
1!
#56950
0!
#57245
1!
#57550
0!
#57630
1!
#57935
0!
#58020
1!
#58110
0!
#58405
1!
#58710
0!
#58795
1!
#58885
0!
#59180
1!
#59485
0!
#59570
1!
#59660
0!
#59955
1!
#60260
0!
#60345
1!
#60650
0!
#60730
1!
#61035
0!
#61120
1!
#61425
0!
#61505
1!
#61600
0!
#61895
1!
#62200
0!
#62280
1!
#62375
0!
#62670
1!
#62760
0!
#63055
1!
#63360
0!
#63445
1!
#63750
0!
#63830
1!
#64135
0!
#64220
1!
#64310
0!
#64605
1!
#64700
0!
#64995
1!
#65085
0!
#65380
1!
#65475
0!
#65770
1!
#65860
0!
#66155
1!
#66460
0!
#66545
1!
#66850
0!
#66930
1!
#67235
0!
#67320
1!
#67625
0!
#67705
1!
#68010
0!
#68095
1!
#68400
0!
#68480
1!
#68785
0!
#68870
1!
#69175
0!
#69255
1!
#69350
0!
#69645
1!
#69735
0!
#70030
1!
#70125
0!
#70420
1!
#70725
0!
#70805
1!
#70900
0!
#71195
1!
#71285
0!
#71580
1!
#71675
0!
#71970
1!
#72060
0!
#72355
1!
#72660
0!
#72740
1!
#73050
0!
#73130
1!
#73435
0!
#73515
1!
#73825
0!
#73905
1!
#74210
0!
#74290
1!
#74600
0!
#74680
1!
#74985
0!
#75065
1!
#75375
0!
#75455
1!
#75760
0!
#75840
1!
#75935
0!
#76230
1!
#76325
0!
#76615
1!
#76925
0!
#77005
1!
#77310
0!
#77390
1!
#77700
0!
#77780
1!
#78085
0!
#78165
1!
#78475
0!
#78555
1!
#78860
0!
#78940
1!
#79250
0!
#79330
1!
#79635
0!
#79715
1!
#80025
0!
#80105
1!
#80410
0!
#80490
1!
#80800
0!
#80880
1!
#81185
0!
#81265
1!
#81575
0!
#81655
1!
#81750
0!
#82040
1!
#82350
0!
#82430
1!
#82525
0!
#82815
1!
#83125
0!
#83205
1!
#83510
0!
#83590
1!
#83900
0!
#83980
1!
#84285
0!
#84365
1!
#84675
0!
#84755
1!
#85060
0!
#85140
1!
#85450
0!
#85530
1!
#85835
0!
#85915
1!
#86225
0!
#86305
1!
#86610
0!
#86690
1!
#87000
0!
#87080
1!
#87385
0!
#87465
1!
#87560
0!
#87855
1!
#88160
0!
#88240
1!
#88550
0!
#88630
1!
#88720
0!
#89015
1!
#89325
0!
#89405
1!
#89710
0!
#89790
1!
#90095
0!
#90180
1!
#90485
0!
#90565
1!
#90870
0!
#90955
1!
#91260
0!
#91340
1!
#91645
0!
#91730
1!
#92035
0!
#92115
1!
#92420
0!
#92505
1!
#92810
0!
#92890
1!
#93195
0!
#93280
1!
#93585
0!
#93665
1!
#93970
0!
#94055
1!
#94145
0!
#94440
1!
#94535
0!
#94830
1!
#95135
0!
#95215
1!
#95520
0!
#95605
1!
#95910
0!
#95990
1!
#96295
0!
#96380
1!
#96685
0!
#96765
1!
#97070
0!
#97155
1!
#97460
0!
#97540
1!
#97845
0!
#97930
1!
#98235
0!
#98315
1!
#98620
0!
#98705
1!
#99010
0!
#99090
1!
#99395
0!
#99480
1!
#99785
0!
#99865
1!
#100170
0!
#100255
1!
#100560
0!
#100640
1!
#100735
0!
#101030
1!
#101335
0!
#101415
1!
#101720
0!
#101805
1!
#102110
0!
#102190
1!
#102495
0!
#102580
1!
#102885
0!
#102965
1!
#103270
0!
#103355
1!
#103660
0!
#103740
1!
#104045
0!
#104130
1!
#104435
0!
#104515
1!
#104820
0!
#104905
1!
#104995
0!
#105290
1!
#105385
0!
#105680
1!
#105985
0!
#106065
1!
#106160
0!
#106455
1!
#106545
0!
#106840
1!
#107145
0!
#107230
1!
#107535
0!
#107615
1!
#107920
0!
#108005
1!
#108310
0!
#108390
1!
#108695
0!
#108780
1!
#109085
0!
#109165
1!
#109470
0!
#109555
1!
#109860
0!
#109940
1!
#110245
0!
#110330
1!
#110635
0!
#110715
1!
#111020
0!
#111105
1!
#111195
0!
#111490
1!
#111795
0!
#111880
1!
#111970
0!
#112265
1!
#112360
0!
#112655
1!
#112960
0!
#113040
1!
#113345
0!
#113430
1!
#113735
0!
#113815
1!
#114120
0!
#114205
1!
#114510
0!
#114590
1!
#114895
0!
#114980
1!
#115285
0!
#115365
1!
#115670
0!
#115755
1!
#116060
0!
#116140
1!
#116445
0!
#116530
1!
#116835
0!
#116915
1!
#117220
0!
#117305
1!
#118010
0!
#118090
1!
#118395
0!
#118480
1!
#118570
0!
#118865
1!
#118960
0!
#119250
1!
#119345
0!
#119640
1!
#119735
0!
#120025
1!
#120120
0!
#120415
1!
#120720
0!
#120800
1!
#121110
0!
#121190
1!
#121495
0!
#121575
1!
#121885
0!
#121965
1!
#122270
0!
#122350
1!
#122660
0!
#122740
1!
