logic_analyzer_vcd_dumps/09.00.0.vcd
$comment 
  OLS Java Client
$end
$date 
  May 12, 2014 10:07:48 PM
$end
$version 
  VCD exporter v1.1
$end
$timescale 
  10 ns
$end
$scope 
  module logic
$end
$var wire 1 ! Channel-0 $end
$var wire 1 " Channel-1 $end
$var wire 1 # Channel-2 $end
$var wire 1 $ Channel-3 $end
$var wire 1 % Channel-4 $end
$var wire 1 & Channel-5 $end
$var wire 1 ' Channel-6 $end
$var wire 1 ( Channel-7 $end
$upscope $end
$enddefinitions $end
$dumpvars
x!
x"
x#
x$
x%
x&
x'
x(
$end
#0
1!
0"
0#
0$
0%
0&
0'
0(
#135
0!
#220
1!
#525
0!
#605
1!
#910
0!
#995
1!
#1300
0!
#1380
1!
#1685
0!
#1770
1!
#2075
0!
#2155
1!
#2460
0!
#2545
1!
#2850
0!
#2930
1!
#3025
0!
#3320
1!
#3625
0!
#3705
1!
#3800
0!
#4095
1!
#4185
0!
#4480
1!
#4785
0!
#4870
1!
#5175
0!
#5255
1!
#5560
0!
#5645
1!
#5950
0!
#6030
1!
#6335
0!
#6420
1!
#6725
0!
#6805
1!
#7110
0!
#7195
1!
#7500
0!
#7580
1!
#7885
0!
#7970
1!
#8275
0!
#8355
1!
#8660
0!
#8745
1!
#9050
0!
#9130
1!
#9835
0!
#9920
1!
#10225
0!
#10305
1!
#10400
0!
#10695
1!
#10785
0!
#11080
1!
#11175
0!
#11470
1!
#11560
0!
#11855
1!
#11950
0!
#12245
1!
#12550
0!
#12630
1!
#12935
0!
#13020
1!
#13325
0!
#13405
1!
#13710
0!
#13795
1!
#14100
0!
#14180
1!
#14485
0!
#14570
1!
#14875
0!
#14955
1!
#15260
0!
#15345
1!
#15435
0!
#15730
1!
#15825
0!
#16120
1!
#16210
0!
#16505
1!
#16600
0!
#16895
1!
#17200
0!
#17280
1!
#17375
0!
#17670
1!
#17760
0!
#18055
1!
#18150
0!
#18445
1!
#18750
0!
#18830
1!
#19135
0!
#19220
1!
#19525
0!
#19605
1!
#19910
0!
#19995
1!
#20300
0!
#20380
1!
#20685
0!
#20770
1!
#21075
0!
#21155
1!
#21460
0!
#21545
1!
#21850
0!
#21930
1!
#22235
0!
#22320
1!
#22410
0!
#22705
1!
#22800
0!
#23095
1!
#23185
0!
#23480
1!
#23785
0!
#23870
1!
#23960
0!
#24255
1!
#24350
0!
#24645
1!
#24735
0!
#25030
1!
#25125
0!
#25420
1!
#25510
0!
#25805
1!
#25900
0!
#26195
1!
#26500
0!
#26580
1!
#26885
0!
#26970
1!
#27275
0!
#27355
1!
#27660
0!
#27740
1!
#28050
0!
#28130
1!
#28435
0!
#28515
1!
#28825
0!
#28905
1!
#29210
0!
#29290
1!
#29600
0!
#29680
1!
#29985
0!
#30065
1!
#30160
0!
#30455
1!
#30550
0!
#30840
1!
#30935
0!
#31230
1!
#31325
0!
#31615
1!
#31710
0!
#32005
1!
#32100
0!
#32390
1!
#32700
0!
#32780
1!
#33085
0!
#33165
1!
#33475
0!
#33555
1!
#33860
0!
#33940
1!
#34250
0!
#34330
1!
#34635
0!
#34715
1!
#35025
0!
#35105
1!
#35410
0!
#35490
1!
#35585
0!
#35880
1!
#35975
0!
#36265
1!
#36575
0!
#36655
1!
#36750
0!
#37040
1!
#37135
0!
#37430
1!
#37735
0!
#37815
1!
#37910
0!
#38205
1!
#38300
0!
#38590
1!
#38900
0!
#38980
1!
#39285
0!
#39365
1!
#39675
0!
#39755
1!
#40060
0!
#40140
1!
#40450
0!
#40530
1!
#40835
0!
#40915
1!
#41225
0!
#41305
1!
#41610
0!
#41690
1!
#42000
0!
#42080
1!
#42175
0!
#42465
1!
#42775
0!
#42855
1!
#42950
0!
#43240
1!
#43335
0!
#43630
1!
#43720
0!
#44015
1!
#44110
0!
#44405
1!
#44495
0!
#44790
1!
#45100
0!
#45180
1!
#45485
0!
#45565
1!
#45870
0!
#45955
1!
#46260
0!
#46340
1!
#46645
0!
#46730
1!
#47035
0!
#47115
1!
#47420
0!
#47505
1!
#47810
0!
#47890
1!
#47985
0!
#48280
1!
#48585
0!
#48665
1!
#48970
0!
#49055
1!
#49145
0!
#49440
1!
#49535
0!
#49830
1!
#49920
0!
#50215
1!
#50310
0!
#50605
1!
#50695
0!
#50990
1!
#51295
0!
#51380
1!
#51685
0!
#51765
1!
#52070
0!
#52155
1!
#52460
0!
#52540
1!
#52635
0!
#52930
1!
#53235
0!
#53315
1!
#53410
0!
#53705
1!
#53795
0!
#54090
1!
#54395
0!
#54480
1!
#54785
0!
#54865
1!
#55170
0!
#55255
1!
#55345
0!
#55640
1!
#55945
0!
#56030
1!
#56120
0!
#56415
1!
#56510
0!
#56805
1!
#57110
0!
#57190
1!
#57495
0!
#57580
1!
#57885
0!
#57965
1!
#58270
0!
#58355
1!
#58660
0!
#58740
1!
#59045
0!
#59130
1!
#59435
0!
#59515
1!
#59820
0!
#59905
1!
#60210
0!
#60290
1!
#60385
0!
#60680
1!
#60770
0!
#61065
1!
#61160
0!
#61455
1!
#61760
0!
#61840
1!
#61935
0!
#62230
1!
#62320
0!
#62615
1!
#62710
0!
#63005
1!
#63095
0!
#63390
1!
#63695
0!
#63780
1!
#64085
0!
#64165
1!
#64470
0!
#64555
1!
#64860
0!
#64940
1!
#65245
0!
#65330
1!
#65635
0!
#65715
1!
#66020
0!
#66105
1!
#66410
0!
#66490
1!
#66795
0!
#66880
1!
#66970
0!
#67265
1!
#67360
0!
#67655
1!
#67960
0!
#68040
1!
#68345
0!
#68430
1!
#68735
0!
#68815
1!
#69120
0!
#69205
1!
#69510
0!
#69590
1!
#69895
0!
#69980
1!
#70285
0!
#70365
1!
#70670
0!
#70755
1!
#71060
0!
#71140
1!
#71445
0!
#71530
1!
#71835
0!
#71915
1!
#72220
0!
#72305
1!
#72610
0!
#72690
1!
#72785
0!
#73080
1!
#73385
0!
#73465
1!
#73560
0!
#73850
1!
#74160
0!
#74240
1!
#74545
0!
#74625
1!
#74935
0!
#75015
1!
#75320
0!
#75400
1!
#75710
0!
#75790
1!
#76095
0!
#76175
1!
#76485
0!
#76565
1!
#76870
0!
#76950
1!
#77260
0!
#77340
1!
#77645
0!
#77725
1!
#78035
0!
#78115
1!
#78420
0!
#78500
1!
#78595
0!
#78890
1!
#79195
0!
#79275
1!
#79585
0!
#79665
1!
#79760
0!
#80050
1!
#80360
0!
#80440
1!
#80745
0!
#80825
1!
#81135
0!
#81215
1!
#81520
0!
#81600
1!
#81910
0!
#81990
1!
#82295
0!
#82375
1!
#82685
0!
#82765
1!
#83070
0!
#83150
1!
#83460
0!
#83540
1!
#83845
0!
#83925
1!
#84235
0!
#84315
1!
#84620
0!
#84700
1!
#85010
0!
#85090
1!
#85185
0!
#85475
1!
#85570
0!
#85865
1!
#86170
0!
#86250
1!
#86560
0!
#86640
1!
#86945
0!
#87025
1!
#87335
0!
#87415
1!
#87720
0!
#87800
1!
#88110
0!
#88190
1!
#88495
0!
#88575
1!
#88885
0!
#88965
1!
#89270
0!
#89350
1!
#89660
0!
#89740
1!
#90045
0!
#90125
1!
#90435
0!
#90515
1!
#90820
0!
#90900
1!
#91205
0!
#91290
1!
#91595
0!
#91675
1!
#91770
0!
#92065
1!
#92370
0!
#92450
1!
#92755
0!
#92840
1!
#93145
0!
#93225
1!
#93530
0!
#93615
1!
#93920
0!
#94000
1!
#94305
0!
#94390
1!
#94695
0!
#94775
1!
#95080
0!
#95165
1!
#95470
0!
#95550
1!
#95855
0!
#95940
1!
#96030
0!
#96325
1!
#96420
0!
#96715
1!
#97020
0!
#97100
1!
#97195
0!
#97490
1!
#97580
0!
#97875
1!
#98180
0!
#98265
1!
#98570
0!
#98650
1!
#98955
0!
#99040
1!
#99345
0!
#99425
1!
#99730
0!
#99815
1!
#100120
0!
#100200
1!
#100505
0!
#100590
1!
#100895
0!
#100975
1!
#101280
0!
#101365
1!
#101670
0!
#101750
1!
#102055
0!
#102140
1!
#102230
0!
#102525
1!
#102830
0!
#102915
1!
#103005
0!
#103300
1!
#103395
0!
#103690
1!
#103995
0!
#104075
1!
#104380
0!
#104465
1!
#104770
0!
#104850
1!
#105155
0!
#105240
1!
#105545
0!
#105625
1!
#105930
0!
#106015
1!
#106320
0!
#106400
1!
#106705
0!
#106790
1!
#107095
0!
#107175
1!
#107480
0!
#107565
1!
#107870
0!
#107950
1!
#108255
0!
#108340
1!
#109045
0!
#109125
1!
#109430
0!
#109515
1!
#109605
0!
#109900
1!
#109995
0!
#110290
1!
#110380
0!
#110675
1!
#110770
0!
#111065
1!
#111155
0!
#111450
1!
#111755
0!
#111840
1!
#112145
0!
#112225
1!
#112530
0!
#112615
1!
#112920
0!
#113000
1!
#113305
0!
#113390
1!
#113695
0!
#113775
1!
#114080
0!
#114165
1!
#114470
0!
#114550
1!
#114645
0!
#114940
1!
#115030
0!
#115325
1!
#115420
0!
#115715
1!
#115805
0!
#116100
1!
#116405
0!
#116490
1!
#116580
0!
#116875
1!
#116970
0!
#117265
1!
#117355
0!
#117650
1!
#117955
0!
#118040
1!
#118345
0!
#118425
1!
#118730
0!
#118815
1!
#119120
0!
#119200
1!
#119505
0!
#119590
1!
#119895
0!
#119975
1!
#120280
0!
#120360
1!
#120670
0!
#120750
1!
#121055
0!
#121135
1!
#121445
0!
#121525
1!
#121620
0!
#121910
1!
#122005
0!
#122300
1!
#122395
0!
#122685
1!
