logic_analyzer_vcd_dumps/19.00.0.vcd
$comment 
  OLS Java Client
$end
$date 
  May 12, 2014 10:13:08 PM
$end
$version 
  VCD exporter v1.1
$end
$timescale 
  10 ns
$end
$scope 
  module logic
$end
$var wire 1 ! Channel-0 $end
$var wire 1 " Channel-1 $end
$var wire 1 # Channel-2 $end
$var wire 1 $ Channel-3 $end
$var wire 1 % Channel-4 $end
$var wire 1 & Channel-5 $end
$var wire 1 ' Channel-6 $end
$var wire 1 ( Channel-7 $end
$upscope $end
$enddefinitions $end
$dumpvars
x!
x"
x#
x$
x%
x&
x'
x(
$end
#0
1!
0"
0#
0$
0%
0&
0'
0(
#15
0!
#310
1!
#400
0!
#695
1!
#1000
0!
#1085
1!
#1175
0!
#1470
1!
#1565
0!
#1860
1!
#2165
0!
#2245
1!
#2550
0!
#2635
1!
#2940
0!
#3020
1!
#3325
0!
#3410
1!
#3715
0!
#3795
1!
#4100
0!
#4185
1!
#4490
0!
#4570
1!
#4875
0!
#4960
1!
#5265
0!
#5345
1!
#5650
0!
#5735
1!
#6040
0!
#6120
1!
#6215
0!
#6505
1!
#6815
0!
#6895
1!
#6990
0!
#7280
1!
#7375
0!
#7670
1!
#7975
0!
#8055
1!
#8365
0!
#8445
1!
#8750
0!
#8830
1!
#9140
0!
#9220
1!
#9525
0!
#9605
1!
#9915
0!
#9995
1!
#10300
0!
#10380
1!
#10690
0!
#10770
1!
#11075
0!
#11155
1!
#11465
0!
#11545
1!
#11850
0!
#11930
1!
#12240
0!
#12320
1!
#13025
0!
#13105
1!
#13415
0!
#13495
1!
#13590
0!
#13880
1!
#13975
0!
#14270
1!
#14365
0!
#14655
1!
#14750
0!
#15045
1!
#15140
0!
#15430
1!
#15740
0!
#15820
1!
#16125
0!
#16205
1!
#16515
0!
#16595
1!
#16900
0!
#16980
1!
#17290
0!
#17370
1!
#17675
0!
#17755
1!
#18065
0!
#18145
1!
#18450
0!
#18530
1!
#18625
0!
#18920
1!
#19015
0!
#19305
1!
#19400
0!
#19695
1!
#19790
0!
#20080
1!
#20390
0!
#20470
1!
#20565
0!
#20855
1!
#20950
0!
#21245
1!
#21340
0!
#21630
1!
#21940
0!
#22020
1!
#22325
0!
#22405
1!
#22715
0!
#22795
1!
#23100
0!
#23180
1!
#23485
0!
#23570
1!
#23875
0!
#23955
1!
#24260
0!
#24345
1!
#24650
0!
#24730
1!
#25035
0!
#25120
1!
#25425
0!
#25505
1!
#25600
0!
#25895
1!
#25985
0!
#26280
1!
#26375
0!
#26670
1!
#26975
0!
#27055
1!
#27150
0!
#27445
1!
#27535
0!
#27830
1!
#27925
0!
#28220
1!
#28310
0!
#28605
1!
#28700
0!
#28995
1!
#29085
0!
#29380
1!
#29685
0!
#29770
1!
#30075
0!
#30155
1!
#30460
0!
#30545
1!
#30850
0!
#30930
1!
#31235
0!
#31320
1!
#31625
0!
#31705
1!
#32010
0!
#32095
1!
#32400
0!
#32480
1!
#32785
0!
#32870
1!
#33175
0!
#33255
1!
#33350
0!
#33645
1!
#33735
0!
#34030
1!
#34125
0!
#34420
1!
#34510
0!
#34805
1!
#34900
0!
#35195
1!
#35285
0!
#35580
1!
#35885
0!
#35970
1!
#36275
0!
#36355
1!
#36660
0!
#36745
1!
#37050
0!
#37130
1!
#37435
0!
#37520
1!
#37825
0!
#37905
1!
#38210
0!
#38295
1!
#38600
0!
#38680
1!
#38775
0!
#39070
1!
#39160
0!
#39455
1!
#39760
0!
#39845
1!
#39935
0!
#40230
1!
#40325
0!
#40620
1!
#40925
0!
#41005
1!
#41100
0!
#41395
1!
#41485
0!
#41780
1!
#42085
0!
#42170
1!
#42475
0!
#42555
1!
#42860
0!
#42945
1!
#43250
0!
#43330
1!
#43635
0!
#43720
1!
#44025
0!
#44105
1!
#44410
0!
#44495
1!
#44800
0!
#44880
1!
#45185
0!
#45270
1!
#45360
0!
#45655
1!
#45960
0!
#46045
1!
#46135
0!
#46430
1!
#46525
0!
#46820
1!
#46910
0!
#47205
1!
#47300
0!
#47595
1!
#47685
0!
#47980
1!
#48285
0!
#48370
1!
#48675
0!
#48755
1!
#49060
0!
#49145
1!
#49450
0!
#49530
1!
#49835
0!
#49920
1!
#50225
0!
#50305
1!
#50610
0!
#50695
1!
#51000
0!
#51080
1!
#51175
0!
#51470
1!
#51775
0!
#51855
1!
#52160
0!
#52245
1!
#52335
0!
#52630
1!
#52725
0!
#53015
1!
#53110
0!
#53405
1!
#53500
0!
#53790
1!
#53885
0!
#54180
1!
#54485
0!
#54565
1!
#54875
0!
#54955
1!
#55260
0!
#55340
1!
#55650
0!
#55730
1!
#55825
0!
#56115
1!
#56425
0!
#56505
1!
#56600
0!
#56890
1!
#56985
0!
#57280
1!
#57585
0!
#57665
1!
#57975
0!
#58055
1!
#58360
0!
#58440
1!
#58535
0!
#58830
1!
#59135
0!
#59215
1!
#59310
0!
#59605
1!
#59700
0!
#59990
1!
#60300
0!
#60380
1!
#60685
0!
#60765
1!
#61075
0!
#61155
1!
#61460
0!
#61540
1!
#61850
0!
#61930
1!
#62235
0!
#62315
1!
#62625
0!
#62705
1!
#63010
0!
#63090
1!
#63400
0!
#63480
1!
#63575
0!
#63865
1!
#63960
0!
#64255
1!
#64350
0!
#64640
1!
#64950
0!
#65030
1!
#65335
0!
#65415
1!
#65510
0!
#65805
1!
#65900
0!
#66190
1!
#66285
0!
#66580
1!
#66885
0!
#66965
1!
#67275
0!
#67355
1!
#67660
0!
#67740
1!
#68050
0!
#68130
1!
#68435
0!
#68515
1!
#68825
0!
#68905
1!
#69210
0!
#69290
1!
#69595
0!
#69680
1!
#69985
0!
#70065
1!
#70160
0!
#70455
1!
#70545
0!
#70840
1!
#71145
0!
#71230
1!
#71535
0!
#71615
1!
#71920
0!
#72005
1!
#72310
0!
#72390
1!
#72695
0!
#72780
1!
#73085
0!
#73165
1!
#73470
0!
#73555
1!
#73860
0!
#73940
1!
#74245
0!
#74330
1!
#74635
0!
#74715
1!
#75020
0!
#75105
1!
#75410
0!
#75490
1!
#75795
0!
#75880
1!
#75970
0!
#76265
1!
#76570
0!
#76655
1!
#76745
0!
#77040
1!
#77345
0!
#77430
1!
#77735
0!
#77815
1!
#78120
0!
#78205
1!
#78510
0!
#78590
1!
#78895
0!
#78980
1!
#79285
0!
#79365
1!
#79670
0!
#79755
1!
#80060
0!
#80140
1!
#80445
0!
#80530
1!
#80835
0!
#80915
1!
#81220
0!
#81305
1!
#81610
0!
#81690
1!
#81785
0!
#82080
1!
#82385
0!
#82465
1!
#82770
0!
#82855
1!
#82945
0!
#83240
1!
#83545
0!
#83630
1!
#83935
0!
#84015
1!
#84320
0!
#84405
1!
#84710
0!
#84790
1!
#85095
0!
#85180
1!
#85485
0!
#85565
1!
#85870
0!
#85955
1!
#86260
0!
#86340
1!
#86645
0!
#86730
1!
#87035
0!
#87115
1!
#87420
0!
#87505
1!
#87810
0!
#87890
1!
#88195
0!
#88280
1!
#88370
0!
#88665
1!
#88760
0!
#89055
1!
#89360
0!
#89440
1!
#89745
0!
#89830
1!
#90135
0!
#90215
1!
#90520
0!
#90605
1!
#90910
0!
#90990
1!
#91295
0!
#91380
1!
#91685
0!
#91765
1!
#92070
0!
#92155
1!
#92460
0!
#92540
1!
#92845
0!
#92930
1!
#93235
0!
#93315
1!
#93620
0!
#93705
1!
#94010
0!
#94090
1!
#94395
0!
#94480
1!
#94785
0!
#94865
1!
#94960
0!
#95255
1!
#95560
0!
#95640
1!
#95945
0!
#96030
1!
#96335
0!
#96415
1!
#96720
0!
#96805
1!
#97110
0!
#97190
1!
#97495
0!
#97580
1!
#97885
0!
#97965
1!
#98270
0!
#98355
1!
#98660
0!
#98740
1!
#99045
0!
#99125
1!
#99220
0!
#99515
1!
#99610
0!
#99900
1!
#100210
0!
#100290
1!
#100385
0!
#100675
1!
#100770
0!
#101065
1!
#101370
0!
#101450
1!
#101760
0!
#101840
1!
#102145
0!
#102225
1!
#102535
0!
#102615
1!
#102920
0!
#103000
1!
#103310
0!
#103390
1!
#103695
0!
#103775
1!
#104085
0!
#104165
1!
#104470
0!
#104550
1!
#104860
0!
#104940
1!
#105245
0!
#105325
1!
#105420
0!
#105715
1!
#106020
0!
#106100
1!
#106195
0!
#106490
1!
#106585
0!
#106875
1!
#107185
0!
#107265
1!
#107570
0!
#107650
1!
#107960
0!
#108040
1!
#108345
0!
#108425
1!
#108735
0!
#108815
1!
#109120
0!
#109200
1!
#109510
0!
#109590
1!
#109895
0!
#109975
1!
#110285
0!
#110365
1!
#110670
0!
#110750
1!
#111060
0!
#111140
1!
#111445
0!
#111525
1!
#112235
0!
#112315
1!
#112620
0!
#112700
1!
#112795
0!
#113090
1!
#113180
0!
#113475
1!
#113570
0!
#113865
1!
#113955
0!
#114250
1!
#114345
0!
#114640
1!
#114945
0!
#115025
1!
#115330
0!
#115415
1!
#115720
0!
#115800
1!
#116105
0!
#116190
1!
#116495
0!
#116575
1!
#116880
0!
#116965
1!
#117270
0!
#117350
1!
#117655
0!
#117740
1!
#117830
0!
#118125
1!
#118220
0!
#118515
1!
#118605
0!
#118900
1!
#118995
0!
#119290
1!
#119595
0!
#119675
1!
#119770
0!
#120065
1!
#120155
0!
#120450
1!
#120545
0!
#120840
1!
#121145
0!
#121225
1!
#121530
0!
#121615
1!
#121920
0!
#122000
1!
#122305
0!
#122390
1!
#122695
0!
#122775
1!
