logic_analyzer_vcd_dumps/29.00.0.vcd
$comment 
  OLS Java Client
$end
$date 
  May 12, 2014 10:15:48 PM
$end
$version 
  VCD exporter v1.1
$end
$timescale 
  10 ns
$end
$scope 
  module logic
$end
$var wire 1 ! Channel-0 $end
$var wire 1 " Channel-1 $end
$var wire 1 # Channel-2 $end
$var wire 1 $ Channel-3 $end
$var wire 1 % Channel-4 $end
$var wire 1 & Channel-5 $end
$var wire 1 ' Channel-6 $end
$var wire 1 ( Channel-7 $end
$upscope $end
$enddefinitions $end
$dumpvars
x!
x"
x#
x$
x%
x&
x'
x(
$end
#0
1!
0"
0#
0$
0%
0&
0'
0(
#60
0!
#140
1!
#450
0!
#530
1!
#625
0!
#915
1!
#1225
0!
#1305
1!
#1400
0!
#1690
1!
#1785
0!
#2080
1!
#2385
0!
#2465
1!
#2775
0!
#2855
1!
#3160
0!
#3240
1!
#3550
0!
#3630
1!
#3935
0!
#4015
1!
#4325
0!
#4405
1!
#4710
0!
#4790
1!
#5100
0!
#5180
1!
#5485
0!
#5565
1!
#5875
0!
#5955
1!
#6260
0!
#6340
1!
#6650
0!
#6730
1!
#7435
0!
#7515
1!
#7825
0!
#7905
1!
#8000
0!
#8290
1!
#8385
0!
#8680
1!
#8775
0!
#9065
1!
#9160
0!
#9455
1!
#9550
0!
#9840
1!
#10150
0!
#10230
1!
#10535
0!
#10615
1!
#10925
0!
#11005
1!
#11310
0!
#11390
1!
#11700
0!
#11780
1!
#12085
0!
#12165
1!
#12475
0!
#12555
1!
#12860
0!
#12940
1!
#13035
0!
#13330
1!
#13420
0!
#13715
1!
#13810
0!
#14105
1!
#14195
0!
#14490
1!
#14795
0!
#14880
1!
#14970
0!
#15265
1!
#15360
0!
#15655
1!
#15745
0!
#16040
1!
#16345
0!
#16430
1!
#16735
0!
#16815
1!
#17120
0!
#17205
1!
#17510
0!
#17590
1!
#17895
0!
#17980
1!
#18285
0!
#18365
1!
#18670
0!
#18755
1!
#19060
0!
#19140
1!
#19445
0!
#19530
1!
#19835
0!
#19915
1!
#20010
0!
#20305
1!
#20395
0!
#20690
1!
#20785
0!
#21080
1!
#21385
0!
#21465
1!
#21560
0!
#21855
1!
#21945
0!
#22240
1!
#22335
0!
#22630
1!
#22720
0!
#23015
1!
#23110
0!
#23405
1!
#23495
0!
#23790
1!
#24095
0!
#24180
1!
#24485
0!
#24565
1!
#24870
0!
#24955
1!
#25260
0!
#25340
1!
#25645
0!
#25730
1!
#26035
0!
#26115
1!
#26420
0!
#26505
1!
#26810
0!
#26890
1!
#27195
0!
#27280
1!
#27585
0!
#27665
1!
#27760
0!
#28055
1!
#28145
0!
#28440
1!
#28535
0!
#28830
1!
#28920
0!
#29215
1!
#29310
0!
#29605
1!
#29695
0!
#29990
1!
#30295
0!
#30380
1!
#30685
0!
#30765
1!
#31070
0!
#31155
1!
#31460
0!
#31540
1!
#31845
0!
#31930
1!
#32235
0!
#32315
1!
#32620
0!
#32705
1!
#33010
0!
#33090
1!
#33185
0!
#33480
1!
#33570
0!
#33865
1!
#34170
0!
#34255
1!
#34345
0!
#34640
1!
#34735
0!
#35030
1!
#35335
0!
#35415
1!
#35510
0!
#35805
1!
#35895
0!
#36190
1!
#36495
0!
#36580
1!
#36885
0!
#36965
1!
#37270
0!
#37355
1!
#37660
0!
#37740
1!
#38045
0!
#38130
1!
#38435
0!
#38515
1!
#38820
0!
#38905
1!
#39210
0!
#39290
1!
#39595
0!
#39680
1!
#39770
0!
#40065
1!
#40370
0!
#40455
1!
#40545
0!
#40840
1!
#40935
0!
#41230
1!
#41320
0!
#41615
1!
#41710
0!
#42005
1!
#42095
0!
#42390
1!
#42695
0!
#42780
1!
#43085
0!
#43165
1!
#43470
0!
#43550
1!
#43860
0!
#43940
1!
#44245
0!
#44325
1!
#44635
0!
#44715
1!
#45020
0!
#45100
1!
#45410
0!
#45490
1!
#45585
0!
#45875
1!
#46185
0!
#46265
1!
#46570
0!
#46650
1!
#46745
0!
#47040
1!
#47135
0!
#47425
1!
#47520
0!
#47815
1!
#47910
0!
#48200
1!
#48295
0!
#48590
1!
#48895
0!
#48975
1!
#49285
0!
#49365
1!
#49670
0!
#49750
1!
#50060
0!
#50140
1!
#50235
0!
#50525
1!
#50835
0!
#50915
1!
#51010
0!
#51300
1!
#51395
0!
#51690
1!
#51995
0!
#52075
1!
#52385
0!
#52465
1!
#52770
0!
#52850
1!
#52945
0!
#53240
1!
#53545
0!
#53625
1!
#53720
0!
#54015
1!
#54110
0!
#54400
1!
#54710
0!
#54790
1!
#55095
0!
#55175
1!
#55485
0!
#55565
1!
#55870
0!
#55950
1!
#56260
0!
#56340
1!
#56645
0!
#56725
1!
#57035
0!
#57115
1!
#57420
0!
#57500
1!
#57810
0!
#57890
1!
#57985
0!
#58275
1!
#58370
0!
#58665
1!
#58760
0!
#59050
1!
#59360
0!
#59440
1!
#59535
0!
#59825
1!
#60130
0!
#60215
1!
#60305
0!
#60600
1!
#60695
0!
#60990
1!
#61295
0!
#61375
1!
#61680
0!
#61765
1!
#62070
0!
#62150
1!
#62455
0!
#62540
1!
#62845
0!
#62925
1!
#63230
0!
#63315
1!
#63620
0!
#63700
1!
#64005
0!
#64090
1!
#64395
0!
#64475
1!
#64570
0!
#64865
1!
#64955
0!
#65250
1!
#65555
0!
#65640
1!
#65945
0!
#66025
1!
#66330
0!
#66415
1!
#66720
0!
#66800
1!
#67105
0!
#67190
1!
#67495
0!
#67575
1!
#67880
0!
#67965
1!
#68270
0!
#68350
1!
#68655
0!
#68740
1!
#69045
0!
#69125
1!
#69430
0!
#69515
1!
#69820
0!
#69900
1!
#70205
0!
#70290
1!
#70380
0!
#70675
1!
#70980
0!
#71065
1!
#71155
0!
#71450
1!
#71755
0!
#71840
1!
#72145
0!
#72225
1!
#72530
0!
#72615
1!
#72920
0!
#73000
1!
#73305
0!
#73390
1!
#73695
0!
#73775
1!
#74080
0!
#74165
1!
#74470
0!
#74550
1!
#74855
0!
#74940
1!
#75245
0!
#75325
1!
#75630
0!
#75715
1!
#76020
0!
#76100
1!
#76195
0!
#76490
1!
#76795
0!
#76875
1!
#77180
0!
#77265
1!
#77355
0!
#77650
1!
#77955
0!
#78040
1!
#78345
0!
#78425
1!
#78730
0!
#78815
1!
#79120
0!
#79200
1!
#79505
0!
#79590
1!
#79895
0!
#79975
1!
#80280
0!
#80365
1!
#80670
0!
#80750
1!
#81055
0!
#81140
1!
#81445
0!
#81525
1!
#81830
0!
#81915
1!
#82220
0!
#82300
1!
#82605
0!
#82690
1!
#82780
0!
#83075
1!
#83170
0!
#83465
1!
#83770
0!
#83850
1!
#84155
0!
#84240
1!
#84545
0!
#84625
1!
#84930
0!
#85015
1!
#85320
0!
#85400
1!
#85705
0!
#85790
1!
#86095
0!
#86175
1!
#86480
0!
#86565
1!
#86870
0!
#86950
1!
#87255
0!
#87340
1!
#87645
0!
#87725
1!
#88030
0!
#88115
1!
#88420
0!
#88500
1!
#88805
0!
#88890
1!
#89195
0!
#89275
1!
#89370
0!
#89660
1!
#89970
0!
#90050
1!
#90355
0!
#90435
1!
#90745
0!
#90825
1!
#91130
0!
#91210
1!
#91520
0!
#91600
1!
#91905
0!
#91985
1!
#92295
0!
#92375
1!
#92680
0!
#92760
1!
#93070
0!
#93150
1!
#93455
0!
#93535
1!
#93630
0!
#93925
1!
#94020
0!
#94310
1!
#94620
0!
#94700
1!
#94795
0!
#95085
1!
#95180
0!
#95475
1!
#95780
0!
#95860
1!
#96170
0!
#96250
1!
#96555
0!
#96635
1!
#96945
0!
#97025
1!
#97330
0!
#97410
1!
#97720
0!
#97800
1!
#98105
0!
#98185
1!
#98495
0!
#98575
1!
#98880
0!
#98960
1!
#99270
0!
#99350
1!
#99655
0!
#99735
1!
#99830
0!
#100125
1!
#100430
0!
#100510
1!
#100605
0!
#100900
1!
#100995
0!
#101285
1!
#101595
0!
#101675
1!
#101980
0!
#102060
1!
#102370
0!
#102450
1!
#102755
0!
#102835
1!
#103145
0!
#103225
1!
#103530
0!
#103610
1!
#103920
0!
#104000
1!
#104305
0!
#104385
1!
#104695
0!
#104775
1!
#105080
0!
#105160
1!
#105470
0!
#105550
1!
#105855
0!
#105935
1!
#106640
0!
#106725
1!
#107030
0!
#107110
1!
#107205
0!
#107500
1!
#107590
0!
#107885
1!
#107980
0!
#108275
1!
#108365
0!
#108660
1!
#108755
0!
#109050
1!
#109355
0!
#109435
1!
#109740
0!
#109825
1!
#110130
0!
#110210
1!
#110515
0!
#110600
1!
#110905
0!
#110985
1!
#111290
0!
#111375
1!
#111680
0!
#111760
1!
#112065
0!
#112150
1!
#112240
0!
#112535
1!
#112630
0!
#112925
1!
#113015
0!
#113310
1!
#113405
0!
#113700
1!
#114005
0!
#114085
1!
#114180
0!
#114475
1!
#114565
0!
#114860
1!
#114955
0!
#115250
1!
#115555
0!
#115635
1!
#115940
0!
#116025
1!
#116330
0!
#116410
1!
#116715
0!
#116800
1!
#117105
0!
#117185
1!
#117490
0!
#117575
1!
#117880
0!
#117960
1!
#118265
0!
#118350
1!
#118655
0!
#118735
1!
#119040
0!
#119125
1!
#119215
0!
#119510
1!
#119605
0!
#119900
1!
#119990
0!
#120285
1!
#120590
0!
#120675
1!
#120765
0!
#121060
1!
#121155
0!
#121450
1!
#121540
0!
#121835
1!
#121930
0!
#122225
1!
#122315
0!
#122610
1!
#122705
0!
