logic_analyzer_vcd_dumps/39.00.0.vcd
$comment 
  OLS Java Client
$end
$date 
  May 12, 2014 10:17:11 PM
$end
$version 
  VCD exporter v1.1
$end
$timescale 
  10 ns
$end
$scope 
  module logic
$end
$var wire 1 ! Channel-0 $end
$var wire 1 " Channel-1 $end
$var wire 1 # Channel-2 $end
$var wire 1 $ Channel-3 $end
$var wire 1 % Channel-4 $end
$var wire 1 & Channel-5 $end
$var wire 1 ' Channel-6 $end
$var wire 1 ( Channel-7 $end
$upscope $end
$enddefinitions $end
$dumpvars
x!
x"
x#
x$
x%
x&
x'
x(
$end
#0
1!
0"
0#
0$
0%
0&
0'
0(
#5
0!
#90
1!
#395
0!
#475
1!
#780
0!
#860
1!
#955
0!
#1250
1!
#1555
0!
#1635
1!
#1945
0!
#2025
1!
#2330
0!
#2410
1!
#2720
0!
#2800
1!
#3105
0!
#3185
1!
#3495
0!
#3575
1!
#3880
0!
#3960
1!
#4270
0!
#4350
1!
#4655
0!
#4735
1!
#5045
0!
#5125
1!
#5220
0!
#5510
1!
#5605
0!
#5900
1!
#6205
0!
#6285
1!
#6380
0!
#6675
1!
#6770
0!
#7060
1!
#7370
0!
#7450
1!
#7755
0!
#7835
1!
#8145
0!
#8225
1!
#8530
0!
#8610
1!
#8920
0!
#9000
1!
#9305
0!
#9385
1!
#9695
0!
#9775
1!
#10080
0!
#10160
1!
#10470
0!
#10550
1!
#10855
0!
#10935
1!
#11245
0!
#11325
1!
#11420
0!
#11710
1!
#12020
0!
#12100
1!
#12195
0!
#12485
1!
#12580
0!
#12875
1!
#13180
0!
#13260
1!
#13570
0!
#13650
1!
#13955
0!
#14035
1!
#14345
0!
#14425
1!
#14730
0!
#14810
1!
#15120
0!
#15200
1!
#15505
0!
#15585
1!
#15895
0!
#15975
1!
#16280
0!
#16360
1!
#16670
0!
#16750
1!
#17055
0!
#17135
1!
#17440
0!
#17525
1!
#18230
0!
#18310
1!
#18615
0!
#18700
1!
#18790
0!
#19085
1!
#19180
0!
#19475
1!
#19565
0!
#19860
1!
#19955
0!
#20250
1!
#20340
0!
#20635
1!
#20940
0!
#21025
1!
#21330
0!
#21410
1!
#21715
0!
#21800
1!
#22105
0!
#22185
1!
#22490
0!
#22575
1!
#22880
0!
#22960
1!
#23265
0!
#23350
1!
#23655
0!
#23735
1!
#23830
0!
#24125
1!
#24215
0!
#24510
1!
#24605
0!
#24900
1!
#24990
0!
#25285
1!
#25590
0!
#25675
1!
#25765
0!
#26060
1!
#26155
0!
#26450
1!
#26540
0!
#26835
1!
#27140
0!
#27225
1!
#27530
0!
#27610
1!
#27915
0!
#28000
1!
#28305
0!
#28385
1!
#28690
0!
#28775
1!
#29080
0!
#29160
1!
#29465
0!
#29550
1!
#29855
0!
#29935
1!
#30240
0!
#30325
1!
#30630
0!
#30710
1!
#30805
0!
#31100
1!
#31190
0!
#31485
1!
#31580
0!
#31875
1!
#32180
0!
#32260
1!
#32355
0!
#32650
1!
#32740
0!
#33035
1!
#33130
0!
#33425
1!
#33515
0!
#33810
1!
#33905
0!
#34200
1!
#34290
0!
#34585
1!
#34890
0!
#34975
1!
#35280
0!
#35360
1!
#35665
0!
#35750
1!
#36055
0!
#36135
1!
#36440
0!
#36525
1!
#36830
0!
#36910
1!
#37215
0!
#37300
1!
#37605
0!
#37685
1!
#37990
0!
#38075
1!
#38380
0!
#38460
1!
#38555
0!
#38850
1!
#38940
0!
#39235
1!
#39330
0!
#39625
1!
#39715
0!
#40010
1!
#40105
0!
#40400
1!
#40490
0!
#40785
1!
#41090
0!
#41175
1!
#41480
0!
#41560
1!
#41865
0!
#41950
1!
#42255
0!
#42335
1!
#42640
0!
#42725
1!
#43030
0!
#43110
1!
#43415
0!
#43500
1!
#43805
0!
#43885
1!
#43980
0!
#44275
1!
#44365
0!
#44660
1!
#44965
0!
#45050
1!
#45140
0!
#45435
1!
#45530
0!
#45825
1!
#46130
0!
#46210
1!
#46305
0!
#46595
1!
#46690
0!
#46985
1!
#47290
0!
#47370
1!
#47680
0!
#47760
1!
#48065
0!
#48145
1!
#48455
0!
#48535
1!
#48840
0!
#48920
1!
#49230
0!
#49310
1!
#49615
0!
#49695
1!
#50005
0!
#50085
1!
#50390
0!
#50470
1!
#50565
0!
#50860
1!
#51165
0!
#51245
1!
#51340
0!
#51635
1!
#51730
0!
#52020
1!
#52115
0!
#52410
1!
#52505
0!
#52795
1!
#52890
0!
#53185
1!
#53490
0!
#53570
1!
#53880
0!
#53960
1!
#54265
0!
#54345
1!
#54655
0!
#54735
1!
#55040
0!
#55120
1!
#55430
0!
#55510
1!
#55815
0!
#55895
1!
#56205
0!
#56285
1!
#56380
0!
#56670
1!
#56980
0!
#57060
1!
#57365
0!
#57445
1!
#57540
0!
#57835
1!
#57930
0!
#58220
1!
#58315
0!
#58610
1!
#58705
0!
#58995
1!
#59090
0!
#59385
1!
#59690
0!
#59770
1!
#60080
0!
#60160
1!
#60465
0!
#60545
1!
#60855
0!
#60935
1!
#61030
0!
#61320
1!
#61630
0!
#61710
1!
#61805
0!
#62095
1!
#62190
0!
#62485
1!
#62790
0!
#62870
1!
#63175
0!
#63260
1!
#63565
0!
#63645
1!
#63740
0!
#64035
1!
#64340
0!
#64420
1!
#64515
0!
#64810
1!
#64900
0!
#65195
1!
#65500
0!
#65585
1!
#65890
0!
#65970
1!
#66275
0!
#66360
1!
#66665
0!
#66745
1!
#67050
0!
#67135
1!
#67440
0!
#67520
1!
#67825
0!
#67910
1!
#68215
0!
#68295
1!
#68600
0!
#68685
1!
#68775
0!
#69070
1!
#69165
0!
#69460
1!
#69550
0!
#69845
1!
#70150
0!
#70235
1!
#70540
0!
#70620
1!
#70925
0!
#71010
1!
#71100
0!
#71395
1!
#71490
0!
#71785
1!
#72090
0!
#72170
1!
#72475
0!
#72560
1!
#72865
0!
#72945
1!
#73250
0!
#73335
1!
#73640
0!
#73720
1!
#74025
0!
#74110
1!
#74415
0!
#74495
1!
#74800
0!
#74885
1!
#75190
0!
#75270
1!
#75365
0!
#75660
1!
#75750
0!
#76045
1!
#76350
0!
#76435
1!
#76740
0!
#76820
1!
#77125
0!
#77210
1!
#77515
0!
#77595
1!
#77900
0!
#77985
1!
#78290
0!
#78370
1!
#78675
0!
#78760
1!
#79065
0!
#79145
1!
#79450
0!
#79535
1!
#79840
0!
#79920
1!
#80225
0!
#80310
1!
#80615
0!
#80695
1!
#81000
0!
#81085
1!
#81175
0!
#81470
1!
#81775
0!
#81860
1!
#81950
0!
#82245
1!
#82550
0!
#82635
1!
#82940
0!
#83020
1!
#83325
0!
#83410
1!
#83715
0!
#83795
1!
#84100
0!
#84185
1!
#84490
0!
#84570
1!
#84875
0!
#84960
1!
#85265
0!
#85345
1!
#85650
0!
#85735
1!
#86040
0!
#86120
1!
#86425
0!
#86510
1!
#86815
0!
#86895
1!
#86990
0!
#87285
1!
#87590
0!
#87670
1!
#87975
0!
#88060
1!
#88150
0!
#88445
1!
#88750
0!
#88835
1!
#89140
0!
#89220
1!
#89525
0!
#89610
1!
#89915
0!
#89995
1!
#90300
0!
#90385
1!
#90690
0!
#90770
1!
#91075
0!
#91160
1!
#91465
0!
#91545
1!
#91850
0!
#91930
1!
#92240
0!
#92320
1!
#92625
0!
#92705
1!
#93015
0!
#93095
1!
#93400
0!
#93480
1!
#93575
0!
#93870
1!
#93965
0!
#94255
1!
#94565
0!
#94645
1!
#94950
0!
#95030
1!
#95340
0!
#95420
1!
#95725
0!
#95805
1!
#96115
0!
#96195
1!
#96500
0!
#96580
1!
#96890
0!
#96970
1!
#97275
0!
#97355
1!
#97665
0!
#97745
1!
#98050
0!
#98130
1!
#98440
0!
#98520
1!
#98825
0!
#98905
1!
#99215
0!
#99295
1!
#99600
0!
#99680
1!
#99990
0!
#100070
1!
#100165
0!
#100455
1!
#100765
0!
#100845
1!
#101150
0!
#101230
1!
#101540
0!
#101620
1!
#101925
0!
#102005
1!
#102315
0!
#102395
1!
#102700
0!
#102780
1!
#103090
0!
#103170
1!
#103475
0!
#103555
1!
#103865
0!
#103945
1!
#104250
0!
#104330
1!
#104425
0!
#104720
1!
#104815
0!
#105105
1!
#105415
0!
#105495
1!
#105590
0!
#105880
1!
#105975
0!
#106270
1!
#106575
0!
#106655
1!
#106965
0!
#107045
1!
#107350
0!
#107430
1!
#107740
0!
#107820
1!
#108125
0!
#108205
1!
#108515
0!
#108595
1!
#108900
0!
#108980
1!
#109285
0!
#109370
1!
#109675
0!
#109755
1!
#110060
0!
#110145
1!
#110450
0!
#110530
1!
#110625
0!
#110920
1!
#111225
0!
#111305
1!
#111400
0!
#111695
1!
#111785
0!
#112080
1!
#112385
0!
#112470
1!
#112775
0!
#112855
1!
#113160
0!
#113245
1!
#113550
0!
#113630
1!
#113935
0!
#114020
1!
#114325
0!
#114405
1!
#114710
0!
#114795
1!
#115100
0!
#115180
1!
#115485
0!
#115570
1!
#115875
0!
#115955
1!
#116260
0!
#116345
1!
#116650
0!
#116730
1!
#117435
0!
#117520
1!
#117825
0!
#117905
1!
#118000
0!
#118295
1!
#118385
0!
#118680
1!
#118775
0!
#119070
1!
#119160
0!
#119455
1!
#119550
0!
#119845
1!
#120150
0!
#120230
1!
#120535
0!
#120620
1!
#120925
0!
#121005
1!
#121310
0!
#121395
1!
#121700
0!
#121780
1!
#122085
0!
#122170
1!
#122475
0!
#122555
1!
#122860
0!
