logic_analyzer_vcd_dumps/99.00.0.vcd
$comment 
  OLS Java Client
$end
$date 
  May 12, 2014 10:10:34 PM
$end
$version 
  VCD exporter v1.1
$end
$timescale 
  10 ns
$end
$scope 
  module logic
$end
$var wire 1 ! Channel-0 $end
$var wire 1 " Channel-1 $end
$var wire 1 # Channel-2 $end
$var wire 1 $ Channel-3 $end
$var wire 1 % Channel-4 $end
$var wire 1 & Channel-5 $end
$var wire 1 ' Channel-6 $end
$var wire 1 ( Channel-7 $end
$upscope $end
$enddefinitions $end
$dumpvars
x!
x"
x#
x$
x%
x&
x'
x(
$end
#0
0!
0"
0#
0$
0%
0&
0'
0(
#5
1!
#310
0!
#390
1!
#695
0!
#780
1!
#1085
0!
#1165
1!
#1470
0!
#1555
1!
#1860
0!
#1940
1!
#2245
0!
#2330
1!
#2635
0!
#2715
1!
#3020
0!
#3105
1!
#3410
0!
#3490
1!
#3795
0!
#3880
1!
#4185
0!
#4265
1!
#4970
0!
#5055
1!
#5360
0!
#5440
1!
#5535
0!
#5830
1!
#5920
0!
#6215
1!
#6310
0!
#6605
1!
#6695
0!
#6990
1!
#7085
0!
#7380
1!
#7685
0!
#7765
1!
#8070
0!
#8155
1!
#8460
0!
#8540
1!
#8845
0!
#8930
1!
#9235
0!
#9315
1!
#9620
0!
#9705
1!
#10010
0!
#10090
1!
#10395
0!
#10480
1!
#10570
0!
#10865
1!
#10960
0!
#11255
1!
#11345
0!
#11640
1!
#11735
0!
#12030
1!
#12335
0!
#12415
1!
#12510
0!
#12805
1!
#12895
0!
#13190
1!
#13285
0!
#13580
1!
#13885
0!
#13965
1!
#14270
0!
#14355
1!
#14660
0!
#14740
1!
#15045
0!
#15130
1!
#15435
0!
#15515
1!
#15820
0!
#15905
1!
#16210
0!
#16290
1!
#16595
0!
#16680
1!
#16985
0!
#17065
1!
#17370
0!
#17455
1!
#17545
0!
#17840
1!
#18145
0!
#18230
1!
#18320
0!
#18615
1!
#18920
0!
#19005
1!
#19095
0!
#19390
1!
#19485
0!
#19780
1!
#19870
0!
#20165
1!
#20260
0!
#20555
1!
#20645
0!
#20940
1!
#21035
0!
#21330
1!
#21635
0!
#21715
1!
#22020
0!
#22105
1!
#22410
0!
#22490
1!
#22795
0!
#22880
1!
#23185
0!
#23265
1!
#23570
0!
#23655
1!
#23960
0!
#24040
1!
#24345
0!
#24430
1!
#24735
0!
#24815
1!
#25120
0!
#25200
1!
#25295
0!
#25590
1!
#25685
0!
#25975
1!
#26070
0!
#26365
1!
#26460
0!
#26750
1!
#26845
0!
#27140
1!
#27235
0!
#27525
1!
#27835
0!
#27915
1!
#28220
0!
#28300
1!
#28610
0!
#28690
1!
#28995
0!
#29075
1!
#29385
0!
#29465
1!
#29770
0!
#29850
1!
#30160
0!
#30240
1!
#30545
0!
#30625
1!
#30720
0!
#31015
1!
#31110
0!
#31400
1!
#31710
0!
#31790
1!
#31885
0!
#32175
1!
#32270
0!
#32565
1!
#32870
0!
#32950
1!
#33045
0!
#33340
1!
#33435
0!
#33725
1!
#34035
0!
#34115
1!
#34420
0!
#34500
1!
#34810
0!
#34890
1!
#35195
0!
#35275
1!
#35585
0!
#35665
1!
#35970
0!
#36050
1!
#36360
0!
#36440
1!
#36745
0!
#36825
1!
#37135
0!
#37215
1!
#37310
0!
#37600
1!
#37910
0!
#37990
1!
#38085
0!
#38375
1!
#38470
0!
#38765
1!
#38860
0!
#39150
1!
#39245
0!
#39540
1!
#39635
0!
#39925
1!
#40235
0!
#40315
1!
#40620
0!
#40700
1!
#41010
0!
#41090
1!
#41395
0!
#41475
1!
#41785
0!
#41865
1!
#42170
0!
#42250
1!
#42555
0!
#42640
1!
#42945
0!
#43025
1!
#43120
0!
#43415
1!
#43720
0!
#43800
1!
#44105
0!
#44190
1!
#44280
0!
#44575
1!
#44670
0!
#44965
1!
#45055
0!
#45350
1!
#45445
0!
#45740
1!
#45830
0!
#46125
1!
#46430
0!
#46515
1!
#46820
0!
#46900
1!
#47205
0!
#47290
1!
#47595
0!
#47675
1!
#47770
0!
#48065
1!
#48370
0!
#48450
1!
#48545
0!
#48840
1!
#48930
0!
#49225
1!
#49530
0!
#49615
1!
#49920
0!
#50000
1!
#50305
0!
#50390
1!
#50480
0!
#50775
1!
#51080
0!
#51165
1!
#51255
0!
#51550
1!
#51645
0!
#51940
1!
#52245
0!
#52325
1!
#52630
0!
#52715
1!
#53020
0!
#53100
1!
#53405
0!
#53490
1!
#53795
0!
#53875
1!
#54180
0!
#54265
1!
#54570
0!
#54650
1!
#54955
0!
#55040
1!
#55345
0!
#55425
1!
#55520
0!
#55815
1!
#55905
0!
#56200
1!
#56295
0!
#56590
1!
#56895
0!
#56975
1!
#57280
0!
#57365
1!
#57455
0!
#57750
1!
#57845
0!
#58140
1!
#58230
0!
#58525
1!
#58830
0!
#58915
1!
#59220
0!
#59300
1!
#59605
0!
#59690
1!
#59995
0!
#60075
1!
#60380
0!
#60465
1!
#60770
0!
#60850
1!
#61155
0!
#61240
1!
#61545
0!
#61625
1!
#61930
0!
#62015
1!
#62105
0!
#62400
1!
#62495
0!
#62790
1!
#63095
0!
#63175
1!
#63480
0!
#63565
1!
#63870
0!
#63950
1!
#64255
0!
#64340
1!
#64645
0!
#64725
1!
#65030
0!
#65115
1!
#65420
0!
#65500
1!
#65805
0!
#65890
1!
#66195
0!
#66275
1!
#66580
0!
#66665
1!
#66970
0!
#67050
1!
#67355
0!
#67440
1!
#67745
0!
#67825
1!
#67920
0!
#68215
1!
#68520
0!
#68600
1!
#68695
0!
#68990
1!
#69295
0!
#69375
1!
#69680
0!
#69765
1!
#70070
0!
#70150
1!
#70455
0!
#70535
1!
#70845
0!
#70925
1!
#71230
0!
#71310
1!
#71620
0!
#71700
1!
#72005
0!
#72085
1!
#72395
0!
#72475
1!
#72780
0!
#72860
1!
#73170
0!
#73250
1!
#73555
0!
#73635
1!
#73730
0!
#74025
1!
#74330
0!
#74410
1!
#74720
0!
#74800
1!
#74895
0!
#75185
1!
#75495
0!
#75575
1!
#75880
0!
#75960
1!
#76270
0!
#76350
1!
#76655
0!
#76735
1!
#77045
0!
#77125
1!
#77430
0!
#77510
1!
#77820
0!
#77900
1!
#78205
0!
#78285
1!
#78595
0!
#78675
1!
#78980
0!
#79060
1!
#79370
0!
#79450
1!
#79755
0!
#79835
1!
#80145
0!
#80225
1!
#80320
0!
#80610
1!
#80705
0!
#81000
1!
#81305
0!
#81385
1!
#81695
0!
#81775
1!
#82080
0!
#82160
1!
#82470
0!
#82550
1!
#82855
0!
#82935
1!
#83245
0!
#83325
1!
#83630
0!
#83710
1!
#84020
0!
#84100
1!
#84405
0!
#84485
1!
#84795
0!
#84875
1!
#85180
0!
#85260
1!
#85570
0!
#85650
1!
#85955
0!
#86035
1!
#86345
0!
#86425
1!
#86730
0!
#86810
1!
#86905
0!
#87200
1!
#87505
0!
#87585
1!
#87890
0!
#87975
1!
#88280
0!
#88360
1!
#88665
0!
#88750
1!
#89055
0!
#89135
1!
#89440
0!
#89525
1!
#89830
0!
#89910
1!
#90215
0!
#90300
1!
#90605
0!
#90685
1!
#90990
0!
#91075
1!
#91165
0!
#91460
1!
#91555
0!
#91850
1!
#92155
0!
#92235
1!
#92330
0!
#92625
1!
#92715
0!
#93010
1!
#93315
0!
#93400
1!
#93705
0!
#93785
1!
#94090
0!
#94175
1!
#94480
0!
#94560
1!
#94865
0!
#94950
1!
#95255
0!
#95335
1!
#95640
0!
#95725
1!
#96030
0!
#96110
1!
#96415
0!
#96500
1!
#96805
0!
#96885
1!
#97190
0!
#97275
1!
#97365
0!
#97660
1!
#97965
0!
#98050
1!
#98140
0!
#98435
1!
#98530
0!
#98825
1!
#99130
0!
#99210
1!
#99515
0!
#99600
1!
#99905
0!
#99985
1!
#100290
0!
#100375
1!
#100680
0!
#100760
1!
#101065
0!
#101150
1!
#101455
0!
#101535
1!
#101840
0!
#101925
1!
#102230
0!
#102310
1!
#102615
0!
#102700
1!
#103005
0!
#103085
1!
#103390
0!
#103475
1!
#104180
0!
#104260
1!
#104565
0!
#104650
1!
#104740
0!
#105035
1!
#105130
0!
#105425
1!
#105515
0!
#105810
1!
#105905
0!
#106200
1!
#106290
0!
#106585
1!
#106890
0!
#106975
1!
#107280
0!
#107360
1!
#107665
0!
#107750
1!
#108055
0!
#108135
1!
#108440
0!
#108525
1!
#108830
0!
#108910
1!
#109215
0!
#109300
1!
#109605
0!
#109685
1!
#109780
0!
#110075
1!
#110165
0!
#110460
1!
#110555
0!
#110850
1!
#110940
0!
#111235
1!
#111540
0!
#111625
1!
#111715
0!
#112010
1!
#112105
0!
#112400
1!
#112490
0!
#112785
1!
#113090
0!
#113175
1!
#113480
0!
#113560
1!
#113865
0!
#113950
1!
#114255
0!
#114335
1!
#114640
0!
#114725
1!
#115030
0!
#115110
1!
#115415
0!
#115500
1!
#115805
0!
#115885
1!
#116190
0!
#116275
1!
#116580
0!
#116660
1!
#116755
0!
#117045
1!
#117355
0!
#117435
1!
#117530
0!
#117820
1!
#118130
0!
#118210
1!
#118305
0!
#118595
1!
#118690
0!
#118985
1!
#119080
0!
#119370
1!
#119465
0!
#119760
1!
#119855
0!
#120145
1!
#120240
0!
#120535
1!
#120840
0!
#120920
1!
#121230
0!
#121310
1!
#121615
0!
#121695
1!
#122005
0!
#122085
1!
#122390
0!
#122470
1!
#122780
0!
#122860
1!
