logic_analyzer_vcd_dumps/fgfgfg.vcd
$comment 
  OLS Java Client
$end
$date 
  May 12, 2014 11:05:51 PM
$end
$version 
  VCD exporter v1.1
$end
$timescale 
  10 ns
$end
$scope 
  module logic
$end
$var wire 1 ! Channel-0 $end
$var wire 1 " Channel-1 $end
$var wire 1 # Channel-2 $end
$var wire 1 $ Channel-3 $end
$var wire 1 % Channel-4 $end
$var wire 1 & Channel-5 $end
$var wire 1 ' Channel-6 $end
$var wire 1 ( Channel-7 $end
$upscope $end
$enddefinitions $end
$dumpvars
x!
x"
x#
x$
x%
x&
x'
x(
$end
#0
1!
0"
0#
0$
0%
0&
0'
0(
#205
0!
#285
1!
#590
0!
#675
1!
#980
0!
#1060
1!
#1365
0!
#1450
1!
#2155
0!
#2235
1!
#2540
0!
#2625
1!
#2930
0!
#3010
1!
#3105
0!
#3395
1!
#3490
0!
#3785
1!
#3880
0!
#4170
1!
#4265
0!
#4560
1!
#4865
0!
#4945
1!
#5255
0!
#5335
1!
#5640
0!
#5720
1!
#6030
0!
#6110
1!
#6415
0!
#6495
1!
#6805
0!
#6885
1!
#7190
0!
#7270
1!
#7580
0!
#7660
1!
#7755
0!
#8045
1!
#8140
0!
#8435
1!
#8530
0!
#8820
1!
#8915
0!
#9210
1!
#9515
0!
#9595
1!
#9690
0!
#9985
1!
#10080
0!
#10370
1!
#10465
0!
#10760
1!
#11065
0!
#11145
1!
#11455
0!
#11535
1!
#11840
0!
#11920
1!
#12230
0!
#12310
1!
#12615
0!
#12695
1!
#13005
0!
#13085
1!
#13390
0!
#13470
1!
#13780
0!
#13860
1!
#14165
0!
#14245
1!
#14555
0!
#14635
1!
#14730
0!
#15020
1!
#15115
0!
#15410
1!
#15505
0!
#15795
1!
#16105
0!
#16185
1!
#16280
0!
#16570
1!
#16665
0!
#16960
1!
#17055
0!
#17345
1!
#17440
0!
#17735
1!
#17830
0!
#18120
1!
#18215
0!
#18510
1!
#18815
0!
#18895
1!
#19205
0!
#19285
1!
#19590
0!
#19670
1!
#19980
0!
#20060
1!
#20365
0!
#20445
1!
#20750
0!
#20835
1!
#21140
0!
#21220
1!
#21525
0!
#21610
1!
#21915
0!
#21995
1!
#22300
0!
#22385
1!
#22475
0!
#22770
1!
#22865
0!
#23160
1!
#23250
0!
#23545
1!
#23640
0!
#23935
1!
#24025
0!
#24320
1!
#24415
0!
#24710
1!
#25015
0!
#25095
1!
#25400
0!
#25485
1!
#25790
0!
#25870
1!
#26175
0!
#26260
1!
#26565
0!
#26645
1!
#26950
0!
#27035
1!
#27340
0!
#27420
1!
#27725
0!
#27810
1!
#27900
0!
#28195
1!
#28290
0!
#28585
1!
#28890
0!
#28970
1!
#29065
0!
#29360
1!
#29450
0!
#29745
1!
#30050
0!
#30135
1!
#30225
0!
#30520
1!
#30615
0!
#30910
1!
#31215
0!
#31295
1!
#31600
0!
#31685
1!
#31990
0!
#32070
1!
#32375
0!
#32460
1!
#32765
0!
#32845
1!
#33150
0!
#33235
1!
#33540
0!
#33620
1!
#33925
0!
#34010
1!
#34315
0!
#34395
1!
#34490
0!
#34785
1!
#35090
0!
#35170
1!
#35265
0!
#35560
1!
#35650
0!
#35945
1!
#36040
0!
#36335
1!
#36425
0!
#36720
1!
#36815
0!
#37110
1!
#37415
0!
#37495
1!
#37800
0!
#37885
1!
#38190
0!
#38270
1!
#38575
0!
#38660
1!
#38965
0!
#39045
1!
#39350
0!
#39435
1!
#39740
0!
#39820
1!
#40125
0!
#40210
1!
#40300
0!
#40595
1!
#40900
0!
#40985
1!
#41290
0!
#41370
1!
#41465
0!
#41760
1!
#41850
0!
#42145
1!
#42240
0!
#42535
1!
#42625
0!
#42920
1!
#43015
0!
#43310
1!
#43615
0!
#43695
1!
#44000
0!
#44085
1!
#44390
0!
#44470
1!
#44775
0!
#44860
1!
#44950
0!
#45245
1!
#45550
0!
#45635
1!
#45725
0!
#46020
1!
#46115
0!
#46410
1!
#46715
0!
#46795
1!
#47100
0!
#47185
1!
#47490
0!
#47570
1!
#47665
0!
#47955
1!
#48050
0!
#48345
1!
#48440
0!
#48730
1!
#48825
0!
#49120
1!
#49215
0!
#49505
1!
#49815
0!
#49895
1!
#50200
0!
#50280
1!
#50590
0!
#50670
1!
#50975
0!
#51055
1!
#51365
0!
#51445
1!
#51750
0!
#51830
1!
#52140
0!
#52220
1!
#52525
0!
#52605
1!
#52700
0!
#52995
1!
#53090
0!
#53380
1!
#53475
0!
#53770
1!
#54075
0!
#54155
1!
#54250
0!
#54545
1!
#54640
0!
#54930
1!
#55025
0!
#55320
1!
#55415
0!
#55705
1!
#56015
0!
#56095
1!
#56400
0!
#56480
1!
#56790
0!
#56870
1!
#57175
0!
#57255
1!
#57565
0!
#57645
1!
#57950
0!
#58030
1!
#58340
0!
#58420
1!
#58725
0!
#58805
1!
#59115
0!
#59195
1!
#59290
0!
#59580
1!
#59675
0!
#59970
1!
#60275
0!
#60355
1!
#60665
0!
#60745
1!
#61050
0!
#61130
1!
#61440
0!
#61520
1!
#61825
0!
#61905
1!
#62215
0!
#62295
1!
#62600
0!
#62680
1!
#62990
0!
#63070
1!
#63375
0!
#63455
1!
#63765
0!
#63845
1!
#64150
0!
#64230
1!
#64540
0!
#64620
1!
#64925
0!
#65005
1!
#65100
0!
#65395
1!
#65700
0!
#65780
1!
#65875
0!
#66170
1!
#66475
0!
#66555
1!
#66860
0!
#66945
1!
#67250
0!
#67330
1!
#67635
0!
#67720
1!
#68025
0!
#68105
1!
#68410
0!
#68495
1!
#68800
0!
#68880
1!
#69185
0!
#69270
1!
#69575
0!
#69655
1!
#69960
0!
#70045
1!
#70350
0!
#70430
1!
#70735
0!
#70820
1!
#70910
0!
#71205
1!
#71510
0!
#71595
1!
#71900
0!
#71980
1!
#72075
0!
#72370
1!
#72675
0!
#72755
1!
#73060
0!
#73145
1!
#73450
0!
#73530
1!
#73835
0!
#73920
1!
#74225
0!
#74305
1!
#74610
0!
#74695
1!
#75000
0!
#75080
1!
#75385
0!
#75470
1!
#75775
0!
#75855
1!
#76160
0!
#76245
1!
#76550
0!
#76630
1!
#76935
0!
#77020
1!
#77325
0!
#77405
1!
#77500
0!
#77795
1!
#77885
0!
#78180
1!
#78485
0!
#78570
1!
#78875
0!
#78955
1!
#79260
0!
#79345
1!
#79650
0!
#79730
1!
#80035
0!
#80120
1!
#80425
0!
#80505
1!
#80810
0!
#80895
1!
#81200
0!
#81280
1!
#81585
0!
#81670
1!
#81975
0!
#82055
1!
#82360
0!
#82445
1!
#82750
0!
#82830
1!
#83135
0!
#83220
1!
#83525
0!
#83605
1!
#83910
0!
#83995
1!
#84085
0!
#84380
1!
#84685
0!
#84770
1!
#85075
0!
#85155
1!
#85460
0!
#85545
1!
#85850
0!
#85930
1!
#86235
0!
#86320
1!
#86625
0!
#86705
1!
#87010
0!
#87095
1!
#87400
0!
#87480
1!
#87785
0!
#87870
1!
#88175
0!
#88255
1!
#88350
0!
#88645
1!
#88735
0!
#89030
1!
#89335
0!
#89420
1!
#89510
0!
#89805
1!
#89900
0!
#90195
1!
#90500
0!
#90580
1!
#90885
0!
#90970
1!
#91275
0!
#91355
1!
#91660
0!
#91745
1!
#92050
0!
#92130
1!
#92435
0!
#92520
1!
#92825
0!
#92905
1!
#93210
0!
#93290
1!
#93600
0!
#93680
1!
#93985
0!
#94065
1!
#94375
0!
#94455
1!
#94550
0!
#94840
1!
#95150
0!
#95230
1!
#95325
0!
#95615
1!
#95710
0!
#96005
1!
#96310
0!
#96390
1!
#96700
0!
#96780
1!
#97085
0!
#97165
1!
#97475
0!
#97555
1!
#97860
0!
#97940
1!
#98250
0!
#98330
1!
#98635
0!
#98715
1!
#99025
0!
#99105
1!
#99410
0!
#99490
1!
#99800
0!
#99880
1!
#100185
0!
#100265
1!
#100575
0!
#100655
1!
#101360
0!
#101440
1!
#101750
0!
#101830
1!
#102135
0!
#102215
1!
#102310
0!
#102605
1!
#102700
0!
#102990
1!
#103085
0!
#103380
1!
#103475
0!
#103765
1!
#104075
0!
#104155
1!
#104460
0!
#104540
1!
#104850
0!
#104930
1!
#105235
0!
#105315
1!
#105625
0!
#105705
1!
#106010
0!
#106090
1!
#106400
0!
#106480
1!
#106785
0!
#106865
1!
#106960
0!
#107255
1!
#107350
0!
#107640
1!
#107735
0!
#108030
1!
#108125
0!
#108415
1!
#108725
0!
#108805
1!
#108900
0!
#109190
1!
#109285
0!
#109580
1!
#109670
0!
#109965
1!
#110270
0!
#110355
1!
#110660
0!
#110740
1!
#111045
0!
#111130
1!
#111435
0!
#111515
1!
#111820
0!
#111905
1!
#112210
0!
#112290
1!
#112595
0!
#112680
1!
#112985
0!
#113065
1!
#113370
0!
#113455
1!
#113760
0!
#113840
1!
#113935
0!
#114230
1!
#114320
0!
#114615
1!
#114710
0!
#115005
1!
#115310
0!
#115390
1!
#115485
0!
#115780
1!
#115870
0!
#116165
1!
#116260
0!
#116555
1!
#116645
0!
#116940
1!
#117035
0!
#117330
1!
#117420
0!
#117715
1!
#118020
0!
#118105
1!
#118410
0!
#118490
1!
#118795
0!
#118880
1!
#119185
0!
#119265
1!
#119570
0!
#119655
1!
#119960
0!
#120040
1!
#120345
0!
#120430
1!
#120735
0!
#120815
1!
#121120
0!
#121205
1!
#121510
0!
#121590
1!
#121685
0!
#121980
1!
#122070
0!
#122365
1!
#122460
0!
#122755
1!
#122845
0!
